raymarcher.vcd
$date
	Tue Oct 17 21:03:36 2023
$end
$version
	Icarus Verilog
$end
$timescale
	1ps
$end
$scope module tb $end
$var wire 8 ! red_out [7:0] $end
$var wire 32 " ray_steps [31:0] $end
$var wire 32 # ray_dist_squared [31:0] $end
$var wire 1 $ pixel_done $end
$var wire 8 % green_out [7:0] $end
$var wire 8 & blue_out [7:0] $end
$var reg 1 ' clk_in $end
$var reg 1 ( rst_in $end
$var reg 11 ) x_in [10:0] $end
$var reg 10 * y_in [9:0] $end
$scope module raym $end
$var wire 1 ' clk_pixel_in $end
$var wire 9 + curr_x [8:0] $end
$var wire 9 , curr_y [8:0] $end
$var wire 1 ( rst_in $end
$var parameter 24 - EPSILON $end
$var parameter 32 . HEIGHT $end
$var parameter 24 / MAX_DIST_SQUARE $end
$var parameter 32 0 MAX_STEPS $end
$var parameter 32 1 WIDTH $end
$var reg 8 2 blue_out [7:0] $end
$var reg 24 3 dir_x [23:0] $end
$var reg 24 4 dir_y [23:0] $end
$var reg 24 5 dir_z [23:0] $end
$var reg 8 6 green_out [7:0] $end
$var reg 1 $ pixel_done $end
$var reg 24 7 ray_dist_squared [23:0] $end
$var reg 8 8 ray_steps [7:0] $end
$var reg 24 9 ray_x [23:0] $end
$var reg 24 : ray_y [23:0] $end
$var reg 24 ; ray_z [23:0] $end
$var reg 8 < red_out [7:0] $end
$upscope $end
$scope begin $ivl_for_loop0 $end
$var integer 32 = i [31:0] $end
$upscope $end
$upscope $end
$enddefinitions $end
$comment Show the parameter values. $end
$dumpall
b100101100 1
b1100100 0
b100000000000 /
b100101100 .
b111100000000000000010000 -
$end
#0
$dumpvars
b0 =
bx <
bx ;
bx :
bx 9
bx 8
bx 7
bx 6
bx 5
bx 4
bx 3
bx 2
b10010110 ,
b10010110 +
b10010110 *
b10010110 )
0(
0'
bx &
bx %
x$
b0xxxxxxxxxxxxxxxxxxxxxxxx #
b0xxxxxxxx "
bx !
$end
#5000
1'
#10000
0'
1(
#15000
b0 #
b0 7
0$
b0 "
b0 8
1'
#20000
0'
0(
#25000
b11111111 &
b11111111 2
b11111111 %
b11111111 6
b11111111 !
b11111111 <
b1 "
b1 8
b0 ;
b0 :
b0 9
b1001011000000000 5
b0 4
b0 3
1'
#30000
0'
#35000
b10 "
b10 8
b1001011000000000 ;
1'
#40000
0'
b1 =
#45000
b11 "
b11 8
b1110010000000000 #
b1110010000000000 7
b10010110000000000 ;
1'
#50000
0'
b10 =
#55000
1$
1'
#60000
0'
b11 =
#65000
b0 #
b0 7
0$
b0 "
b0 8
1'
#70000
0'
b100 =
#75000
b1 "
b1 8
b0 ;
1'
#80000
0'
b101 =
#85000
b10 "
b10 8
b1001011000000000 ;
1'
#90000
0'
b110 =
#95000
b11 "
b11 8
b1110010000000000 #
b1110010000000000 7
b10010110000000000 ;
1'
#100000
0'
b111 =
#105000
1$
1'
#110000
0'
b1000 =
#115000
b0 #
b0 7
0$
b0 "
b0 8
1'
#120000
0'
b1001 =
#125000
b1 "
b1 8
b0 ;
1'
#130000
0'
b1010 =
#135000
b10 "
b10 8
b1001011000000000 ;
1'
#140000
0'
b1011 =
#145000
b11 "
b11 8
b1110010000000000 #
b1110010000000000 7
b10010110000000000 ;
1'
#150000
0'
b1100 =
#155000
1$
1'
#160000
0'
b1101 =
#165000
b0 #
b0 7
0$
b0 "
b0 8
1'
#170000
0'
b1110 =
#175000
b1 "
b1 8
b0 ;
1'
#180000
0'
b1111 =
#185000
b10 "
b10 8
b1001011000000000 ;
1'
#190000
0'
b10000 =
#195000
b11 "
b11 8
b1110010000000000 #
b1110010000000000 7
b10010110000000000 ;
1'
#200000
0'
b10001 =
#205000
1$
1'
#210000
0'
b10010 =
#215000
b0 #
b0 7
0$
b0 "
b0 8
1'
#220000
0'
b10011 =
#225000
b1 "
b1 8
b0 ;
1'
#230000
0'
b10100 =
#235000
b10 "
b10 8
b1001011000000000 ;
1'
#240000
0'
b10101 =
#245000
b11 "
b11 8
b1110010000000000 #
b1110010000000000 7
b10010110000000000 ;
1'
#250000
0'
b10110 =
#255000
1$
1'
#260000
0'
b10111 =
#265000
b0 #
b0 7
0$
b0 "
b0 8
1'
#270000
0'
b11000 =
#275000
b1 "
b1 8
b0 ;
1'
#280000
0'
b11001 =
#285000
b10 "
b10 8
b1001011000000000 ;
1'
#290000
0'
b11010 =
#295000
b11 "
b11 8
b1110010000000000 #
b1110010000000000 7
b10010110000000000 ;
1'
#300000
0'
b11011 =
#305000
1$
1'
#310000
0'
b11100 =
#315000
b0 #
b0 7
0$
b0 "
b0 8
1'
#320000
0'
b11101 =
#325000
b1 "
b1 8
b0 ;
1'
#330000
0'
b11110 =
#335000
b10 "
b10 8
b1001011000000000 ;
1'
#340000
0'
b11111 =
#345000
b11 "
b11 8
b1110010000000000 #
b1110010000000000 7
b10010110000000000 ;
1'
#350000
0'
b100000 =
#355000
1$
1'
#360000
0'
b100001 =
#365000
b0 #
b0 7
0$
b0 "
b0 8
1'
#370000
0'
b100010 =
#375000
b1 "
b1 8
b0 ;
1'
#380000
0'
b100011 =
#385000
b10 "
b10 8
b1001011000000000 ;
1'
#390000
0'
b100100 =
#395000
b11 "
b11 8
b1110010000000000 #
b1110010000000000 7
b10010110000000000 ;
1'
#400000
0'
b100101 =
#405000
1$
1'
#410000
0'
b100110 =
#415000
b0 #
b0 7
0$
b0 "
b0 8
1'
#420000
0'
b100111 =
#425000
b1 "
b1 8
b0 ;
1'
#430000
0'
b101000 =
#435000
b10 "
b10 8
b1001011000000000 ;
1'
#440000
0'
b101001 =
#445000
b11 "
b11 8
b1110010000000000 #
b1110010000000000 7
b10010110000000000 ;
1'
#450000
0'
b101010 =
#455000
1$
1'
#460000
0'
b101011 =
#465000
b0 #
b0 7
0$
b0 "
b0 8
1'
#470000
0'
b101100 =
#475000
b1 "
b1 8
b0 ;
1'
#480000
0'
b101101 =
#485000
b10 "
b10 8
b1001011000000000 ;
1'
#490000
0'
b101110 =
#495000
b11 "
b11 8
b1110010000000000 #
b1110010000000000 7
b10010110000000000 ;
1'
#500000
0'
b101111 =
#505000
1$
1'
#510000
0'
b110000 =
#515000
b0 #
b0 7
0$
b0 "
b0 8
1'
#520000
0'
b110001 =
#525000
b1 "
b1 8
b0 ;
1'
#530000
0'
b110010 =
#535000
b10 "
b10 8
b1001011000000000 ;
1'
#540000
0'
b110011 =
#545000
b11 "
b11 8
b1110010000000000 #
b1110010000000000 7
b10010110000000000 ;
1'
#550000
0'
b110100 =
#555000
1$
1'
#560000
0'
b110101 =
#565000
b0 #
b0 7
0$
b0 "
b0 8
1'
#570000
0'
b110110 =
#575000
b1 "
b1 8
b0 ;
1'
#580000
0'
b110111 =
#585000
b10 "
b10 8
b1001011000000000 ;
1'
#590000
0'
b111000 =
#595000
b11 "
b11 8
b1110010000000000 #
b1110010000000000 7
b10010110000000000 ;
1'
#600000
0'
b111001 =
#605000
1$
1'
#610000
0'
b111010 =
#615000
b0 #
b0 7
0$
b0 "
b0 8
1'
#620000
0'
b111011 =
#625000
b1 "
b1 8
b0 ;
1'
#630000
0'
b111100 =
#635000
b10 "
b10 8
b1001011000000000 ;
1'
#640000
0'
b111101 =
#645000
b11 "
b11 8
b1110010000000000 #
b1110010000000000 7
b10010110000000000 ;
1'
#650000
0'
b111110 =
#655000
1$
1'
#660000
0'
b111111 =
#665000
b0 #
b0 7
0$
b0 "
b0 8
1'
#670000
0'
b1000000 =
#675000
b1 "
b1 8
b0 ;
1'
#680000
0'
b1000001 =
#685000
b10 "
b10 8
b1001011000000000 ;
1'
#690000
0'
b1000010 =
#695000
b11 "
b11 8
b1110010000000000 #
b1110010000000000 7
b10010110000000000 ;
1'
#700000
0'
b1000011 =
#705000
1$
1'
#710000
0'
b1000100 =
#715000
b0 #
b0 7
0$
b0 "
b0 8
1'
#720000
0'
b1000101 =
#725000
b1 "
b1 8
b0 ;
1'
#730000
0'
b1000110 =
#735000
b10 "
b10 8
b1001011000000000 ;
1'
#740000
0'
b1000111 =
#745000
b11 "
b11 8
b1110010000000000 #
b1110010000000000 7
b10010110000000000 ;
1'
#750000
0'
b1001000 =
#755000
1$
1'
#760000
0'
b1001001 =
#765000
b0 #
b0 7
0$
b0 "
b0 8
1'
#770000
0'
b1001010 =
#775000
b1 "
b1 8
b0 ;
1'
#780000
0'
b1001011 =
#785000
b10 "
b10 8
b1001011000000000 ;
1'
#790000
0'
b1001100 =
#795000
b11 "
b11 8
b1110010000000000 #
b1110010000000000 7
b10010110000000000 ;
1'
#800000
0'
b1001101 =
#805000
1$
1'
#810000
0'
b1001110 =
#815000
b0 #
b0 7
0$
b0 "
b0 8
1'
#820000
0'
b1001111 =
#825000
b1 "
b1 8
b0 ;
1'
#830000
0'
b1010000 =
#835000
b10 "
b10 8
b1001011000000000 ;
1'
#840000
0'
b1010001 =
#845000
b11 "
b11 8
b1110010000000000 #
b1110010000000000 7
b10010110000000000 ;
1'
#850000
0'
b1010010 =
#855000
1$
1'
#860000
0'
b1010011 =
#865000
b0 #
b0 7
0$
b0 "
b0 8
1'
#870000
0'
b1010100 =
#875000
b1 "
b1 8
b0 ;
1'
#880000
0'
b1010101 =
#885000
b10 "
b10 8
b1001011000000000 ;
1'
#890000
0'
b1010110 =
#895000
b11 "
b11 8
b1110010000000000 #
b1110010000000000 7
b10010110000000000 ;
1'
#900000
0'
b1010111 =
#905000
1$
1'
#910000
0'
b1011000 =
#915000
b0 #
b0 7
0$
b0 "
b0 8
1'
#920000
0'
b1011001 =
#925000
b1 "
b1 8
b0 ;
1'
#930000
0'
b1011010 =
#935000
b10 "
b10 8
b1001011000000000 ;
1'
#940000
0'
b1011011 =
#945000
b11 "
b11 8
b1110010000000000 #
b1110010000000000 7
b10010110000000000 ;
1'
#950000
0'
b1011100 =
#955000
1$
1'
#960000
0'
b1011101 =
#965000
b0 #
b0 7
0$
b0 "
b0 8
1'
#970000
0'
b1011110 =
#975000
b1 "
b1 8
b0 ;
1'
#980000
0'
b1011111 =
#985000
b10 "
b10 8
b1001011000000000 ;
1'
#990000
0'
b1100000 =
#995000
b11 "
b11 8
b1110010000000000 #
b1110010000000000 7
b10010110000000000 ;
1'
#1000000
0'
b1100001 =
#1005000
1$
1'
#1010000
0'
b1100010 =
#1015000
b0 #
b0 7
0$
b0 "
b0 8
1'
#1020000
0'
b1100011 =
#1025000
b1 "
b1 8
b0 ;
1'
#1030000
0'
b1100100 =
#1035000
b10 "
b10 8
b1001011000000000 ;
1'
#1040000
0'
b1100101 =
#1045000
b11 "
b11 8
b1110010000000000 #
b1110010000000000 7
b10010110000000000 ;
1'
#1050000
0'
b1100110 =
#1055000
1$
1'
#1060000
0'
b1100111 =
#1065000
b0 #
b0 7
0$
b0 "
b0 8
1'
#1070000
0'
b1101000 =
#1075000
b1 "
b1 8
b0 ;
1'
#1080000
0'
b1101001 =
#1085000
b10 "
b10 8
b1001011000000000 ;
1'
#1090000
0'
b1101010 =
#1095000
b11 "
b11 8
b1110010000000000 #
b1110010000000000 7
b10010110000000000 ;
1'
#1100000
0'
b1101011 =
#1105000
1$
1'
#1110000
0'
b1101100 =
#1115000
b0 #
b0 7
0$
b0 "
b0 8
1'
#1120000
0'
b1101101 =
#1125000
b1 "
b1 8
b0 ;
1'
#1130000
0'
b1101110 =
#1135000
b10 "
b10 8
b1001011000000000 ;
1'
#1140000
0'
b1101111 =
#1145000
b11 "
b11 8
b1110010000000000 #
b1110010000000000 7
b10010110000000000 ;
1'
#1150000
0'
b1110000 =
#1155000
1$
1'
#1160000
0'
b1110001 =
#1165000
b0 #
b0 7
0$
b0 "
b0 8
1'
#1170000
0'
b1110010 =
#1175000
b1 "
b1 8
b0 ;
1'
#1180000
0'
b1110011 =
#1185000
b10 "
b10 8
b1001011000000000 ;
1'
#1190000
0'
b1110100 =
#1195000
b11 "
b11 8
b1110010000000000 #
b1110010000000000 7
b10010110000000000 ;
1'
#1200000
0'
b1110101 =
#1205000
1$
1'
#1210000
0'
b1110110 =
#1215000
b0 #
b0 7
0$
b0 "
b0 8
1'
#1220000
0'
b1110111 =
#1225000
b1 "
b1 8
b0 ;
1'
#1230000
0'
b1111000 =
#1235000
b10 "
b10 8
b1001011000000000 ;
1'
#1240000
0'
b1111001 =
#1245000
b11 "
b11 8
b1110010000000000 #
b1110010000000000 7
b10010110000000000 ;
1'
#1250000
0'
b1111010 =
#1255000
1$
1'
#1260000
0'
b1111011 =
#1265000
b0 #
b0 7
0$
b0 "
b0 8
1'
#1270000
0'
b1111100 =
#1275000
b1 "
b1 8
b0 ;
1'
#1280000
0'
b1111101 =
#1285000
b10 "
b10 8
b1001011000000000 ;
1'
#1290000
0'
b1111110 =
#1295000
b11 "
b11 8
b1110010000000000 #
b1110010000000000 7
b10010110000000000 ;
1'
#1300000
0'
b1111111 =
#1305000
1$
1'
#1310000
0'
b10000000 =
#1315000
b0 #
b0 7
0$
b0 "
b0 8
1'
#1320000
0'
b10000001 =
#1325000
b1 "
b1 8
b0 ;
1'
#1330000
0'
b10000010 =
#1335000
b10 "
b10 8
b1001011000000000 ;
1'
#1340000
0'
b10000011 =
#1345000
b11 "
b11 8
b1110010000000000 #
b1110010000000000 7
b10010110000000000 ;
1'
#1350000
0'
b10000100 =
#1355000
1$
1'
#1360000
0'
b10000101 =
#1365000
b0 #
b0 7
0$
b0 "
b0 8
1'
#1370000
0'
b10000110 =
#1375000
b1 "
b1 8
b0 ;
1'
#1380000
0'
b10000111 =
#1385000
b10 "
b10 8
b1001011000000000 ;
1'
#1390000
0'
b10001000 =
#1395000
b11 "
b11 8
b1110010000000000 #
b1110010000000000 7
b10010110000000000 ;
1'
#1400000
0'
b10001001 =
#1405000
1$
1'
#1410000
0'
b10001010 =
#1415000
b0 #
b0 7
0$
b0 "
b0 8
1'
#1420000
0'
b10001011 =
#1425000
b1 "
b1 8
b0 ;
1'
#1430000
0'
b10001100 =
#1435000
b10 "
b10 8
b1001011000000000 ;
1'
#1440000
0'
b10001101 =
#1445000
b11 "
b11 8
b1110010000000000 #
b1110010000000000 7
b10010110000000000 ;
1'
#1450000
0'
b10001110 =
#1455000
1$
1'
#1460000
0'
b10001111 =
#1465000
b0 #
b0 7
0$
b0 "
b0 8
1'
#1470000
0'
b10010000 =
#1475000
b1 "
b1 8
b0 ;
1'
#1480000
0'
b10010001 =
#1485000
b10 "
b10 8
b1001011000000000 ;
1'
#1490000
0'
b10010010 =
#1495000
b11 "
b11 8
b1110010000000000 #
b1110010000000000 7
b10010110000000000 ;
1'
#1500000
0'
b10010011 =
#1505000
1$
1'
#1510000
0'
b10010100 =
#1515000
b0 #
b0 7
0$
b0 "
b0 8
1'
#1520000
0'
b10010101 =
#1525000
b1 "
b1 8
b0 ;
1'
#1530000
0'
b10010110 =
