raymarcher.vcd
$date
	Thu Oct 19 19:43:08 2023
$end
$version
	Icarus Verilog
$end
$timescale
	1ps
$end
$scope module tb $end
$var wire 33 ! y_out [32:0] $end
$var wire 33 " x_out [32:0] $end
$var wire 8 # red_out [7:0] $end
$var wire 1 $ pixel_done $end
$var wire 8 % green_out [7:0] $end
$var wire 8 & blue_out [7:0] $end
$var reg 1 ' clk_in $end
$var reg 1 ( rst_in $end
$var reg 33 ) x_in [32:0] $end
$var reg 33 * y_in [32:0] $end
$scope module raym $end
$var wire 1 ' clk_in $end
$var wire 9 + curr_x [8:0] $end
$var wire 9 , curr_y [8:0] $end
$var wire 1 ( rst_in $end
$var wire 8 - sdf_red_out [7:0] $end
$var wire 32 . sdf_out [31:0] $end
$var wire 8 / sdf_green_out [7:0] $end
$var wire 1 0 sdf_done $end
$var wire 8 1 sdf_blue_out [7:0] $end
$var wire 32 2 ray_gen_out_z [31:0] $end
$var wire 32 3 ray_gen_out_y [31:0] $end
$var wire 32 4 ray_gen_out_x [31:0] $end
$var wire 1 5 ray_gen_done $end
$var parameter 32 6 EPSILON $end
$var parameter 32 7 HEIGHT $end
$var parameter 32 8 MAX_DIST_SQUARE $end
$var parameter 32 9 MAX_STEPS $end
$var parameter 32 : WIDTH $end
$var reg 8 ; blue_out [7:0] $end
$var reg 32 < dir_x [31:0] $end
$var reg 32 = dir_y [31:0] $end
$var reg 32 > dir_z [31:0] $end
$var reg 8 ? green_out [7:0] $end
$var reg 9 @ out_x [8:0] $end
$var reg 9 A out_y [8:0] $end
$var reg 1 $ pixel_done $end
$var reg 32 B ray_gen_in_x [31:0] $end
$var reg 32 C ray_gen_in_y [31:0] $end
$var reg 32 D ray_gen_in_z [31:0] $end
$var reg 1 E ray_gen_start $end
$var reg 8 F ray_steps [7:0] $end
$var reg 32 G ray_x [31:0] $end
$var reg 32 H ray_y [31:0] $end
$var reg 32 I ray_z [31:0] $end
$var reg 8 J red_out [7:0] $end
$var reg 1 K sdf_start $end
$var integer 32 L state [31:0] $end
$scope module ray_gen_inst $end
$var wire 1 ' clk_in $end
$var wire 32 M ray_gen_in_x [31:0] $end
$var wire 32 N ray_gen_in_y [31:0] $end
$var wire 32 O ray_gen_in_z [31:0] $end
$var wire 1 E ray_gen_start $end
$var wire 1 ( rst_in $end
$var wire 32 P sqrt_out [31:0] $end
$var wire 1 Q sqrt_done $end
$var wire 32 R div_z_out [31:0] $end
$var wire 1 S div_z_done $end
$var wire 32 T div_y_out [31:0] $end
$var wire 1 U div_y_done $end
$var wire 32 V div_x_out [31:0] $end
$var wire 1 W div_x_done $end
$var reg 1 X div_start $end
$var reg 1 Y div_x_set $end
$var reg 1 Z div_y_set $end
$var reg 1 [ div_z_set $end
$var reg 32 \ norm [31:0] $end
$var reg 1 ] processing $end
$var reg 1 5 ray_gen_done $end
$var reg 32 ^ ray_gen_out_x [31:0] $end
$var reg 32 _ ray_gen_out_y [31:0] $end
$var reg 32 ` ray_gen_out_z [31:0] $end
$var reg 32 a sqrt_in [31:0] $end
$var reg 1 b sqrt_start $end
$scope module divx $end
$var wire 32 c a [31:0] $end
$var wire 32 d b [31:0] $end
$var wire 1 ' clk $end
$var wire 1 ( rst $end
$var wire 1 X start $end
$var parameter 32 e FBITS $end
$var parameter 32 f FBITSW $end
$var parameter 34 g ITER $end
$var parameter 32 h SMALLEST $end
$var parameter 32 i WIDTH $end
$var parameter 33 j WIDTHU $end
$var reg 1 k a_sig $end
$var reg 32 l acc [31:0] $end
$var reg 32 m acc_next [31:0] $end
$var reg 31 n au [30:0] $end
$var reg 1 o b_sig $end
$var reg 31 p bu [30:0] $end
$var reg 1 q busy $end
$var reg 1 r dbz $end
$var reg 1 W done $end
$var reg 7 s i [6:0] $end
$var reg 1 t ovf $end
$var reg 31 u quo [30:0] $end
$var reg 31 v quo_next [30:0] $end
$var reg 1 w sig_diff $end
$var reg 32 x val [31:0] $end
$var reg 1 y valid $end
$var integer 32 z state [31:0] $end
$upscope $end
$scope module divy $end
$var wire 32 { a [31:0] $end
$var wire 32 | b [31:0] $end
$var wire 1 ' clk $end
$var wire 1 ( rst $end
$var wire 1 X start $end
$var parameter 32 } FBITS $end
$var parameter 32 ~ FBITSW $end
$var parameter 34 !" ITER $end
$var parameter 32 "" SMALLEST $end
$var parameter 32 #" WIDTH $end
$var parameter 33 $" WIDTHU $end
$var reg 1 %" a_sig $end
$var reg 32 &" acc [31:0] $end
$var reg 32 '" acc_next [31:0] $end
$var reg 31 (" au [30:0] $end
$var reg 1 )" b_sig $end
$var reg 31 *" bu [30:0] $end
$var reg 1 +" busy $end
$var reg 1 ," dbz $end
$var reg 1 U done $end
$var reg 7 -" i [6:0] $end
$var reg 1 ." ovf $end
$var reg 31 /" quo [30:0] $end
$var reg 31 0" quo_next [30:0] $end
$var reg 1 1" sig_diff $end
$var reg 32 2" val [31:0] $end
$var reg 1 3" valid $end
$var integer 32 4" state [31:0] $end
$upscope $end
$scope module divz $end
$var wire 32 5" a [31:0] $end
$var wire 32 6" b [31:0] $end
$var wire 1 ' clk $end
$var wire 1 ( rst $end
$var wire 1 X start $end
$var parameter 32 7" FBITS $end
$var parameter 32 8" FBITSW $end
$var parameter 34 9" ITER $end
$var parameter 32 :" SMALLEST $end
$var parameter 32 ;" WIDTH $end
$var parameter 33 <" WIDTHU $end
$var reg 1 =" a_sig $end
$var reg 32 >" acc [31:0] $end
$var reg 32 ?" acc_next [31:0] $end
$var reg 31 @" au [30:0] $end
$var reg 1 A" b_sig $end
$var reg 31 B" bu [30:0] $end
$var reg 1 C" busy $end
$var reg 1 D" dbz $end
$var reg 1 S done $end
$var reg 7 E" i [6:0] $end
$var reg 1 F" ovf $end
$var reg 31 G" quo [30:0] $end
$var reg 31 H" quo_next [30:0] $end
$var reg 1 I" sig_diff $end
$var reg 32 J" val [31:0] $end
$var reg 1 K" valid $end
$var integer 32 L" state [31:0] $end
$upscope $end
$scope module sqrt_inst $end
$var wire 1 ' clk $end
$var wire 32 M" rad [31:0] $end
$var wire 1 b start $end
$var parameter 32 N" FBITS $end
$var parameter 32 O" ITER $end
$var parameter 32 P" WIDTH $end
$var reg 34 Q" ac [33:0] $end
$var reg 34 R" ac_next [33:0] $end
$var reg 1 S" busy $end
$var reg 5 T" i [4:0] $end
$var reg 32 U" q [31:0] $end
$var reg 32 V" q_next [31:0] $end
$var reg 32 W" rem [31:0] $end
$var reg 32 X" root [31:0] $end
$var reg 34 Y" test_res [33:0] $end
$var reg 1 Q valid $end
$var reg 32 Z" x [31:0] $end
$var reg 32 [" x_next [31:0] $end
$upscope $end
$upscope $end
$scope module sdf_inst $end
$var wire 1 ' clk_in $end
$var wire 1 ( rst_in $end
$var wire 1 K sdf_start $end
$var wire 32 \" x [31:0] $end
$var wire 32 ]" y [31:0] $end
$var wire 32 ^" z [31:0] $end
$var wire 1 _" sphere_1_sqrt_done $end
$var wire 32 `" sphere_1_dist [31:0] $end
$var reg 8 a" sdf_blue_out [7:0] $end
$var reg 1 0 sdf_done $end
$var reg 8 b" sdf_green_out [7:0] $end
$var reg 32 c" sdf_out [31:0] $end
$var reg 8 d" sdf_red_out [7:0] $end
$var reg 32 e" sphere_1_dist_squared [31:0] $end
$var reg 1 f" sqrt_start $end
$var integer 32 g" state [31:0] $end
$scope module sqrt_inst $end
$var wire 1 ' clk $end
$var wire 32 h" rad [31:0] $end
$var wire 1 f" start $end
$var parameter 32 i" FBITS $end
$var parameter 32 j" ITER $end
$var parameter 32 k" WIDTH $end
$var reg 34 l" ac [33:0] $end
$var reg 34 m" ac_next [33:0] $end
$var reg 1 n" busy $end
$var reg 5 o" i [4:0] $end
$var reg 32 p" q [31:0] $end
$var reg 32 q" q_next [31:0] $end
$var reg 32 r" rem [31:0] $end
$var reg 32 s" root [31:0] $end
$var reg 34 t" test_res [33:0] $end
$var reg 1 _" valid $end
$var reg 32 u" x [31:0] $end
$var reg 32 v" x_next [31:0] $end
$upscope $end
$upscope $end
$upscope $end
$upscope $end
$enddefinitions $end
$comment Show the parameter values. $end
$dumpall
b100000 k"
b11000 j"
b10000 i"
b100000 P"
b11000 O"
b10000 N"
b11111 <"
b100000 ;"
b10000000000000000000000000000000 :"
b101111 9"
b10000 8"
b10000 7"
b11111 $"
b100000 #"
b10000000000000000000000000000000 ""
b101111 !"
b10000 ~
b10000 }
b11111 j
b100000 i
b10000000000000000000000000000000 h
b101111 g
b10000 f
b10000 e
b100101100 :
b1100100 9
b1000010010000000000000000000000 8
b100101100 7
b1000000000000 6
$end
#0
$dumpvars
bx00 v"
bx u"
bx t"
bx s"
bx r"
bx0 q"
bx p"
bx o"
xn"
bx m"
bx l"
bx h"
b0 g"
xf"
bx e"
bx d"
bx c"
bx b"
bx a"
bx `"
x_"
bx ^"
bx ]"
bx \"
bx00 ["
bx Z"
bx Y"
bx X"
bx W"
bx0 V"
bx U"
bx T"
xS"
bx R"
bx Q"
bx M"
b0 L"
xK"
bx J"
xI"
bx0 H"
bx G"
xF"
bx E"
xD"
xC"
bx B"
xA"
bx @"
bx ?"
bx >"
x="
bx 6"
bx 5"
b0 4"
x3"
bx 2"
x1"
bx0 0"
bx /"
x."
bx -"
x,"
x+"
bx *"
x)"
bx ("
bx '"
bx &"
x%"
bx |
bx {
b0 z
xy
bx x
xw
bx0 v
bx u
xt
bx s
xr
xq
bx p
xo
bx n
bx m
bx l
xk
bx d
bx c
xb
bx a
bx `
bx _
bx ^
x]
bx \
x[
xZ
xY
xX
xW
bx V
xU
bx T
xS
bx R
xQ
bx P
bx O
bx N
bx M
b0 L
0K
bx J
bx I
bx H
bx G
bx F
0E
bx D
bx C
bx B
bx A
bx @
bx ?
bx >
bx =
bx <
bx ;
x5
bx 4
bx 3
bx 2
bx 1
00
bx /
bx .
bx -
b10010110 ,
b11001000 +
b10010110 *
b11001000 )
0(
0'
bx &
bx %
1$
bx #
b0xxxxxxxxx "
b0xxxxxxxxx !
$end
#5000
0$
0W
0U
0S
0X
0b
b1 L
1'
#10000
0'
1(
#15000
1$
b0 L
05
0]
b0 R
b0 J"
0F"
0D"
0K"
0C"
b0 T
b0 2"
0."
0,"
03"
0+"
b0 V
b0 x
0t
0r
0y
0q
0f"
1'
#20000
0'
0(
#25000
0$
b1 L
1'
#30000
0'
#35000
1E
0="
0%"
0k
b11 L
b10010110 !
b10010110 A
b11001000 "
b11001000 @
b100101100000000000000000 D
b100101100000000000000000 O
b100101100000000000000000 5"
b0 C
b0 N
b0 {
b1100100000000000000000 B
b1100100000000000000000 M
b1100100000000000000000 c
1'
#40000
0'
#45000
1b
b1100001101010000000000000000000 a
b1100001101010000000000000000000 M"
1]
1'
#50000
0'
#55000
b1 V"
b10 R"
b11010100000000000000000000000 ["
b0 Y"
0b
b1 Q"
b10000110101000000000000000000000 Z"
b0 U"
b0 T"
0Q
1S"
1'
#60000
0'
#65000
b10 V"
b1000 R"
b1101010000000000000000000000000 ["
b1111111111111111111111111111111101 Y"
b1 U"
b10 Q"
b11010100000000000000000000000 Z"
b1 T"
1'
#70000
0'
#75000
b100 V"
b100001 R"
b10101000000000000000000000000000 ["
b1111111111111111111111111111111111 Y"
b10 U"
b1000 Q"
b1101010000000000000000000000000 Z"
b10 T"
1'
#80000
0'
#85000
b1001 V"
b1000010 R"
b10100000000000000000000000000000 ["
b10000 Y"
b100 U"
b100001 Q"
b10101000000000000000000000000000 Z"
b11 T"
1'
#90000
0'
#95000
b10011 V"
b1110110 R"
b10000000000000000000000000000000 ["
b11101 Y"
b1001 U"
b1000010 Q"
b10100000000000000000000000000000 Z"
b100 T"
1'
#100000
0'
#105000
b100111 V"
b10100110 R"
b0 ["
b101001 Y"
b10011 U"
b1110110 Q"
b10000000000000000000000000000000 Z"
b101 T"
1'
#110000
0'
#115000
b1001111 V"
b100100 R"
b1001 Y"
b100111 U"
b10100110 Q"
b0 Z"
b110 T"
1'
#120000
0'
#125000
b10011110 V"
b10010000 R"
b1111111111111111111111111011100111 Y"
b1001111 U"
b100100 Q"
b111 T"
1'
#130000
0'
#135000
b100111100 V"
b1001000000 R"
b1111111111111111111111111000010111 Y"
b10011110 U"
b10010000 Q"
b1000 T"
1'
#140000
0'
#145000
b1001111000 V"
b100100000000 R"
b1111111111111111111111110101001111 Y"
b100111100 U"
b1001000000 Q"
b1001 T"
1'
#150000
0'
#155000
b10011110000 V"
b10010000000000 R"
b1111111111111111111111111100011111 Y"
b1001111000 U"
b100100000000 Q"
b1010 T"
1'
#160000
0'
#165000
b100111100001 V"
b100000011111100 R"
b1000000111111 Y"
b10011110000 U"
b10010000000000 Q"
b1011 T"
1'
#170000
0'
#175000
b1001111000011 V"
b110010111011100 R"
b1100101110111 Y"
b100111100001 U"
b100000011111100 Q"
b1100 T"
1'
#180000
0'
#185000
b10011110000111 V"
b101101100111100 R"
b1011011001111 Y"
b1001111000011 U"
b110010111011100 Q"
b1101 T"
1'
#190000
0'
#195000
b100111100001110 V"
b10110110011110000 R"
b1111111111111111111011110100011111 Y"
b10011110000111 U"
b101101100111100 Q"
b1110 T"
1'
#200000
0'
#205000
b1001111000011101 V"
b1100001011011100 R"
b11000010110111 Y"
b100111100001110 U"
b10110110011110000 Q"
b1111 T"
1'
#210000
0'
#215000
b10011110000111010 V"
b110000101101110000 R"
b1111111111111111100100101001100111 Y"
b1001111000011101 U"
b1100001011011100 Q"
b10000 T"
1'
#220000
0'
#225000
b100111100001110100 V"
b11000010110111000000 R"
b1111111111111111100001101010000111 Y"
b10011110000111010 U"
b110000101101110000 Q"
b10001 T"
1'
#230000
0'
#235000
b1001111000011101001 V"
b10010010111110111100 R"
b100100101111101111 Y"
b100111100001110100 U"
b11000010110111000000 Q"
b10010 T"
1'
#240000
0'
#245000
b10011110000111010010 V"
b1001001011111011110000 R"
b1111111111111101010110110000010111 Y"
b1001111000011101001 U"
b10010010111110111100 Q"
b10011 T"
1'
#250000
0'
#255000
b100111100001110100100 V"
b100100101111101111000000 R"
b1111111111111111010011011110100111 Y"
b10011110000111010010 U"
b1001001011111011110000 Q"
b10100 T"
1'
#260000
0'
#265000
b1001111000011101001001 V"
b1000011111011010010111100 R"
b10000111110110100101111 Y"
b100111100001110100100 U"
b100100101111101111000000 Q"
b10101 T"
1'
#270000
0'
#275000
b10011110000111010010011 V"
b1110001100101111001011100 R"
b11100011001011110010111 Y"
b1001111000011101001001 U"
b1000011111011010010111100 Q"
b10110 T"
1'
#280000
0'
#285000
b100111100001110100100111 V"
b10001010001001000000111100 R"
b100010100010010000001111 Y"
b10011110000111010010011 U"
b1110001100101111001011100 Q"
b10111 T"
1'
#290000
0'
#295000
b100010100010010000001111 W"
b100111100001110100100111 P
b100111100001110100100111 X"
1Q
0S"
1'
#300000
0'
#305000
0o
0)"
0A"
0[
0Z
0Y
1X
b100111100001110100100111 \
b100111100001110100100111 d
b100111100001110100100111 |
b100111100001110100100111 6"
1'
#310000
0'
#315000
1C"
0I"
b100111100001110100100111 B"
b100101100000000000000000 @"
b1 L"
1+"
01"
b100111100001110100100111 *"
b0 ("
b1 4"
1q
0w
b100111100001110100100111 p
b1100100000000000000000 n
b1 z
1'
#320000
0'
#325000
b0 m
b110010000000000000000000 v
b0 '"
b0 0"
b0 ?"
b10010110000000000000000000 H"
b0 l
b11001000000000000000000 u
b0 s
b10 z
b0 &"
b0 /"
b0 -"
b10 4"
b0 >"
b1001011000000000000000000 G"
b0 E"
b10 L"
1'
#330000
0'
#335000
b100101100000000000000000000 H"
b1100100000000000000000000 v
b10010110000000000000000000 G"
b1 E"
b1 -"
b110010000000000000000000 u
b1 s
1'
#340000
0'
#345000
b11001000000000000000000000 v
b1001011000000000000000000000 H"
b1100100000000000000000000 u
b10 s
b10 -"
b100101100000000000000000000 G"
b10 E"
1'
#350000
0'
#355000
b10010110000000000000000000000 H"
b110010000000000000000000000 v
b1001011000000000000000000000 G"
b11 E"
b11 -"
b11001000000000000000000000 u
b11 s
1'
#360000
0'
#365000
b1100100000000000000000000000 v
b100101100000000000000000000000 H"
b110010000000000000000000000 u
b100 s
b100 -"
b10010110000000000000000000000 G"
b100 E"
1'
#370000
0'
#375000
b1001011000000000000000000000000 H"
b11001000000000000000000000000 v
b100101100000000000000000000000 G"
b101 E"
b101 -"
b1100100000000000000000000000 u
b101 s
1'
#380000
0'
#385000
b110010000000000000000000000000 v
b1 ?"
b10110000000000000000000000000 H"
b11001000000000000000000000000 u
b110 s
b110 -"
b1001011000000000000000000000000 G"
b110 E"
1'
#390000
0'
#395000
b10 ?"
b101100000000000000000000000000 H"
b1100100000000000000000000000000 v
b10110000000000000000000000000 G"
b1 >"
b111 E"
b111 -"
b110010000000000000000000000000 u
b111 s
1'
#400000
0'
#405000
b1 m
b1001000000000000000000000000000 v
b100 ?"
b1011000000000000000000000000000 H"
b1100100000000000000000000000000 u
b1000 s
b1000 -"
b101100000000000000000000000000 G"
b10 >"
b1000 E"
1'
#410000
0'
#415000
b1001 ?"
b110000000000000000000000000000 H"
b11 m
b10000000000000000000000000000 v
b1011000000000000000000000000000 G"
b100 >"
b1001 E"
b1001 -"
b1001000000000000000000000000000 u
b1 l
b1001 s
1'
#420000
0'
#425000
b110 m
b100000000000000000000000000000 v
b10010 ?"
b1100000000000000000000000000000 H"
b10000000000000000000000000000 u
b11 l
b1010 s
b1010 -"
b110000000000000000000000000000 G"
b1001 >"
b1010 E"
1'
#430000
0'
#435000
b100101 ?"
b1000000000000000000000000000000 H"
b1100 m
b1000000000000000000000000000000 v
b1100000000000000000000000000000 G"
b10010 >"
b1011 E"
b1011 -"
b100000000000000000000000000000 u
b110 l
b1011 s
1'
#440000
0'
#445000
b11001 m
b0 v
b1001011 ?"
b0 H"
b1000000000000000000000000000000 u
b1100 l
b1100 s
b1100 -"
b1000000000000000000000000000000 G"
b100101 >"
b1100 E"
1'
#450000
0'
#455000
b10010110 ?"
b110010 m
b0 G"
b1001011 >"
b1101 E"
b1101 -"
b0 u
b11001 l
b1101 s
1'
#460000
0'
#465000
b1100100 m
b100101100 ?"
b110010 l
b1110 s
b1110 -"
b10010110 >"
b1110 E"
1'
#470000
0'
#475000
b1001011000 ?"
b11001000 m
b100101100 >"
b1111 E"
b1111 -"
b1100100 l
b1111 s
1'
#480000
0'
#485000
b110010000 m
b10010110000 ?"
b11001000 l
b10000 s
b10000 -"
b1001011000 >"
b10000 E"
1'
#490000
0'
#495000
b100101100000 ?"
b1100100000 m
b10010110000 >"
b10001 E"
b10001 -"
b110010000 l
b10001 s
1'
#500000
0'
#505000
b11001000000 m
b1001011000000 ?"
b1100100000 l
b10010 s
b10010 -"
b100101100000 >"
b10010 E"
1'
#510000
0'
#515000
b10010110000000 ?"
b110010000000 m
b1001011000000 >"
b10011 E"
b10011 -"
b11001000000 l
b10011 s
1'
#520000
0'
#525000
b1100100000000 m
b100101100000000 ?"
b110010000000 l
b10100 s
b10100 -"
b10010110000000 >"
b10100 E"
1'
#530000
0'
#535000
b1001011000000000 ?"
b11001000000000 m
b100101100000000 >"
b10101 E"
b10101 -"
b1100100000000 l
b10101 s
1'
#540000
0'
#545000
b110010000000000 m
b10010110000000000 ?"
b11001000000000 l
b10110 s
b10110 -"
b1001011000000000 >"
b10110 E"
1'
#550000
0'
#555000
b100101100000000000 ?"
b1100100000000000 m
b10010110000000000 >"
b10111 E"
b10111 -"
b110010000000000 l
b10111 s
1'
#560000
0'
#565000
b11001000000000000 m
b1001011000000000000 ?"
b1100100000000000 l
b11000 s
b11000 -"
b100101100000000000 >"
b11000 E"
1'
#570000
0'
#575000
b10010110000000000000 ?"
b110010000000000000 m
b1001011000000000000 >"
b11001 E"
b11001 -"
b11001000000000000 l
b11001 s
1'
#580000
0'
#585000
b1100100000000000000 m
b100101100000000000000 ?"
b110010000000000000 l
b11010 s
b11010 -"
b10010110000000000000 >"
b11010 E"
1'
#590000
0'
#595000
b1001011000000000000000 ?"
b11001000000000000000 m
b100101100000000000000 >"
b11011 E"
b11011 -"
b1100100000000000000 l
b11011 s
1'
#600000
0'
#605000
b110010000000000000000 m
b10010110000000000000000 ?"
b11001000000000000000 l
b11100 s
b11100 -"
b1001011000000000000000 >"
b11100 E"
1'
#610000
0'
#615000
b100101100000000000000000 ?"
b1100100000000000000000 m
b10010110000000000000000 >"
b11101 E"
b11101 -"
b110010000000000000000 l
b11101 s
1'
#620000
0'
#625000
b11001000000000000000000 m
b1001011000000000000000000 ?"
b1100100000000000000000 l
b11110 s
b11110 -"
b100101100000000000000000 >"
b11110 E"
1'
#630000
0'
#635000
b1 H"
b1000110111100010110110010 ?"
b110010000000000000000000 m
b1001011000000000000000000 >"
b11111 E"
b11111 -"
b11001000000000000000000 l
b11111 s
1'
#640000
0'
#645000
b1 v
b10100111100010110110010 m
b11 H"
b111110110101000100010110 ?"
b110010000000000000000000 l
b100000 s
b100000 -"
b1 G"
b1000110111100010110110010 >"
b100000 E"
1'
#650000
0'
#655000
b111 H"
b101110100110011111011110 ?"
b101001111000101101100100 m
b10 v
b11 G"
b111110110101000100010110 >"
b100001 E"
b100001 -"
b1 u
b10100111100010110110010 l
b100001 s
1'
#660000
0'
#665000
b101 v
b100101101110001111010 m
b1111 H"
b1110001001010101101110 ?"
b10 u
b101001111000101101100100 l
b100010 s
b100010 -"
b111 G"
b101110100110011111011110 >"
b100010 E"
1'
#670000
0'
#675000
b11100010010101011011100 ?"
b11110 H"
b1001011011100011110100 m
b1010 v
b1111 G"
b1110001001010101101110 >"
b100011 E"
b100011 -"
b101 u
b100101101110001111010 l
b100011 s
1'
#680000
0'
#685000
b10010110111000111101000 m
b10100 v
b111000100101010110111000 ?"
b111100 H"
b1010 u
b1001011011100011110100 l
b100100 s
b100100 -"
b11110 G"
b11100010010101011011100 >"
b100100 E"
1'
#690000
0'
#695000
b1111001 H"
b100010000111000100100010 ?"
b100101101110001111010000 m
b101000 v
b111100 G"
b111000100101010110111000 >"
b100101 E"
b100101 -"
b10100 u
b10010110111000111101000 l
b100101 s
1'
#700000
0'
#705000
b1001011011100011110100000 m
b1010000 v
b1000100001110001001000100 ?"
b11110010 H"
b101000 u
b100101101110001111010000 l
b100110 s
b100110 -"
b1111001 G"
b100010000111000100100010 >"
b100110 E"
1'
#710000
0'
#715000
b111100101 H"
b111001011000101000111010 ?"
b10100001 v
b1000111110101010011110010 m
b11110010 G"
b1000100001110001001000100 >"
b100111 E"
b100111 -"
b1010000 u
b1001011011100011110100000 l
b100111 s
1'
#720000
0'
#725000
b101000011 v
b1000000100110111110010110 m
b1111001011 H"
b100011101101101000100110 ?"
b10100001 u
b1000111110101010011110010 l
b101000 s
b101000 -"
b111100101 G"
b111001011000101000111010 >"
b101000 E"
1'
#730000
0'
#735000
b1000111011011010001001100 ?"
b11110010110 H"
b1010000111 v
b110010001010010011011110 m
b1111001011 G"
b100011101101101000100110 >"
b101001 E"
b101001 -"
b101000011 u
b1000000100110111110010110 l
b101001 s
1'
#740000
0'
#745000
b10100001111 v
b10101010000111101101110 m
b111100101101 H"
b111111110010111001001010 ?"
b1010000111 u
b110010001010010011011110 l
b101010 s
b101010 -"
b11110010110 G"
b1000111011011010001001100 >"
b101010 E"
1'
#750000
0'
#755000
b1111001011011 H"
b110000100010001001000110 ?"
b101010100001111011011100 m
b101000011110 v
b111100101101 G"
b111111110010111001001010 >"
b101011 E"
b101011 -"
b10100001111 u
b10101010000111101101110 l
b101011 s
1'
#760000
0'
#765000
b1010000111101 v
b110000000001101101010 m
b11110010110111 H"
b10010000000101000111110 ?"
b101000011110 u
b101010100001111011011100 l
b101100 s
b101100 -"
b1111001011011 G"
b110000100010001001000110 >"
b101100 E"
1'
#770000
0'
#775000
b100100000001010001111100 ?"
b111100101101110 H"
b1100000000011011010100 m
b10100001111010 v
b11110010110111 G"
b10010000000101000111110 >"
b101101 E"
b101101 -"
b1010000111101 u
b110000000001101101010 l
b101101 s
1'
#780000
0'
#785000
b11000000000110110101000 m
b101000011110100 v
b1001000000010100011111000 ?"
b1111001011011100 H"
b10100001111010 u
b1100000000011011010100 l
b101110 s
b101110 -"
b111100101101110 G"
b100100000001010001111100 >"
b101110 E"
1'
#790000
0'
#795000
b11110010110111001 H"
b1000001000001011110100010 ?"
b110000000001101101010000 m
b1010000111101000 v
b1111001011011100 G"
b1001000000010100011111000 >"
b101111 E"
b11 L"
b101111 -"
b11 4"
b101000011110100 u
b11000000000110110101000 l
b101111 s
b11 z
1'
#800000
0'
#805000
b11110010110111011 H"
b1000001000001011110100010 ?"
b100 z
b100 4"
b1111001011011101 G"
b100 L"
1'
#810000
0'
#815000
1K"
1S
0C"
b1111001011011101 R
b1111001011011101 J"
b0 L"
13"
1U
0+"
b0 4"
1y
1W
0q
b101000011110100 V
b101000011110100 x
b0 z
1'
#820000
0'
#825000
1q
b1 z
0y
0W
1+"
b1 4"
03"
0U
1C"
b1 L"
0K"
0S
1[
b1111001011011101 2
b1111001011011101 `
1Z
b0 3
b0 _
1Y
b101000011110100 4
b101000011110100 ^
1'
#830000
0'
#835000
b0 ?"
b10010110000000000000000000 H"
b0 m
b110010000000000000000000 v
15
0]
0[
0Z
0Y
b0 >"
b1001011000000000000000000 G"
b0 E"
b10 L"
b0 -"
b10 4"
b0 l
b11001000000000000000000 u
b0 s
b10 z
1'
#840000
0'
#845000
b1100100000000000000000000 v
b100101100000000000000000000 H"
1K
0E
b110010000000000000000000 u
b1 s
b1 -"
b10010110000000000000000000 G"
b1 E"
05
1b
1]
b10 L
b0 F
b0 I
b0 ^"
b0 H
b0 ]"
b0 G
b0 \"
b1111001011011101 >
b0 =
b101000011110100 <
1'
#850000
0'
#855000
b1001011000000000000000000000 H"
b11001000000000000000000000 v
b1 V"
b10 R"
b11010100000000000000000000000 ["
b0 Y"
0b
b100101100000000000000000000 G"
b10 E"
b10 -"
b1100100000000000000000000 u
b10 s
b1 Q"
b10000110101000000000000000000000 Z"
b0 U"
b0 T"
0Q
1S"
b1 g"
b1011011111001000000000000000000 e"
b1011011111001000000000000000000 h"
1f"
1'
#860000
0'
#865000
b1 q"
b1 m"
b10111110010000000000000000000000 v"
b0 t"
b10 V"
b1000 R"
b1101010000000000000000000000000 ["
b1111111111111111111111111111111101 Y"
b110010000000000000000000000 v
b10010110000000000000000000000 H"
b1 l"
b1101111100100000000000000000000 u"
b0 p"
b0 o"
0_"
1n"
0f"
b1 U"
b10 Q"
b11010100000000000000000000000 Z"
b1 T"
b11001000000000000000000000 u
b11 s
b11 -"
b1001011000000000000000000000 G"
b11 E"
0X
1'
#870000
0'
#875000
b100101100000000000000000000000 H"
b1100100000000000000000000000 v
b100 V"
b100001 R"
b10101000000000000000000000000000 ["
b1111111111111111111111111111111111 Y"
b10 q"
b110 m"
b11111001000000000000000000000000 v"
b1111111111111111111111111111111100 t"
b10010110000000000000000000000 G"
b100 E"
b100 -"
b110010000000000000000000000 u
b100 s
b10 U"
b1000 Q"
b1101010000000000000000000000000 Z"
b10 T"
b1 p"
b10111110010000000000000000000000 u"
b1 o"
1'
#880000
0'
#885000
b100 q"
b11011 m"
b11100100000000000000000000000000 v"
b1111111111111111111111111111111101 t"
b1001 V"
b1000010 R"
b10100000000000000000000000000000 ["
b10000 Y"
b11001000000000000000000000000 v
b1001011000000000000000000000000 H"
b10 p"
b110 l"
b11111001000000000000000000000000 u"
b10 o"
b100 U"
b100001 Q"
b10101000000000000000000000000000 Z"
b11 T"
b1100100000000000000000000000 u
b101 s
b101 -"
b100101100000000000000000000000 G"
b101 E"
1'
#890000
0'
#895000
b1 ?"
b10110000000000000000000000000 H"
b110010000000000000000000000000 v
b10011 V"
b1110110 R"
b10000000000000000000000000000000 ["
b11101 Y"
b1001 q"
b101011 m"
b10010000000000000000000000000000 v"
b1010 t"
b1001011000000000000000000000000 G"
b110 E"
b110 -"
b11001000000000000000000000000 u
b110 s
b1001 U"
b1000010 Q"
b10100000000000000000000000000000 Z"
b100 T"
b100 p"
b11011 l"
b11100100000000000000000000000000 u"
b11 o"
1'
#900000
0'
#905000
b10011 q"
b11010 m"
b1000000000000000000000000000000 v"
b110 t"
b100111 V"
b10100110 R"
b0 ["
b101001 Y"
b1100100000000000000000000000000 v
b10 ?"
b101100000000000000000000000000 H"
b1001 p"
b101011 l"
b10010000000000000000000000000000 u"
b100 o"
b10011 U"
b1110110 Q"
b10000000000000000000000000000000 Z"
b101 T"
b110010000000000000000000000000 u
b111 s
b111 -"
b10110000000000000000000000000 G"
b1 >"
b111 E"
1'
#910000
0'
#915000
b100 ?"
b1011000000000000000000000000000 H"
b1 m
b1001000000000000000000000000000 v
b1001111 V"
b100100 R"
b1001 Y"
b100110 q"
b1101001 m"
b0 v"
b1111111111111111111111111111001101 t"
b101100000000000000000000000000 G"
b10 >"
b1000 E"
b1000 -"
b1100100000000000000000000000000 u
b1000 s
b100111 U"
b10100110 Q"
b0 Z"
b110 T"
b10011 p"
b11010 l"
b1000000000000000000000000000000 u"
b101 o"
1'
#920000
0'
#925000
b1001100 q"
b110100100 m"
b1111111111111111111111111111010000 t"
b10011110 V"
b10010000 R"
b1111111111111111111111111011100111 Y"
b11 m
b10000000000000000000000000000 v
b1001 ?"
b110000000000000000000000000000 H"
b100110 p"
b1101001 l"
b0 u"
b110 o"
b1001111 U"
b100100 Q"
b111 T"
b1001000000000000000000000000000 u
b1 l
b1001 s
b1001 -"
b1011000000000000000000000000000 G"
b100 >"
b1001 E"
1'
#930000
0'
