raymarcher.vcd
$date
	Sun Nov 12 15:25:06 2023
$end
$version
	Icarus Verilog
$end
$timescale
	1ps
$end
$scope module tb $end
$var wire 33 ! y_out [32:0] $end
$var wire 33 " x_out [32:0] $end
$var wire 8 # red_out [7:0] $end
$var wire 1 $ pixel_done $end
$var wire 8 % green_out [7:0] $end
$var wire 8 & blue_out [7:0] $end
$var reg 1 ' clk_in $end
$var reg 1 ( rst_in $end
$var reg 33 ) x_in [32:0] $end
$var reg 33 * y_in [32:0] $end
$scope module raym $end
$var wire 32 + camera_forward_x [31:0] $end
$var wire 32 , camera_forward_y [31:0] $end
$var wire 32 - camera_forward_z [31:0] $end
$var wire 32 . camera_u_x [31:0] $end
$var wire 32 / camera_u_y [31:0] $end
$var wire 32 0 camera_u_z [31:0] $end
$var wire 32 1 camera_v_x [31:0] $end
$var wire 32 2 camera_v_y [31:0] $end
$var wire 32 3 camera_v_z [31:0] $end
$var wire 32 4 camera_x [31:0] $end
$var wire 32 5 camera_y [31:0] $end
$var wire 32 6 camera_z [31:0] $end
$var wire 1 ' clk_in $end
$var wire 9 7 curr_x [8:0] $end
$var wire 8 8 curr_y [7:0] $end
$var wire 1 ( rst_in $end
$var wire 32 9 timer [31:0] $end
$var wire 8 : sdf_red_out [7:0] $end
$var wire 32 ; sdf_out [31:0] $end
$var wire 8 < sdf_green_out [7:0] $end
$var wire 1 = sdf_done $end
$var wire 8 > sdf_blue_out [7:0] $end
$var wire 32 ? ray_gen_out_z [31:0] $end
$var wire 32 @ ray_gen_out_y [31:0] $end
$var wire 32 A ray_gen_out_x [31:0] $end
$var wire 1 B ray_gen_done $end
$var parameter 32 C EPSILON $end
$var parameter 32 D HEIGHT $end
$var parameter 32 E MAX_DIST_MANHATTEN $end
$var parameter 32 F MAX_STEPS $end
$var parameter 12 G NORMAL_EPS $end
$var parameter 19 H UNCALCULATED_NORMAL_VALUE $end
$var parameter 32 I WIDTH $end
$var parameter 32 J light_x $end
$var parameter 32 K light_y $end
$var parameter 32 L light_z $end
$var reg 8 M blue_out [7:0] $end
$var reg 32 N dir_x [31:0] $end
$var reg 32 O dir_y [31:0] $end
$var reg 32 P dir_z [31:0] $end
$var reg 8 Q green_out [7:0] $end
$var reg 32 R light_fac [31:0] $end
$var reg 32 S normal_base_dist [31:0] $end
$var reg 9 T out_x [8:0] $end
$var reg 8 U out_y [7:0] $end
$var reg 1 $ pixel_done $end
$var reg 32 V ray_dist [31:0] $end
$var reg 32 W ray_gen_in_x [31:0] $end
$var reg 32 X ray_gen_in_y [31:0] $end
$var reg 32 Y ray_gen_in_z [31:0] $end
$var reg 1 Z ray_gen_start $end
$var reg 8 [ ray_steps [7:0] $end
$var reg 32 \ ray_x [31:0] $end
$var reg 32 ] ray_y [31:0] $end
$var reg 32 ^ ray_z [31:0] $end
$var reg 8 _ red_out [7:0] $end
$var reg 1 ` sdf_start $end
$var integer 32 a state [31:0] $end
$scope module ray_gen_inst $end
$var wire 1 ' clk_in $end
$var wire 32 b ray_gen_in_x [31:0] $end
$var wire 32 c ray_gen_in_y [31:0] $end
$var wire 32 d ray_gen_in_z [31:0] $end
$var wire 1 Z ray_gen_start $end
$var wire 1 ( rst_in $end
$var wire 32 e sqrt_out [31:0] $end
$var wire 1 f sqrt_done $end
$var wire 32 g div_z_out [31:0] $end
$var wire 1 h div_z_done $end
$var wire 32 i div_y_out [31:0] $end
$var wire 1 j div_y_done $end
$var wire 32 k div_x_out [31:0] $end
$var wire 1 l div_x_done $end
$var reg 1 m div_start $end
$var reg 32 n norm [31:0] $end
$var reg 1 B ray_gen_done $end
$var reg 32 o ray_gen_out_x [31:0] $end
$var reg 32 p ray_gen_out_y [31:0] $end
$var reg 32 q ray_gen_out_z [31:0] $end
$var reg 32 r sqrt_in [31:0] $end
$var reg 1 s sqrt_start $end
$var integer 32 t state [31:0] $end
$scope module divx $end
$var wire 32 u a [31:0] $end
$var wire 32 v b [31:0] $end
$var wire 1 ' clk $end
$var wire 1 ( rst $end
$var wire 1 m start $end
$var parameter 32 w FBITS $end
$var parameter 32 x FBITSW $end
$var parameter 34 y ITER $end
$var parameter 32 z SMALLEST $end
$var parameter 32 { WIDTH $end
$var parameter 33 | WIDTHU $end
$var reg 1 } a_sig $end
$var reg 32 ~ acc [31:0] $end
$var reg 32 !" acc_next [31:0] $end
$var reg 31 "" au [30:0] $end
$var reg 1 #" b_sig $end
$var reg 31 $" bu [30:0] $end
$var reg 1 %" busy $end
$var reg 1 &" dbz $end
$var reg 1 l done $end
$var reg 7 '" i [6:0] $end
$var reg 1 (" ovf $end
$var reg 31 )" quo [30:0] $end
$var reg 31 *" quo_next [30:0] $end
$var reg 1 +" sig_diff $end
$var reg 32 ," val [31:0] $end
$var reg 1 -" valid $end
$var integer 32 ." state [31:0] $end
$upscope $end
$scope module divy $end
$var wire 32 /" a [31:0] $end
$var wire 32 0" b [31:0] $end
$var wire 1 ' clk $end
$var wire 1 ( rst $end
$var wire 1 m start $end
$var parameter 32 1" FBITS $end
$var parameter 32 2" FBITSW $end
$var parameter 34 3" ITER $end
$var parameter 32 4" SMALLEST $end
$var parameter 32 5" WIDTH $end
$var parameter 33 6" WIDTHU $end
$var reg 1 7" a_sig $end
$var reg 32 8" acc [31:0] $end
$var reg 32 9" acc_next [31:0] $end
$var reg 31 :" au [30:0] $end
$var reg 1 ;" b_sig $end
$var reg 31 <" bu [30:0] $end
$var reg 1 =" busy $end
$var reg 1 >" dbz $end
$var reg 1 j done $end
$var reg 7 ?" i [6:0] $end
$var reg 1 @" ovf $end
$var reg 31 A" quo [30:0] $end
$var reg 31 B" quo_next [30:0] $end
$var reg 1 C" sig_diff $end
$var reg 32 D" val [31:0] $end
$var reg 1 E" valid $end
$var integer 32 F" state [31:0] $end
$upscope $end
$scope module divz $end
$var wire 32 G" a [31:0] $end
$var wire 32 H" b [31:0] $end
$var wire 1 ' clk $end
$var wire 1 ( rst $end
$var wire 1 m start $end
$var parameter 32 I" FBITS $end
$var parameter 32 J" FBITSW $end
$var parameter 34 K" ITER $end
$var parameter 32 L" SMALLEST $end
$var parameter 32 M" WIDTH $end
$var parameter 33 N" WIDTHU $end
$var reg 1 O" a_sig $end
$var reg 32 P" acc [31:0] $end
$var reg 32 Q" acc_next [31:0] $end
$var reg 31 R" au [30:0] $end
$var reg 1 S" b_sig $end
$var reg 31 T" bu [30:0] $end
$var reg 1 U" busy $end
$var reg 1 V" dbz $end
$var reg 1 h done $end
$var reg 7 W" i [6:0] $end
$var reg 1 X" ovf $end
$var reg 31 Y" quo [30:0] $end
$var reg 31 Z" quo_next [30:0] $end
$var reg 1 [" sig_diff $end
$var reg 32 \" val [31:0] $end
$var reg 1 ]" valid $end
$var integer 32 ^" state [31:0] $end
$upscope $end
$scope module sqrt_inst $end
$var wire 1 ' clk $end
$var wire 32 _" rad [31:0] $end
$var wire 1 s start $end
$var parameter 32 `" FBITS $end
$var parameter 32 a" ITER $end
$var parameter 32 b" WIDTH $end
$var reg 34 c" ac [33:0] $end
$var reg 34 d" ac_next [33:0] $end
$var reg 1 e" busy $end
$var reg 5 f" i [4:0] $end
$var reg 32 g" q [31:0] $end
$var reg 32 h" q_next [31:0] $end
$var reg 32 i" rem [31:0] $end
$var reg 32 j" root [31:0] $end
$var reg 34 k" test_res [33:0] $end
$var reg 1 f valid $end
$var reg 32 l" x [31:0] $end
$var reg 32 m" x_next [31:0] $end
$upscope $end
$upscope $end
$scope module sdf_inst $end
$var wire 1 ' clk_in $end
$var wire 1 ( rst_in $end
$var wire 1 ` sdf_start $end
$var wire 32 n" timer [31:0] $end
$var wire 32 o" x [31:0] $end
$var wire 32 p" y [31:0] $end
$var wire 32 q" z [31:0] $end
$var wire 1 r" sphere_3_sqrt_done $end
$var wire 32 s" sphere_3_dist [31:0] $end
$var wire 1 t" sphere_2_sqrt_done $end
$var wire 32 u" sphere_2_dist [31:0] $end
$var wire 1 v" sphere_1_sqrt_done $end
$var wire 32 w" sphere_1_dist [31:0] $end
$var reg 8 x" sdf_blue_out [7:0] $end
$var reg 1 = sdf_done $end
$var reg 8 y" sdf_green_out [7:0] $end
$var reg 32 z" sdf_out [31:0] $end
$var reg 8 {" sdf_red_out [7:0] $end
$var reg 32 |" sphere_1_dist_squared [31:0] $end
$var reg 32 }" sphere_2_dist_squared [31:0] $end
$var reg 32 ~" sphere_3_dist_squared [31:0] $end
$var reg 1 !# sqrt_start $end
$var reg 32 "# tmp_x_1 [31:0] $end
$var reg 32 ## tmp_x_2 [31:0] $end
$var reg 32 $# tmp_x_3 [31:0] $end
$var reg 32 %# tmp_y_1 [31:0] $end
$var reg 32 &# tmp_y_2 [31:0] $end
$var reg 32 '# tmp_y_3 [31:0] $end
$var reg 32 (# tmp_z_1 [31:0] $end
$var reg 32 )# tmp_z_2 [31:0] $end
$var reg 32 *# tmp_z_3 [31:0] $end
$var integer 32 +# state [31:0] $end
$scope module sqrt_inst $end
$var wire 1 ' clk $end
$var wire 32 ,# rad [31:0] $end
$var wire 1 !# start $end
$var parameter 32 -# FBITS $end
$var parameter 32 .# ITER $end
$var parameter 32 /# WIDTH $end
$var reg 34 0# ac [33:0] $end
$var reg 34 1# ac_next [33:0] $end
$var reg 1 2# busy $end
$var reg 5 3# i [4:0] $end
$var reg 32 4# q [31:0] $end
$var reg 32 5# q_next [31:0] $end
$var reg 32 6# rem [31:0] $end
$var reg 32 7# root [31:0] $end
$var reg 34 8# test_res [33:0] $end
$var reg 1 v" valid $end
$var reg 32 9# x [31:0] $end
$var reg 32 :# x_next [31:0] $end
$upscope $end
$scope module sqrt_inst2 $end
$var wire 1 ' clk $end
$var wire 32 ;# rad [31:0] $end
$var wire 1 !# start $end
$var parameter 32 <# FBITS $end
$var parameter 32 =# ITER $end
$var parameter 32 ># WIDTH $end
$var reg 34 ?# ac [33:0] $end
$var reg 34 @# ac_next [33:0] $end
$var reg 1 A# busy $end
$var reg 5 B# i [4:0] $end
$var reg 32 C# q [31:0] $end
$var reg 32 D# q_next [31:0] $end
$var reg 32 E# rem [31:0] $end
$var reg 32 F# root [31:0] $end
$var reg 34 G# test_res [33:0] $end
$var reg 1 t" valid $end
$var reg 32 H# x [31:0] $end
$var reg 32 I# x_next [31:0] $end
$upscope $end
$scope module sqrt_inst3 $end
$var wire 1 ' clk $end
$var wire 32 J# rad [31:0] $end
$var wire 1 !# start $end
$var parameter 32 K# FBITS $end
$var parameter 32 L# ITER $end
$var parameter 32 M# WIDTH $end
$var reg 34 N# ac [33:0] $end
$var reg 34 O# ac_next [33:0] $end
$var reg 1 P# busy $end
$var reg 5 Q# i [4:0] $end
$var reg 32 R# q [31:0] $end
$var reg 32 S# q_next [31:0] $end
$var reg 32 T# rem [31:0] $end
$var reg 32 U# root [31:0] $end
$var reg 34 V# test_res [33:0] $end
$var reg 1 r" valid $end
$var reg 32 W# x [31:0] $end
$var reg 32 X# x_next [31:0] $end
$upscope $end
$upscope $end
$upscope $end
$upscope $end
$enddefinitions $end
$comment Show the parameter values. $end
$dumpall
b100000 M#
b11000 L#
b10000 K#
b100000 >#
b11000 =#
b10000 <#
b100000 /#
b11000 .#
b10000 -#
b100000 b"
b11000 a"
b10000 `"
b11111 N"
b100000 M"
b10000000000000000000000000000000 L"
b101111 K"
b10000 J"
b10000 I"
b11111 6"
b100000 5"
b10000000000000000000000000000000 4"
b101111 3"
b10000 2"
b10000 1"
b11111 |
b100000 {
b10000000000000000000000000000000 z
b101111 y
b10000 x
b10000 w
b11111111111111111100000000000000 L
b101100000000000 K
b1110000000000000 J
b101000000 I
b1110000000000000000 H
b100000000000 G
b1100100 F
b10000000000000000000000000 E
b10110100 D
b10000000000000 C
$end
#0
$dumpvars
bx00 X#
bx W#
bx V#
bx U#
bx T#
bx0 S#
bx R#
bx Q#
xP#
bx O#
bx N#
bx J#
bx00 I#
bx H#
bx G#
bx F#
bx E#
bx0 D#
bx C#
bx B#
xA#
bx @#
bx ?#
bx ;#
bx00 :#
bx 9#
bx 8#
bx 7#
bx 6#
bx0 5#
bx 4#
bx 3#
x2#
bx 1#
bx 0#
bx ,#
b0 +#
bx *#
bx )#
bx (#
bx '#
bx &#
bx %#
bx $#
bx ##
bx "#
x!#
bx ~"
bx }"
bx |"
bx {"
bx z"
bx y"
bx x"
bx w"
xv"
bx u"
xt"
bx s"
xr"
bx q"
bx p"
bx o"
bz n"
bx00 m"
bx l"
bx k"
bx j"
bx i"
bx0 h"
bx g"
bx f"
xe"
bx d"
bx c"
bx _"
b0 ^"
x]"
bx \"
x["
bx0 Z"
bx Y"
xX"
bx W"
xV"
xU"
bx T"
xS"
bx R"
bx Q"
bx P"
xO"
bx H"
bx G"
b0 F"
xE"
bx D"
xC"
bx0 B"
bx A"
x@"
bx ?"
x>"
x="
bx <"
x;"
bx :"
bx 9"
bx 8"
x7"
bx 0"
bx /"
b0 ."
x-"
bx ,"
x+"
bx0 *"
bx )"
x("
bx '"
x&"
x%"
bx $"
x#"
bx ""
bx !"
bx ~
x}
bx v
bx u
b0 t
xs
bx r
bx q
bx p
bx o
bx n
xm
xl
bx k
xj
bx i
xh
bx g
xf
bx e
bx d
bx c
bx b
b0 a
x`
bx _
bx ^
bx ]
bx \
bx [
xZ
bx Y
bx X
bx W
bx V
bx U
bx T
bx S
bx R
bx Q
bx P
bx O
bx N
bx M
xB
bx A
bx @
bx ?
bx >
0=
bx <
bx ;
bx :
bz 9
b1100100 8
b0 7
b0 6
b0 5
b111100000000000000000 4
b0 3
b10000000000000000 2
b0 1
b10000000000000000 0
b0 /
b10000000000000000 .
b11001000000000000000000 -
b0 ,
b11111111100111000000000000000000 +
b1100100 *
b0 )
0(
0'
bx &
bx %
1$
bx #
b0xxxxxxxxx "
b0xxxxxxxx !
$end
#15000
0$
b1 a
1'
#30000
0'
1(
#45000
1$
b0 a
0m
0s
0B
b0 g
b0 \"
0X"
0V"
0]"
0h
0U"
b0 i
b0 D"
0@"
0>"
0E"
0j
0="
b0 k
b0 ,"
0("
0&"
0-"
0l
0%"
0!#
1'
#60000
0'
0(
#75000
0$
b1 a
1'
#90000
0'
#105000
1O"
07"
1}
b11 a
1Z
b1100100 !
b1100100 U
b0 "
b0 T
b11111111110001000000000000000000 Y
b11111111110001000000000000000000 d
b11111111110001000000000000000000 G"
b10100000000000000000 X
b10100000000000000000 c
b10100000000000000000 /"
b11111110111111000000000000000000 W
b11111110111111000000000000000000 b
b11111110111111000000000000000000 u
1'
#120000
0'
#135000
b1 t
1s
b10110100001000000000000000000 r
b10110100001000000000000000000 _"
0Z
1'
#150000
0'
#165000
b0 h"
b1 d"
b1101000010000000000000000000000 m"
b1111111111111111111111111111111111 k"
0s
b0 c"
b1011010000100000000000000000000 l"
b0 g"
b0 f"
0f
1e"
1'
#180000
0'
#195000
b1 h"
b10100001000000000000000000000000 m"
b0 k"
b1 c"
b1101000010000000000000000000000 l"
b1 f"
1'
#210000
0'
#225000
b10 h"
b110 d"
b10000100000000000000000000000000 m"
b1111111111111111111111111111111100 k"
b1 g"
b10100001000000000000000000000000 l"
b10 f"
1'
#240000
0'
#255000
b100 h"
b11010 d"
b10000000000000000000000000000 m"
b1111111111111111111111111111111101 k"
b10 g"
b110 c"
b10000100000000000000000000000000 l"
b11 f"
1'
#270000
0'
#285000
b1001 h"
b100100 d"
b1000000000000000000000000000000 m"
b1001 k"
b100 g"
b11010 c"
b10000000000000000000000000000 l"
b100 f"
1'
#300000
0'
#315000
b10010 h"
b10010001 d"
b0 m"
b1111111111111111111111111111111111 k"
b1001 g"
b100100 c"
b1000000000000000000000000000000 l"
b101 f"
1'
#330000
0'
#345000
b100101 h"
b100100000 d"
b1001000 k"
b10010 g"
b10010001 c"
b0 l"
b110 f"
1'
#360000
0'
#375000
b1001011 h"
b1000101100 d"
b10001011 k"
b100101 g"
b100100000 c"
b111 f"
1'
#390000
0'
#405000
b10010111 h"
b1111111100 d"
b11111111 k"
b1001011 g"
b1000101100 c"
b1000 f"
1'
#420000
0'
#435000
b100101111 h"
b11001111100 d"
b110011111 k"
b10010111 g"
b1111111100 c"
b1001 f"
1'
#450000
0'
#465000
b1001011111 h"
b11011111100 d"
b110111111 k"
b100101111 g"
b11001111100 c"
b1010 f"
1'
#480000
0'
#495000
b10010111110 h"
b1101111110000 d"
b1111111111111111111111110101111111 k"
b1001011111 g"
b11011111100 c"
b1011 f"
1'
#510000
0'
#525000
b100101111101 h"
b10001111011100 d"
b100011110111 k"
b10010111110 g"
b1101111110000 c"
b1100 f"
1'
#540000
0'
#555000
b1001011111010 h"
b1000111101110000 d"
b1111111111111111111111110111100111 k"
b100101111101 g"
b10001111011100 c"
b1101 f"
1'
#570000
0'
#585000
b10010111110101 h"
b10000111000011100 d"
b100001110000111 k"
b1001011111010 g"
b1000111101110000 c"
b1110 f"
1'
#600000
0'
#615000
b100101111101011 h"
b11101100100011100 d"
b111011001000111 k"
b10010111110101 g"
b10000111000011100 c"
b1111 f"
1'
#630000
0'
#645000
b1001011111010111 h"
b101010010110111100 d"
b1010100101101111 k"
b100101111101011 g"
b11101100100011100 c"
b10000 f"
1'
#660000
0'
#675000
b10010111110101111 h"
b10001100101111100 d"
b100011001011111 k"
b1001011111010111 g"
b101010010110111100 c"
b10001 f"
1'
#690000
0'
#705000
b100101111101011110 h"
b1000110010111110000 d"
b1111111111111111000101101010111111 k"
b10010111110101111 g"
b10001100101111100 c"
b10010 f"
1'
#720000
0'
#735000
b1001011111010111100 h"
b100011001011111000000 d"
b1111111111111110101110100001110111 k"
b100101111101011110 g"
b1000110010111110000 c"
b10011 f"
1'
#750000
0'
#765000
b10010111110101111000 h"
b10001100101111100000000 d"
b1111111111111111101001110011001111 k"
b1001011111010111100 g"
b100011001011111000000 c"
b10100 f"
1'
#780000
0'
#795000
b100101111101011110001 h"
b100000011010010001111100 d"
b1000000110100100011111 k"
b10010111110101111000 g"
b10001100101111100000000 c"
b10101 f"
1'
#810000
0'
#825000
b1001011111010111100011 h"
b110101101110001011011100 d"
b1101011011100010110111 k"
b100101111101011110001 g"
b100000011010010001111100 c"
b10110 f"
1'
#840000
0'
#855000
b10010111110101111000111 h"
b111111000010110100111100 d"
b1111110000101101001111 k"
b1001011111010111100011 g"
b110101101110001011011100 c"
b10111 f"
1'
#870000
0'
#885000
b1111110000101101001111 i"
b10010111110101111000111 e
b10010111110101111000111 j"
1f
0e"
1'
#900000
0'
#915000
0#"
0;"
0S"
b10 t
1m
b10010111110101111000111 n
b10010111110101111000111 v
b10010111110101111000111 0"
b10010111110101111000111 H"
1'
#930000
0'
#945000
0m
1U"
1["
b10010111110101111000111 T"
b1111000000000000000000 R"
b1 ^"
1="
0C"
b10010111110101111000111 <"
b10100000000000000000 :"
b1 F"
1%"
1+"
b10010111110101111000111 $"
b1000001000000000000000000 ""
b1 ."
1'
#960000
0'
#975000
b0 !"
b100000100000000000000000000 *"
b0 9"
b1010000000000000000000 B"
b0 Q"
b111100000000000000000000 Z"
b0 ~
b10000010000000000000000000 )"
b0 '"
b10 ."
b0 8"
b101000000000000000000 A"
b0 ?"
b10 F"
b0 P"
b11110000000000000000000 Y"
b0 W"
b10 ^"
1'
#990000
0'
#1005000
b1111000000000000000000000 Z"
b10100000000000000000000 B"
b1000001000000000000000000000 *"
b111100000000000000000000 Y"
b1 W"
b1010000000000000000000 A"
b1 ?"
b100000100000000000000000000 )"
b1 '"
1'
#1020000
0'
#1035000
b10000010000000000000000000000 *"
b101000000000000000000000 B"
b11110000000000000000000000 Z"
b1000001000000000000000000000 )"
b10 '"
b10100000000000000000000 A"
b10 ?"
b1111000000000000000000000 Y"
b10 W"
1'
#1050000
0'
#1065000
b111100000000000000000000000 Z"
b1010000000000000000000000 B"
b100000100000000000000000000000 *"
b11110000000000000000000000 Y"
b11 W"
b101000000000000000000000 A"
b11 ?"
b10000010000000000000000000000 )"
b11 '"
1'
#1080000
0'
#1095000
b1000001000000000000000000000000 *"
b10100000000000000000000000 B"
b1111000000000000000000000000 Z"
b100000100000000000000000000000 )"
b100 '"
b1010000000000000000000000 A"
b100 ?"
b111100000000000000000000000 Y"
b100 W"
1'
#1110000
0'
#1125000
b11110000000000000000000000000 Z"
b101000000000000000000000000 B"
b1 !"
b10000000000000000000000000 *"
b1111000000000000000000000000 Y"
b101 W"
b10100000000000000000000000 A"
b101 ?"
b1000001000000000000000000000000 )"
b101 '"
1'
#1140000
0'
#1155000
b10 !"
b100000000000000000000000000 *"
b1010000000000000000000000000 B"
b111100000000000000000000000000 Z"
b10000000000000000000000000 )"
b1 ~
b110 '"
b101000000000000000000000000 A"
b110 ?"
b11110000000000000000000000000 Y"
b110 W"
1'
#1170000
0'
#1185000
b1111000000000000000000000000000 Z"
b10100000000000000000000000000 B"
b100 !"
b1000000000000000000000000000 *"
b111100000000000000000000000000 Y"
b111 W"
b1010000000000000000000000000 A"
b111 ?"
b100000000000000000000000000 )"
b10 ~
b111 '"
1'
#1200000
0'
#1215000
b1000 !"
b10000000000000000000000000000 *"
b101000000000000000000000000000 B"
b1 Q"
b1110000000000000000000000000000 Z"
b1000000000000000000000000000 )"
b100 ~
b1000 '"
b10100000000000000000000000000 A"
b1000 ?"
b1111000000000000000000000000000 Y"
b1000 W"
1'
#1230000
0'
#1245000
b11 Q"
b1100000000000000000000000000000 Z"
b1010000000000000000000000000000 B"
b10000 !"
b100000000000000000000000000000 *"
b1110000000000000000000000000000 Y"
b1 P"
b1001 W"
b101000000000000000000000000000 A"
b1001 ?"
b10000000000000000000000000000 )"
b1000 ~
b1001 '"
1'
#1260000
0'
#1275000
b100000 !"
b1000000000000000000000000000000 *"
b1 9"
b100000000000000000000000000000 B"
b111 Q"
b1000000000000000000000000000000 Z"
b100000000000000000000000000000 )"
b10000 ~
b1010 '"
b1010000000000000000000000000000 A"
b1010 ?"
b1100000000000000000000000000000 Y"
b11 P"
b1010 W"
1'
#1290000
0'
#1305000
b1111 Q"
b0 Z"
b10 9"
b1000000000000000000000000000000 B"
b1000001 !"
b0 *"
b1000000000000000000000000000000 Y"
b111 P"
b1011 W"
b100000000000000000000000000000 A"
b1 8"
b1011 ?"
b1000000000000000000000000000000 )"
b100000 ~
b1011 '"
1'
#1320000
0'
#1335000
b10000010 !"
b101 9"
b0 B"
b11110 Q"
b0 )"
b1000001 ~
b1100 '"
b1000000000000000000000000000000 A"
b10 8"
b1100 ?"
b0 Y"
b1111 P"
b1100 W"
1'
#1350000
0'
#1365000
b111100 Q"
b1010 9"
b100000100 !"
b11110 P"
b1101 W"
b0 A"
b101 8"
b1101 ?"
b10000010 ~
b1101 '"
1'
#1380000
0'
#1395000
b1000001000 !"
b10100 9"
b1111000 Q"
b100000100 ~
b1110 '"
b1010 8"
b1110 ?"
b111100 P"
b1110 W"
1'
#1410000
0'
#1425000
b11110000 Q"
b101000 9"
b10000010000 !"
b1111000 P"
b1111 W"
b10100 8"
b1111 ?"
b1000001000 ~
b1111 '"
1'
#1440000
0'
#1455000
b100000100000 !"
b1010000 9"
b111100000 Q"
b10000010000 ~
b10000 '"
b101000 8"
b10000 ?"
b11110000 P"
b10000 W"
1'
#1470000
0'
#1485000
b1111000000 Q"
b10100000 9"
b1000001000000 !"
b111100000 P"
b10001 W"
b1010000 8"
b10001 ?"
b100000100000 ~
b10001 '"
1'
#1500000
0'
#1515000
b10000010000000 !"
b101000000 9"
b11110000000 Q"
b1000001000000 ~
b10010 '"
b10100000 8"
b10010 ?"
b1111000000 P"
b10010 W"
1'
#1530000
0'
#1545000
b111100000000 Q"
b1010000000 9"
b100000100000000 !"
b11110000000 P"
b10011 W"
b101000000 8"
b10011 ?"
b10000010000000 ~
b10011 '"
1'
#1560000
0'
#1575000
b1000001000000000 !"
b10100000000 9"
b1111000000000 Q"
b100000100000000 ~
b10100 '"
b1010000000 8"
b10100 ?"
b111100000000 P"
b10100 W"
1'
#1590000
0'
#1605000
b11110000000000 Q"
b101000000000 9"
b10000010000000000 !"
b1111000000000 P"
b10101 W"
b10100000000 8"
b10101 ?"
b1000001000000000 ~
b10101 '"
1'
#1620000
0'
#1635000
b100000100000000000 !"
b1010000000000 9"
b111100000000000 Q"
b10000010000000000 ~
b10110 '"
b101000000000 8"
b10110 ?"
b11110000000000 P"
b10110 W"
1'
#1650000
0'
#1665000
b1111000000000000 Q"
b10100000000000 9"
b1000001000000000000 !"
b111100000000000 P"
b10111 W"
b1010000000000 8"
b10111 ?"
b100000100000000000 ~
b10111 '"
1'
#1680000
0'
#1695000
b10000010000000000000 !"
b101000000000000 9"
b11110000000000000 Q"
b1000001000000000000 ~
b11000 '"
b10100000000000 8"
b11000 ?"
b1111000000000000 P"
b11000 W"
1'
#1710000
0'
#1725000
b111100000000000000 Q"
b1010000000000000 9"
b100000100000000000000 !"
b11110000000000000 P"
b11001 W"
b101000000000000 8"
b11001 ?"
b10000010000000000000 ~
b11001 '"
1'
#1740000
0'
#1755000
b1000001000000000000000 !"
b10100000000000000 9"
b1111000000000000000 Q"
b100000100000000000000 ~
b11010 '"
b1010000000000000 8"
b11010 ?"
b111100000000000000 P"
b11010 W"
1'
#1770000
0'
#1785000
b11110000000000000000 Q"
b101000000000000000 9"
b10000010000000000000000 !"
b1111000000000000000 P"
b11011 W"
b10100000000000000 8"
b11011 ?"
b1000001000000000000000 ~
b11011 '"
1'
#1800000
0'
#1815000
b100000100000000000000000 !"
b1010000000000000000 9"
b111100000000000000000 Q"
b10000010000000000000000 ~
b11100 '"
b101000000000000000 8"
b11100 ?"
b11110000000000000000 P"
b11100 W"
1'
#1830000
0'
#1845000
b1111000000000000000000 Q"
b10100000000000000000 9"
b1 *"
b11011000010100001110010 !"
b111100000000000000000 P"
b11101 W"
b1010000000000000000 8"
b11101 ?"
b100000100000000000000000 ~
b11101 '"
1'
#1860000
0'
#1875000
b11 *"
b10000000111100101010110 !"
b101000000000000000000 9"
b11110000000000000000000 Q"
b1 )"
b11011000010100001110010 ~
b11110 '"
b10100000000000000000 8"
b11110 ?"
b1111000000000000000000 P"
b11110 W"
1'
#1890000
0'
#1905000
b1 Z"
b10110000010100001110010 Q"
b1010000000000000000000 9"
b100000001111001010101100 !"
b110 *"
b11110000000000000000000 P"
b11111 W"
b101000000000000000000 8"
b11111 ?"
b11 )"
b10000000111100101010110 ~
b11111 '"
1'
#1920000
0'
#1935000
b1101 *"
b11010100000110111001010 !"
b10100000000000000000000 9"
b11 Z"
b110000111100101010110 Q"
b110 )"
b100000001111001010101100 ~
b100000 '"
b1010000000000000000000 8"
b100000 ?"
b1 Y"
b10110000010100001110010 P"
b100000 W"
1'
#1950000
0'
#1965000
b1100001111001010101100 Q"
b110 Z"
b1 B"
b10000010100001110010 9"
b11011 *"
b1111000100010000000110 !"
b11 Y"
b110000111100101010110 P"
b100001 W"
b10100000000000000000000 8"
b100001 ?"
b1101 )"
b11010100000110111001010 ~
b100001 '"
1'
#1980000
0'
#1995000
b11110001000100000001100 !"
b110110 *"
b100000101000011100100 9"
b10 B"
b11000011110010101011000 Q"
b1100 Z"
b11011 )"
b1111000100010000000110 ~
b100010 '"
b1 A"
b10000010100001110010 8"
b100010 ?"
b110 Y"
b1100001111001010101100 P"
b100010 W"
1'
#2010000
0'
#2025000
b11001 Z"
b1010111111001100100010 Q"
b1000001010000111001000 9"
b100 B"
b1101101 *"
b10110010011100010001010 !"
b1100 Y"
b11000011110010101011000 P"
b100011 W"
b10 A"
b100000101000011100100 8"
b100011 ?"
b110110 )"
b11110001000100000001100 ~
b100011 '"
1'
#2040000
0'
#2055000
b11011011 *"
b110101001100110000110 !"
b10000010100001110010000 9"
b1000 B"
b10101111110011001000100 Q"
b110010 Z"
b1101101 )"
b10110010011100010001010 ~
b100100 '"
b100 A"
b1000001010000111001000 8"
b100100 ?"
b11001 Y"
b1010111111001100100010 P"
b100100 W"
1'
#2070000
0'
#2085000
b1100101 Z"
b101111111010011111010 Q"
b100000101000011100100000 9"
b10000 B"
b1101010011001100001100 !"
b110110110 *"
b110010 Y"
b10101111110011001000100 P"
b100101 W"
b1000 A"
b10000010100001110010000 8"
b100101 ?"
b11011011 )"
b110101001100110000110 ~
b100101 '"
1'
#2100000
0'
#2115000
b11010100110011000011000 !"
b1101101100 *"
b100001 B"
b11011010011011010110010 9"
b1011111110100111110100 Q"
b11001010 Z"
b110110110 )"
b1101010011001100001100 ~
b100110 '"
b10000 A"
b100000101000011100100000 8"
b100110 ?"
b1100101 Y"
b101111111010011111010 P"
b100110 W"
1'
#2130000
0'
#2145000
b10111111101001111101000 Q"
b110010100 Z"
b1000011 B"
b10000101001010111010110 9"
b11011011001 *"
b1111001111010010100010 !"
b11001010 Y"
b1011111110100111110100 P"
b100111 W"
b100001 A"
b11011010011011010110010 8"
b100111 ?"
b1101101100 )"
b11010100110011000011000 ~
b100111 '"
1'
#2160000
0'
#2175000
b11110011110100101000100 !"
b110110110010 *"
b100001010010101110101100 9"
b10000110 B"
b1100101001 Z"
b1001111101000001000010 Q"
b11011011001 )"
b1111001111010010100010 ~
b101000 '"
b1000011 A"
b10000101001010111010110 8"
b101000 ?"
b110010100 Y"
b10111111101001111101000 P"
b101000 W"
1'
#2190000
0'
#2205000
b10011111010000010000100 Q"
b11001010010 Z"
b100001101 B"
b11100100111111111001010 9"
b1101101100101 *"
b10110111111101011111010 !"
b1100101001 Y"
b1001111101000001000010 P"
b101001 W"
b10000110 A"
b100001010010101110101100 8"
b101001 ?"
b110110110010 )"
b11110011110100101000100 ~
b101001 '"
1'
#2220000
0'
