raymarcher.vcd
$date
	Wed Oct 18 16:18:41 2023
$end
$version
	Icarus Verilog
$end
$timescale
	1ps
$end
$scope module tb $end
$var wire 8 ! red_out [7:0] $end
$var wire 1 " pixel_done $end
$var wire 8 # green_out [7:0] $end
$var wire 8 $ blue_out [7:0] $end
$var reg 24 % a [23:0] $end
$var reg 24 & b [23:0] $end
$var reg 24 ' c [23:0] $end
$var reg 1 ( clk_in $end
$var reg 1 ) rst_in $end
$var reg 33 * x_in [32:0] $end
$var reg 33 + y_in [32:0] $end
$scope module raym $end
$var wire 1 ( clk_pixel_in $end
$var wire 9 , curr_x [8:0] $end
$var wire 9 - curr_y [8:0] $end
$var wire 1 ) rst_in $end
$var wire 24 . sdf_out [23:0] $end
$var wire 1 / sdf_done $end
$var wire 24 0 ray_gen_out_z [23:0] $end
$var wire 24 1 ray_gen_out_y [23:0] $end
$var wire 24 2 ray_gen_out_x [23:0] $end
$var wire 1 3 ray_gen_done $end
$var parameter 24 4 EPSILON $end
$var parameter 32 5 HEIGHT $end
$var parameter 24 6 MAX_DIST_SQUARE $end
$var parameter 32 7 MAX_STEPS $end
$var parameter 32 8 WIDTH $end
$var reg 8 9 blue_out [7:0] $end
$var reg 24 : dir_x [23:0] $end
$var reg 24 ; dir_y [23:0] $end
$var reg 24 < dir_z [23:0] $end
$var reg 8 = green_out [7:0] $end
$var reg 1 " pixel_done $end
$var reg 24 > ray_gen_in_x [23:0] $end
$var reg 24 ? ray_gen_in_y [23:0] $end
$var reg 24 @ ray_gen_in_z [23:0] $end
$var reg 1 A ray_gen_start $end
$var reg 8 B ray_steps [7:0] $end
$var reg 24 C ray_x [23:0] $end
$var reg 24 D ray_y [23:0] $end
$var reg 24 E ray_z [23:0] $end
$var reg 8 F red_out [7:0] $end
$var reg 1 G sdf_start $end
$var integer 32 H state [31:0] $end
$scope module ray_gen_inst $end
$var wire 1 ( clk_in $end
$var wire 24 I ray_gen_in_x [23:0] $end
$var wire 24 J ray_gen_in_y [23:0] $end
$var wire 24 K ray_gen_in_z [23:0] $end
$var wire 1 A ray_gen_start $end
$var wire 1 ) rst_in $end
$var reg 1 3 ray_gen_done $end
$var reg 24 L ray_gen_out_x [23:0] $end
$var reg 24 M ray_gen_out_y [23:0] $end
$var reg 24 N ray_gen_out_z [23:0] $end
$upscope $end
$scope module sdf_inst $end
$var wire 1 ( clk_in $end
$var wire 1 ) rst_in $end
$var wire 1 G sdf_start $end
$var wire 24 O x [23:0] $end
$var wire 24 P y [23:0] $end
$var wire 24 Q z [23:0] $end
$var reg 1 / sdf_done $end
$var reg 24 R sdf_out [23:0] $end
$upscope $end
$upscope $end
$scope begin $ivl_for_loop0 $end
$var integer 32 S i [31:0] $end
$upscope $end
$upscope $end
$enddefinitions $end
$comment Show the parameter values. $end
$dumpall
b100101100 8
b1100100 7
b1000000000000000 6
b100101100 5
b10000 4
$end
#0
$dumpvars
b0 S
bx R
bx Q
bx P
bx O
bx N
bx M
bx L
bx K
bx J
bx I
b0 H
0G
bx F
bx E
bx D
bx C
bx B
0A
bx @
bx ?
bx >
bx =
bx <
bx ;
bx :
bx 9
x3
bx 2
bx 1
bx 0
x/
bx .
b10010110 -
b10010110 ,
b10010110 +
b10010110 *
0)
0(
bx '
bx &
bx %
bx $
bx #
1"
bx !
$end
#5000
0"
0/
03
b1 H
b0 B
1(
#10000
0(
1)
#15000
1"
b0 H
1(
#20000
0(
0)
#25000
0"
b1 H
1(
#30000
0(
b0 '
b1000000000000 &
b111111111111000000000000 %
#35000
1A
b11 H
b1001011000000000 @
b1001011000000000 K
b0 ?
b0 J
b0 >
b0 I
1(
#40000
0(
#45000
13
b100000001 0
b100000001 N
b0 1
b0 M
b0 2
b0 L
1(
#50000
0(
b1 S
#55000
1G
0A
b10 H
b0 E
b0 Q
b0 D
b0 P
b0 C
b0 O
b100000001 <
b0 ;
b0 :
1(
#60000
0(
b10 S
#65000
1/
b1001010100000000 .
b1001010100000000 R
03
0G
1(
#70000
0(
b11 S
#75000
b100 H
0/
1(
#80000
0(
b100 S
#85000
1G
b10 H
b1 B
b1001010110010101 E
b1001010110010101 Q
1(
#90000
0(
b101 S
#95000
0G
1/
b111111111111111101101011 .
b111111111111111101101011 R
1(
#100000
0(
b110 S
#105000
1"
0/
b0 H
b0 $
b0 9
b0 #
b0 =
b0 !
b0 F
1(
#110000
0(
b111 S
#115000
0"
b1 H
b0 B
1(
#120000
0(
b1000 S
#125000
1A
b11 H
1(
#130000
0(
b1001 S
#135000
13
1(
#140000
0(
b1010 S
#145000
1G
0A
b10 H
b0 E
b0 Q
1(
#150000
0(
b1011 S
#155000
0G
03
1/
b1001010100000000 .
b1001010100000000 R
1(
#160000
0(
b1100 S
#165000
0/
b100 H
1(
#170000
0(
b1101 S
#175000
1G
b10 H
b1 B
b1001010110010101 E
b1001010110010101 Q
1(
#180000
0(
b1110 S
#185000
1/
b111111111111111101101011 .
b111111111111111101101011 R
0G
1(
#190000
0(
b1111 S
#195000
1"
b0 H
0/
1(
#200000
0(
b10000 S
#205000
0"
b1 H
b0 B
1(
#210000
0(
b10001 S
#215000
1A
b11 H
1(
#220000
0(
b10010 S
#225000
13
1(
#230000
0(
b10011 S
#235000
1G
0A
b10 H
b0 E
b0 Q
1(
#240000
0(
b10100 S
#245000
1/
b1001010100000000 .
b1001010100000000 R
03
0G
1(
#250000
0(
b10101 S
#255000
b100 H
0/
1(
#260000
0(
b10110 S
#265000
1G
b10 H
b1 B
b1001010110010101 E
b1001010110010101 Q
1(
#270000
0(
b10111 S
#275000
0G
1/
b111111111111111101101011 .
b111111111111111101101011 R
1(
#280000
0(
b11000 S
#285000
1"
0/
b0 H
1(
#290000
0(
b11001 S
#295000
0"
b1 H
b0 B
1(
#300000
0(
b11010 S
#305000
1A
b11 H
1(
#310000
0(
b11011 S
#315000
13
1(
#320000
0(
b11100 S
#325000
1G
0A
b10 H
b0 E
b0 Q
1(
#330000
0(
b11101 S
#335000
0G
03
1/
b1001010100000000 .
b1001010100000000 R
1(
#340000
0(
b11110 S
#345000
0/
b100 H
1(
#350000
0(
b11111 S
#355000
1G
b10 H
b1 B
b1001010110010101 E
b1001010110010101 Q
1(
#360000
0(
b100000 S
#365000
1/
b111111111111111101101011 .
b111111111111111101101011 R
0G
1(
#370000
0(
b100001 S
#375000
1"
b0 H
0/
1(
#380000
0(
b100010 S
#385000
0"
b1 H
b0 B
1(
#390000
0(
b100011 S
#395000
1A
b11 H
1(
#400000
0(
b100100 S
#405000
13
1(
#410000
0(
b100101 S
#415000
1G
0A
b10 H
b0 E
b0 Q
1(
#420000
0(
b100110 S
#425000
1/
b1001010100000000 .
b1001010100000000 R
03
0G
1(
#430000
0(
b100111 S
#435000
b100 H
0/
1(
#440000
0(
b101000 S
#445000
1G
b10 H
b1 B
b1001010110010101 E
b1001010110010101 Q
1(
#450000
0(
b101001 S
#455000
0G
1/
b111111111111111101101011 .
b111111111111111101101011 R
1(
#460000
0(
b101010 S
#465000
1"
0/
b0 H
1(
#470000
0(
b101011 S
#475000
0"
b1 H
b0 B
1(
#480000
0(
b101100 S
#485000
1A
b11 H
1(
#490000
0(
b101101 S
#495000
13
1(
#500000
0(
b101110 S
#505000
1G
0A
b10 H
b0 E
b0 Q
1(
#510000
0(
b101111 S
#515000
0G
03
1/
b1001010100000000 .
b1001010100000000 R
1(
#520000
0(
b110000 S
#525000
0/
b100 H
1(
#530000
0(
b110001 S
#535000
1G
b10 H
b1 B
b1001010110010101 E
b1001010110010101 Q
1(
#540000
0(
b110010 S
#545000
1/
b111111111111111101101011 .
b111111111111111101101011 R
0G
1(
#550000
0(
b110011 S
#555000
1"
b0 H
0/
1(
#560000
0(
b110100 S
#565000
0"
b1 H
b0 B
1(
#570000
0(
b110101 S
#575000
1A
b11 H
1(
#580000
0(
b110110 S
#585000
13
1(
#590000
0(
b110111 S
#595000
1G
0A
b10 H
b0 E
b0 Q
1(
#600000
0(
b111000 S
#605000
1/
b1001010100000000 .
b1001010100000000 R
03
0G
1(
#610000
0(
b111001 S
#615000
b100 H
0/
1(
#620000
0(
b111010 S
#625000
1G
b10 H
b1 B
b1001010110010101 E
b1001010110010101 Q
1(
#630000
0(
b111011 S
#635000
0G
1/
b111111111111111101101011 .
b111111111111111101101011 R
1(
#640000
0(
b111100 S
#645000
1"
0/
b0 H
1(
#650000
0(
b111101 S
#655000
0"
b1 H
b0 B
1(
#660000
0(
b111110 S
#665000
1A
b11 H
1(
#670000
0(
b111111 S
#675000
13
1(
#680000
0(
b1000000 S
#685000
1G
0A
b10 H
b0 E
b0 Q
1(
#690000
0(
b1000001 S
#695000
0G
03
1/
b1001010100000000 .
b1001010100000000 R
1(
#700000
0(
b1000010 S
#705000
0/
b100 H
1(
#710000
0(
b1000011 S
#715000
1G
b10 H
b1 B
b1001010110010101 E
b1001010110010101 Q
1(
#720000
0(
b1000100 S
#725000
1/
b111111111111111101101011 .
b111111111111111101101011 R
0G
1(
#730000
0(
b1000101 S
#735000
1"
b0 H
0/
1(
#740000
0(
b1000110 S
#745000
0"
b1 H
b0 B
1(
#750000
0(
b1000111 S
#755000
1A
b11 H
1(
#760000
0(
b1001000 S
#765000
13
1(
#770000
0(
b1001001 S
#775000
1G
0A
b10 H
b0 E
b0 Q
1(
#780000
0(
b1001010 S
#785000
1/
b1001010100000000 .
b1001010100000000 R
03
0G
1(
#790000
0(
b1001011 S
#795000
b100 H
0/
1(
#800000
0(
b1001100 S
#805000
1G
b10 H
b1 B
b1001010110010101 E
b1001010110010101 Q
1(
#810000
0(
b1001101 S
#815000
0G
1/
b111111111111111101101011 .
b111111111111111101101011 R
1(
#820000
0(
b1001110 S
#825000
1"
0/
b0 H
1(
#830000
0(
b1001111 S
#835000
0"
b1 H
b0 B
1(
#840000
0(
b1010000 S
#845000
1A
b11 H
1(
#850000
0(
b1010001 S
#855000
13
1(
#860000
0(
b1010010 S
#865000
1G
0A
b10 H
b0 E
b0 Q
1(
#870000
0(
b1010011 S
#875000
0G
03
1/
b1001010100000000 .
b1001010100000000 R
1(
#880000
0(
b1010100 S
#885000
0/
b100 H
1(
#890000
0(
b1010101 S
#895000
1G
b10 H
b1 B
b1001010110010101 E
b1001010110010101 Q
1(
#900000
0(
b1010110 S
#905000
1/
b111111111111111101101011 .
b111111111111111101101011 R
0G
1(
#910000
0(
b1010111 S
#915000
1"
b0 H
0/
1(
#920000
0(
b1011000 S
#925000
0"
b1 H
b0 B
1(
#930000
0(
b1011001 S
#935000
1A
b11 H
1(
#940000
0(
b1011010 S
#945000
13
1(
#950000
0(
b1011011 S
#955000
1G
0A
b10 H
b0 E
b0 Q
1(
#960000
0(
b1011100 S
#965000
1/
b1001010100000000 .
b1001010100000000 R
03
0G
1(
#970000
0(
b1011101 S
#975000
b100 H
0/
1(
#980000
0(
b1011110 S
#985000
1G
b10 H
b1 B
b1001010110010101 E
b1001010110010101 Q
1(
#990000
0(
b1011111 S
#995000
0G
1/
b111111111111111101101011 .
b111111111111111101101011 R
1(
#1000000
0(
b1100000 S
#1005000
1"
0/
b0 H
1(
#1010000
0(
b1100001 S
#1015000
0"
b1 H
b0 B
1(
#1020000
0(
b1100010 S
#1025000
1A
b11 H
1(
#1030000
0(
b1100011 S
#1035000
13
1(
#1040000
0(
b1100100 S
#1045000
1G
0A
b10 H
b0 E
b0 Q
1(
#1050000
0(
b1100101 S
#1055000
0G
03
1/
b1001010100000000 .
b1001010100000000 R
1(
#1060000
0(
b1100110 S
#1065000
0/
b100 H
1(
#1070000
0(
b1100111 S
#1075000
1G
b10 H
b1 B
b1001010110010101 E
b1001010110010101 Q
1(
#1080000
0(
b1101000 S
#1085000
1/
b111111111111111101101011 .
b111111111111111101101011 R
0G
1(
#1090000
0(
b1101001 S
#1095000
1"
b0 H
0/
1(
#1100000
0(
b1101010 S
#1105000
0"
b1 H
b0 B
1(
#1110000
0(
b1101011 S
#1115000
1A
b11 H
1(
#1120000
0(
b1101100 S
#1125000
13
1(
#1130000
0(
b1101101 S
#1135000
1G
0A
b10 H
b0 E
b0 Q
1(
#1140000
0(
b1101110 S
#1145000
1/
b1001010100000000 .
b1001010100000000 R
03
0G
1(
#1150000
0(
b1101111 S
#1155000
b100 H
0/
1(
#1160000
0(
b1110000 S
#1165000
1G
b10 H
b1 B
b1001010110010101 E
b1001010110010101 Q
1(
#1170000
0(
b1110001 S
#1175000
0G
1/
b111111111111111101101011 .
b111111111111111101101011 R
1(
#1180000
0(
b1110010 S
#1185000
1"
0/
b0 H
1(
#1190000
0(
b1110011 S
#1195000
0"
b1 H
b0 B
1(
#1200000
0(
b1110100 S
#1205000
1A
b11 H
1(
#1210000
0(
b1110101 S
#1215000
13
1(
#1220000
0(
b1110110 S
#1225000
1G
0A
b10 H
b0 E
b0 Q
1(
#1230000
0(
b1110111 S
#1235000
0G
03
1/
b1001010100000000 .
b1001010100000000 R
1(
#1240000
0(
b1111000 S
#1245000
0/
b100 H
1(
#1250000
0(
b1111001 S
#1255000
1G
b10 H
b1 B
b1001010110010101 E
b1001010110010101 Q
1(
#1260000
0(
b1111010 S
#1265000
1/
b111111111111111101101011 .
b111111111111111101101011 R
0G
1(
#1270000
0(
b1111011 S
#1275000
1"
b0 H
0/
1(
#1280000
0(
b1111100 S
#1285000
0"
b1 H
b0 B
1(
#1290000
0(
b1111101 S
#1295000
1A
b11 H
1(
#1300000
0(
b1111110 S
#1305000
13
1(
#1310000
0(
b1111111 S
#1315000
1G
0A
b10 H
b0 E
b0 Q
1(
#1320000
0(
b10000000 S
#1325000
1/
b1001010100000000 .
b1001010100000000 R
03
0G
1(
#1330000
0(
b10000001 S
#1335000
b100 H
0/
1(
#1340000
0(
b10000010 S
#1345000
1G
b10 H
b1 B
b1001010110010101 E
b1001010110010101 Q
1(
#1350000
0(
b10000011 S
#1355000
0G
1/
b111111111111111101101011 .
b111111111111111101101011 R
1(
#1360000
0(
b10000100 S
#1365000
1"
0/
b0 H
1(
#1370000
0(
b10000101 S
#1375000
0"
b1 H
b0 B
1(
#1380000
0(
b10000110 S
#1385000
1A
b11 H
1(
#1390000
0(
b10000111 S
#1395000
13
1(
#1400000
0(
b10001000 S
#1405000
1G
0A
b10 H
b0 E
b0 Q
1(
#1410000
0(
b10001001 S
#1415000
0G
03
1/
b1001010100000000 .
b1001010100000000 R
1(
#1420000
0(
b10001010 S
#1425000
0/
b100 H
1(
#1430000
0(
b10001011 S
#1435000
1G
b10 H
b1 B
b1001010110010101 E
b1001010110010101 Q
1(
#1440000
0(
b10001100 S
#1445000
1/
b111111111111111101101011 .
b111111111111111101101011 R
0G
1(
#1450000
0(
b10001101 S
#1455000
1"
b0 H
0/
1(
#1460000
0(
b10001110 S
#1465000
0"
b1 H
b0 B
1(
#1470000
0(
b10001111 S
#1475000
1A
b11 H
1(
#1480000
0(
b10010000 S
#1485000
13
1(
#1490000
0(
b10010001 S
#1495000
1G
0A
b10 H
b0 E
b0 Q
1(
#1500000
0(
b10010010 S
#1505000
1/
b1001010100000000 .
b1001010100000000 R
03
0G
1(
#1510000
0(
b10010011 S
#1515000
b100 H
0/
1(
#1520000
0(
b10010100 S
#1525000
1G
b10 H
b1 B
b1001010110010101 E
b1001010110010101 Q
1(
#1530000
0(
b10010101 S
#1535000
0G
1/
b111111111111111101101011 .
b111111111111111101101011 R
1(
#1540000
0(
b10010110 S
