raymarcher.vcd
$date
	Tue Dec  5 23:29:11 2023
$end
$version
	Icarus Verilog
$end
$timescale
	1ps
$end
$scope module tb $end
$var wire 33 ! y_out [32:0] $end
$var wire 33 " x_out [32:0] $end
$var wire 1 # pixel_done $end
$var wire 24 $ col_out [23:0] $end
$var reg 1 % clk_in $end
$var reg 1 & rst_in $end
$var reg 1 ' start $end
$var reg 33 ( x_in [32:0] $end
$var reg 33 ) y_in [32:0] $end
$scope module raym $end
$var wire 32 * camera_forward_x [31:0] $end
$var wire 32 + camera_forward_y [31:0] $end
$var wire 32 , camera_forward_z [31:0] $end
$var wire 32 - camera_u_x [31:0] $end
$var wire 32 . camera_u_y [31:0] $end
$var wire 32 / camera_u_z [31:0] $end
$var wire 32 0 camera_v_x [31:0] $end
$var wire 32 1 camera_v_y [31:0] $end
$var wire 32 2 camera_v_z [31:0] $end
$var wire 32 3 camera_x [31:0] $end
$var wire 32 4 camera_y [31:0] $end
$var wire 32 5 camera_z [31:0] $end
$var wire 1 % clk_in $end
$var wire 9 6 curr_x [8:0] $end
$var wire 8 7 curr_y [7:0] $end
$var wire 1 & rst_in $end
$var wire 8 8 sdf_blue_out [7:0] $end
$var wire 8 9 sdf_green_out [7:0] $end
$var wire 8 : sdf_red_out [7:0] $end
$var wire 1 ' start_in $end
$var wire 32 ; timer [31:0] $end
$var wire 32 < sdf_out [31:0] $end
$var wire 1 = sdf_done $end
$var wire 32 > ray_gen_out_z [31:0] $end
$var wire 32 ? ray_gen_out_y [31:0] $end
$var wire 32 @ ray_gen_out_x [31:0] $end
$var wire 1 A ray_gen_done $end
$var parameter 32 B EPSILON $end
$var parameter 32 C HEIGHT $end
$var parameter 32 D MAX_DIST_MANHATTEN $end
$var parameter 32 E MAX_STEPS $end
$var parameter 12 F NORMAL_EPS $end
$var parameter 19 G UNCALCULATED_NORMAL_VALUE $end
$var parameter 32 H WIDTH $end
$var parameter 32 I light_x $end
$var parameter 32 J light_y $end
$var parameter 32 K light_z $end
$var reg 24 L color_out [23:0] $end
$var reg 32 M dir_x [31:0] $end
$var reg 32 N dir_y [31:0] $end
$var reg 32 O dir_z [31:0] $end
$var reg 32 P light_fac [31:0] $end
$var reg 32 Q light_weight [31:0] $end
$var reg 32 R normal_base_dist [31:0] $end
$var reg 9 S out_x [8:0] $end
$var reg 8 T out_y [7:0] $end
$var reg 1 # pixel_done $end
$var reg 32 U ray_dist [31:0] $end
$var reg 32 V ray_gen_in_x [31:0] $end
$var reg 32 W ray_gen_in_y [31:0] $end
$var reg 32 X ray_gen_in_z [31:0] $end
$var reg 1 Y ray_gen_start $end
$var reg 8 Z ray_steps [7:0] $end
$var reg 32 [ ray_x [31:0] $end
$var reg 32 \ ray_y [31:0] $end
$var reg 32 ] ray_z [31:0] $end
$var reg 1 ^ sdf_start $end
$var reg 32 _ tmp_x [31:0] $end
$var reg 32 ` tmp_y [31:0] $end
$var reg 32 a tmp_z [31:0] $end
$var integer 32 b state [31:0] $end
$scope module menger_sdf_inst $end
$var wire 1 % clk_in $end
$var wire 1 & rst_in $end
$var wire 8 c sdf_blue_out [7:0] $end
$var wire 8 d sdf_green_out [7:0] $end
$var wire 8 e sdf_red_out [7:0] $end
$var wire 1 ^ sdf_start $end
$var wire 32 f timer [31:0] $end
$var wire 32 g x [31:0] $end
$var wire 32 h y [31:0] $end
$var wire 32 i z [31:0] $end
$var wire 32 j sqrt_out [31:0] $end
$var wire 1 k sqrt_done $end
$var wire 1 l div_b_valid $end
$var wire 32 m div_b_out [31:0] $end
$var wire 1 n div_b_done $end
$var reg 32 o div_b_in [31:0] $end
$var reg 1 p div_b_start $end
$var reg 96 q half_vec [95:0] $end
$var reg 32 r length_q [31:0] $end
$var reg 32 s max_q_yz [31:0] $end
$var reg 32 t max_y_z [31:0] $end
$var reg 32 u min_q_0 [31:0] $end
$var reg 96 v p [95:0] $end
$var reg 32 w p_scale [31:0] $end
$var reg 96 x q [95:0] $end
$var reg 32 y qx [31:0] $end
$var reg 32 z qx2 [31:0] $end
$var reg 32 { qy [31:0] $end
$var reg 32 | qy2 [31:0] $end
$var reg 32 } qz [31:0] $end
$var reg 32 ~ scale [31:0] $end
$var reg 32 !" sdBox [31:0] $end
$var reg 1 = sdf_done $end
$var reg 32 "" sdf_out [31:0] $end
$var reg 32 #" sqrt_in [31:0] $end
$var reg 1 $" sqrt_start $end
$var integer 32 %" sq_state [31:0] $end
$var integer 32 &" state [31:0] $end
$scope module div_box $end
$var wire 32 '" a [31:0] $end
$var wire 32 (" b [31:0] $end
$var wire 1 % clk $end
$var wire 1 & rst $end
$var wire 1 p start $end
$var parameter 32 )" FBITS $end
$var parameter 32 *" FBITSW $end
$var parameter 34 +" ITER $end
$var parameter 32 ," SMALLEST $end
$var parameter 32 -" WIDTH $end
$var parameter 33 ." WIDTHU $end
$var reg 1 /" a_sig $end
$var reg 32 0" acc [31:0] $end
$var reg 32 1" acc_next [31:0] $end
$var reg 31 2" au [30:0] $end
$var reg 1 3" b_sig $end
$var reg 31 4" bu [30:0] $end
$var reg 1 5" busy $end
$var reg 1 6" dbz $end
$var reg 1 n done $end
$var reg 7 7" i [6:0] $end
$var reg 1 8" ovf $end
$var reg 31 9" quo [30:0] $end
$var reg 31 :" quo_next [30:0] $end
$var reg 1 ;" sig_diff $end
$var reg 32 <" val [31:0] $end
$var reg 1 l valid $end
$var integer 32 =" state [31:0] $end
$upscope $end
$scope module sqrt_inst $end
$var wire 1 % clk $end
$var wire 32 >" rad [31:0] $end
$var wire 1 $" start $end
$var parameter 32 ?" FBITS $end
$var parameter 32 @" ITER $end
$var parameter 32 A" WIDTH $end
$var reg 34 B" ac [33:0] $end
$var reg 34 C" ac_next [33:0] $end
$var reg 1 D" busy $end
$var reg 5 E" i [4:0] $end
$var reg 32 F" q [31:0] $end
$var reg 32 G" q_next [31:0] $end
$var reg 32 H" rem [31:0] $end
$var reg 32 I" root [31:0] $end
$var reg 34 J" test_res [33:0] $end
$var reg 1 k valid $end
$var reg 32 K" x [31:0] $end
$var reg 32 L" x_next [31:0] $end
$upscope $end
$upscope $end
$scope module ray_gen_inst $end
$var wire 1 % clk_in $end
$var wire 32 M" ray_gen_in_x [31:0] $end
$var wire 32 N" ray_gen_in_y [31:0] $end
$var wire 32 O" ray_gen_in_z [31:0] $end
$var wire 1 Y ray_gen_start $end
$var wire 1 & rst_in $end
$var wire 32 P" sqrt_out [31:0] $end
$var wire 1 Q" sqrt_done $end
$var wire 32 R" div_z_out [31:0] $end
$var wire 1 S" div_z_done $end
$var wire 32 T" div_y_out [31:0] $end
$var wire 1 U" div_y_done $end
$var wire 32 V" div_x_out [31:0] $end
$var wire 1 W" div_x_done $end
$var reg 1 X" div_start $end
$var reg 32 Y" norm [31:0] $end
$var reg 1 A ray_gen_done $end
$var reg 32 Z" ray_gen_out_x [31:0] $end
$var reg 32 [" ray_gen_out_y [31:0] $end
$var reg 32 \" ray_gen_out_z [31:0] $end
$var reg 32 ]" sqrt_in [31:0] $end
$var reg 1 ^" sqrt_start $end
$var integer 32 _" state [31:0] $end
$scope module divx $end
$var wire 32 `" a [31:0] $end
$var wire 32 a" b [31:0] $end
$var wire 1 % clk $end
$var wire 1 & rst $end
$var wire 1 X" start $end
$var parameter 32 b" FBITS $end
$var parameter 32 c" FBITSW $end
$var parameter 34 d" ITER $end
$var parameter 32 e" SMALLEST $end
$var parameter 32 f" WIDTH $end
$var parameter 33 g" WIDTHU $end
$var reg 1 h" a_sig $end
$var reg 32 i" acc [31:0] $end
$var reg 32 j" acc_next [31:0] $end
$var reg 31 k" au [30:0] $end
$var reg 1 l" b_sig $end
$var reg 31 m" bu [30:0] $end
$var reg 1 n" busy $end
$var reg 1 o" dbz $end
$var reg 1 W" done $end
$var reg 7 p" i [6:0] $end
$var reg 1 q" ovf $end
$var reg 31 r" quo [30:0] $end
$var reg 31 s" quo_next [30:0] $end
$var reg 1 t" sig_diff $end
$var reg 32 u" val [31:0] $end
$var reg 1 v" valid $end
$var integer 32 w" state [31:0] $end
$upscope $end
$scope module divy $end
$var wire 32 x" a [31:0] $end
$var wire 32 y" b [31:0] $end
$var wire 1 % clk $end
$var wire 1 & rst $end
$var wire 1 X" start $end
$var parameter 32 z" FBITS $end
$var parameter 32 {" FBITSW $end
$var parameter 34 |" ITER $end
$var parameter 32 }" SMALLEST $end
$var parameter 32 ~" WIDTH $end
$var parameter 33 !# WIDTHU $end
$var reg 1 "# a_sig $end
$var reg 32 ## acc [31:0] $end
$var reg 32 $# acc_next [31:0] $end
$var reg 31 %# au [30:0] $end
$var reg 1 &# b_sig $end
$var reg 31 '# bu [30:0] $end
$var reg 1 (# busy $end
$var reg 1 )# dbz $end
$var reg 1 U" done $end
$var reg 7 *# i [6:0] $end
$var reg 1 +# ovf $end
$var reg 31 ,# quo [30:0] $end
$var reg 31 -# quo_next [30:0] $end
$var reg 1 .# sig_diff $end
$var reg 32 /# val [31:0] $end
$var reg 1 0# valid $end
$var integer 32 1# state [31:0] $end
$upscope $end
$scope module divz $end
$var wire 32 2# a [31:0] $end
$var wire 32 3# b [31:0] $end
$var wire 1 % clk $end
$var wire 1 & rst $end
$var wire 1 X" start $end
$var parameter 32 4# FBITS $end
$var parameter 32 5# FBITSW $end
$var parameter 34 6# ITER $end
$var parameter 32 7# SMALLEST $end
$var parameter 32 8# WIDTH $end
$var parameter 33 9# WIDTHU $end
$var reg 1 :# a_sig $end
$var reg 32 ;# acc [31:0] $end
$var reg 32 <# acc_next [31:0] $end
$var reg 31 =# au [30:0] $end
$var reg 1 ># b_sig $end
$var reg 31 ?# bu [30:0] $end
$var reg 1 @# busy $end
$var reg 1 A# dbz $end
$var reg 1 S" done $end
$var reg 7 B# i [6:0] $end
$var reg 1 C# ovf $end
$var reg 31 D# quo [30:0] $end
$var reg 31 E# quo_next [30:0] $end
$var reg 1 F# sig_diff $end
$var reg 32 G# val [31:0] $end
$var reg 1 H# valid $end
$var integer 32 I# state [31:0] $end
$upscope $end
$scope module sqrt_inst $end
$var wire 1 % clk $end
$var wire 32 J# rad [31:0] $end
$var wire 1 ^" start $end
$var parameter 32 K# FBITS $end
$var parameter 32 L# ITER $end
$var parameter 32 M# WIDTH $end
$var reg 34 N# ac [33:0] $end
$var reg 34 O# ac_next [33:0] $end
$var reg 1 P# busy $end
$var reg 5 Q# i [4:0] $end
$var reg 32 R# q [31:0] $end
$var reg 32 S# q_next [31:0] $end
$var reg 32 T# rem [31:0] $end
$var reg 32 U# root [31:0] $end
$var reg 34 V# test_res [33:0] $end
$var reg 1 Q" valid $end
$var reg 32 W# x [31:0] $end
$var reg 32 X# x_next [31:0] $end
$upscope $end
$upscope $end
$upscope $end
$upscope $end
$enddefinitions $end
$comment Show the parameter values. $end
$dumpall
b100000 M#
b11000 L#
b10000 K#
b11111 9#
b100000 8#
b10000000000000000000000000000000 7#
b101111 6#
b10000 5#
b10000 4#
b11111 !#
b100000 ~"
b10000000000000000000000000000000 }"
b101111 |"
b10000 {"
b10000 z"
b11111 g"
b100000 f"
b10000000000000000000000000000000 e"
b101111 d"
b10000 c"
b10000 b"
b100000 A"
b11000 @"
b10000 ?"
b11111 ."
b100000 -"
b10000000000000000000000000000000 ,"
b101111 +"
b10000 *"
b10000 )"
b11111111111111111100000000000000 K
b101100000000000 J
b1110000000000000 I
b101000000 H
b1110000000000000000 G
b100000000000 F
b1100100 E
b10000000000000000000000000 D
b10110100 C
b10000000000000 B
$end
#0
$dumpvars
bx00 X#
bx W#
bx V#
bx U#
bx T#
bx0 S#
bx R#
bx Q#
xP#
bx O#
bx N#
bx J#
b0 I#
xH#
bx G#
xF#
bx0 E#
bx D#
xC#
bx B#
xA#
x@#
bx ?#
x>#
bx =#
bx <#
bx ;#
x:#
bx 3#
bx 2#
b0 1#
x0#
bx /#
x.#
bx0 -#
bx ,#
x+#
bx *#
x)#
x(#
bx '#
x&#
bx %#
bx $#
bx ##
x"#
bx y"
bx x"
b0 w"
xv"
bx u"
xt"
bx0 s"
bx r"
xq"
bx p"
xo"
xn"
bx m"
xl"
bx k"
bx j"
bx i"
xh"
bx a"
bx `"
b0 _"
x^"
bx ]"
bx \"
bx ["
bx Z"
bx Y"
xX"
xW"
bx V"
xU"
bx T"
xS"
bx R"
xQ"
bx P"
bx O"
bx N"
bx M"
bx00 L"
bx K"
bx J"
bx I"
bx H"
bx0 G"
bx F"
bx E"
xD"
bx C"
bx B"
bx >"
b0 ="
bx <"
x;"
bx0 :"
bx 9"
x8"
bx 7"
x6"
x5"
bx 4"
x3"
bx 2"
bx 1"
bx 0"
x/"
bx ("
bx '"
b0 &"
b0 %"
x$"
bx #"
bx ""
bx !"
bx ~
bx }
bx |
bx {
bx z
bx y
bx x
bx w
bx v
bx u
bx t
bx s
bx r
bx q
xp
bx o
xn
bx m
xl
xk
bx j
bx i
bx h
bx g
bz f
b11110000 e
b1111 d
b0 c
b0 b
bx a
bx `
bx _
x^
bx ]
bx \
bx [
bx Z
xY
bx X
bx W
bx V
bx U
bx T
bx S
bx R
bx Q
bx P
bx O
bx N
bx M
bx L
xA
bx @
bx ?
bx >
0=
bx <
bz ;
b11110000 :
b1111 9
b0 8
b1011010 7
b10100000 6
b11001000000000000000000 5
b0 4
b0 3
b0 2
b10000000000000000 1
b0 0
b0 /
b0 .
b10000000000000000 -
b11111111100111000000000000000000 ,
b0 +
b0 *
b1011010 )
b10100000 (
1'
0&
0%
bx $
1#
b0xxxxxxxxx "
b0xxxxxxxx !
$end
#15000
0#
b0 <
b0 ""
b1010 b
1%
#30000
0%
1&
#45000
1#
b0 b
0X"
0^"
0A
b0 R"
b0 G#
0C#
0A#
0H#
0S"
0@#
b0 T"
b0 /#
0+#
0)#
00#
0U"
0(#
b0 V"
b0 u"
0q"
0o"
0v"
0W"
0n"
b0 #"
b0 >"
0$"
b0 m
b0 <"
08"
06"
0l
0n
05"
1%
#60000
0%
0&
#75000
0#
b1010 b
1%
#90000
0%
#105000
b1 b
b0 `
b0 _
b1011010 !
b1011010 T
b10100000 "
b10100000 S
1%
#120000
0%
#135000
1:#
0"#
0h"
b11 b
1Y
b11111111100111000000000000000000 X
b11111111100111000000000000000000 O"
b11111111100111000000000000000000 2#
b0 W
b0 N"
b0 x"
b0 V
b0 M"
b0 `"
1%
#150000
0%
#165000
0Y
b1 _"
1^"
b100111000100000000000000000000 ]"
b100111000100000000000000000000 J#
1%
#180000
0%
#195000
b0 S#
b10 O#
b1110001000000000000000000000000 X#
b1111111111111111111111111111111111 V#
b0 N#
b10011100010000000000000000000000 W#
b0 R#
b0 Q#
0Q"
1P#
0^"
1%
#210000
0%
#225000
b1 S#
b101 O#
b11000100000000000000000000000000 X#
b1 V#
b10 N#
b1110001000000000000000000000000 W#
b1 Q#
1%
#240000
0%
#255000
b11 S#
b11 O#
b10000000000000000000000000000 X#
b0 V#
b1 R#
b101 N#
b11000100000000000000000000000000 W#
b10 Q#
1%
#270000
0%
#285000
b110 S#
b1100 O#
b1000000000000000000000000000000 X#
b1111111111111111111111111111110110 V#
b11 R#
b11 N#
b10000000000000000000000000000 W#
b11 Q#
1%
#300000
0%
#315000
b1100 S#
b110001 O#
b0 X#
b1111111111111111111111111111110011 V#
b110 R#
b1100 N#
b1000000000000000000000000000000 W#
b100 Q#
1%
#330000
0%
#345000
b11001 S#
b0 O#
b0 V#
b1100 R#
b110001 N#
b0 W#
b101 Q#
1%
#360000
0%
#375000
b110010 S#
b1111111111111111111111111110011011 V#
b11001 R#
b0 N#
b110 Q#
1%
#390000
0%
#405000
b1100100 S#
b1111111111111111111111111100110111 V#
b110010 R#
b111 Q#
1%
#420000
0%
#435000
b11001000 S#
b1111111111111111111111111001101111 V#
b1100100 R#
b1000 Q#
1%
#450000
0%
#465000
b110010000 S#
b1111111111111111111111110011011111 V#
b11001000 R#
b1001 Q#
1%
#480000
0%
#495000
b1100100000 S#
b1111111111111111111111100110111111 V#
b110010000 R#
b1010 Q#
1%
#510000
0%
#525000
b11001000000 S#
b1111111111111111111111001101111111 V#
b1100100000 R#
b1011 Q#
1%
#540000
0%
#555000
b110010000000 S#
b1111111111111111111110011011111111 V#
b11001000000 R#
b1100 Q#
1%
#570000
0%
#585000
b1100100000000 S#
b1111111111111111111100110111111111 V#
b110010000000 R#
b1101 Q#
1%
#600000
0%
#615000
b11001000000000 S#
b1111111111111111111001101111111111 V#
b1100100000000 R#
b1110 Q#
1%
#630000
0%
#645000
b110010000000000 S#
b1111111111111111110011011111111111 V#
b11001000000000 R#
b1111 Q#
1%
#660000
0%
#675000
b1100100000000000 S#
b1111111111111111100110111111111111 V#
b110010000000000 R#
b10000 Q#
1%
#690000
0%
#705000
b11001000000000000 S#
b1111111111111111001101111111111111 V#
b1100100000000000 R#
b10001 Q#
1%
#720000
0%
#735000
b110010000000000000 S#
b1111111111111110011011111111111111 V#
b11001000000000000 R#
b10010 Q#
1%
#750000
0%
#765000
b1100100000000000000 S#
b1111111111111100110111111111111111 V#
b110010000000000000 R#
b10011 Q#
1%
#780000
0%
#795000
b11001000000000000000 S#
b1111111111111001101111111111111111 V#
b1100100000000000000 R#
b10100 Q#
1%
#810000
0%
#825000
b110010000000000000000 S#
b1111111111110011011111111111111111 V#
b11001000000000000000 R#
b10101 Q#
1%
#840000
0%
#855000
b1100100000000000000000 S#
b1111111111100110111111111111111111 V#
b110010000000000000000 R#
b10110 Q#
1%
#870000
0%
#885000
b11001000000000000000000 S#
b1111111111001101111111111111111111 V#
b1100100000000000000000 R#
b10111 Q#
1%
#900000
0%
#915000
b0 T#
b11001000000000000000000 P"
b11001000000000000000000 U#
1Q"
0P#
1%
#930000
0%
#945000
0l"
0&#
0>#
b10 _"
1X"
b11001000000000000000000 Y"
b11001000000000000000000 a"
b11001000000000000000000 y"
b11001000000000000000000 3#
1%
#960000
0%
#975000
1n"
0t"
b11001000000000000000000 m"
b0 k"
b1 w"
1(#
0.#
b11001000000000000000000 '#
b0 %#
b1 1#
1@#
1F#
b11001000000000000000000 ?#
b11001000000000000000000 =#
b1 I#
0X"
1%
#990000
0%
#1005000
b0 <#
b1100100000000000000000000 E#
b0 $#
b0 -#
b0 j"
b0 s"
b0 ;#
b110010000000000000000000 D#
b0 B#
b10 I#
b0 ##
b0 ,#
b0 *#
b10 1#
b0 i"
b0 r"
b0 p"
b10 w"
1%
#1020000
0%
#1035000
b11001000000000000000000000 E#
b1 p"
b1 *#
b1100100000000000000000000 D#
b1 B#
1%
#1050000
0%
#1065000
b110010000000000000000000000 E#
b11001000000000000000000000 D#
b10 B#
b10 *#
b10 p"
1%
#1080000
0%
#1095000
b1100100000000000000000000000 E#
b11 p"
b11 *#
b110010000000000000000000000 D#
b11 B#
1%
#1110000
0%
#1125000
b11001000000000000000000000000 E#
b1100100000000000000000000000 D#
b100 B#
b100 *#
b100 p"
1%
#1140000
0%
#1155000
b110010000000000000000000000000 E#
b101 p"
b101 *#
b11001000000000000000000000000 D#
b101 B#
1%
#1170000
0%
#1185000
b1100100000000000000000000000000 E#
b110010000000000000000000000000 D#
b110 B#
b110 *#
b110 p"
1%
#1200000
0%
#1215000
b1 <#
b1001000000000000000000000000000 E#
b111 p"
b111 *#
b1100100000000000000000000000000 D#
b111 B#
1%
#1230000
0%
#1245000
b11 <#
b10000000000000000000000000000 E#
b1001000000000000000000000000000 D#
b1 ;#
b1000 B#
b1000 *#
b1000 p"
1%
#1260000
0%
#1275000
b110 <#
b100000000000000000000000000000 E#
b1001 p"
b1001 *#
b10000000000000000000000000000 D#
b11 ;#
b1001 B#
1%
#1290000
0%
#1305000
b1100 <#
b1000000000000000000000000000000 E#
b100000000000000000000000000000 D#
b110 ;#
b1010 B#
b1010 *#
b1010 p"
1%
#1320000
0%
#1335000
b11001 <#
b0 E#
b1011 p"
b1011 *#
b1000000000000000000000000000000 D#
b1100 ;#
b1011 B#
1%
#1350000
0%
#1365000
b110010 <#
b0 D#
b11001 ;#
b1100 B#
b1100 *#
b1100 p"
1%
#1380000
0%
#1395000
b1100100 <#
b1101 p"
b1101 *#
b110010 ;#
b1101 B#
1%
#1410000
0%
#1425000
b11001000 <#
b1100100 ;#
b1110 B#
b1110 *#
b1110 p"
1%
#1440000
0%
#1455000
b110010000 <#
b1111 p"
b1111 *#
b11001000 ;#
b1111 B#
1%
#1470000
0%
#1485000
b1100100000 <#
b110010000 ;#
b10000 B#
b10000 *#
b10000 p"
1%
#1500000
0%
#1515000
b11001000000 <#
b10001 p"
b10001 *#
b1100100000 ;#
b10001 B#
1%
#1530000
0%
#1545000
b110010000000 <#
b11001000000 ;#
b10010 B#
b10010 *#
b10010 p"
1%
#1560000
0%
#1575000
b1100100000000 <#
b10011 p"
b10011 *#
b110010000000 ;#
b10011 B#
1%
#1590000
0%
#1605000
b11001000000000 <#
b1100100000000 ;#
b10100 B#
b10100 *#
b10100 p"
1%
#1620000
0%
#1635000
b110010000000000 <#
b10101 p"
b10101 *#
b11001000000000 ;#
b10101 B#
1%
#1650000
0%
#1665000
b1100100000000000 <#
b110010000000000 ;#
b10110 B#
b10110 *#
b10110 p"
1%
#1680000
0%
#1695000
b11001000000000000 <#
b10111 p"
b10111 *#
b1100100000000000 ;#
b10111 B#
1%
#1710000
0%
#1725000
b110010000000000000 <#
b11001000000000000 ;#
b11000 B#
b11000 *#
b11000 p"
1%
#1740000
0%
#1755000
b1100100000000000000 <#
b11001 p"
b11001 *#
b110010000000000000 ;#
b11001 B#
1%
#1770000
0%
#1785000
b11001000000000000000 <#
b1100100000000000000 ;#
b11010 B#
b11010 *#
b11010 p"
1%
#1800000
0%
#1815000
b110010000000000000000 <#
b11011 p"
b11011 *#
b11001000000000000000 ;#
b11011 B#
1%
#1830000
0%
#1845000
b1100100000000000000000 <#
b110010000000000000000 ;#
b11100 B#
b11100 *#
b11100 p"
1%
#1860000
0%
#1875000
b11001000000000000000000 <#
b11101 p"
b11101 *#
b1100100000000000000000 ;#
b11101 B#
1%
#1890000
0%
#1905000
b1 E#
b0 <#
b11001000000000000000000 ;#
b11110 B#
b11110 *#
b11110 p"
1%
#1920000
0%
#1935000
b10 E#
b11111 p"
b11111 *#
b1 D#
b0 ;#
b11111 B#
1%
#1950000
0%
#1965000
b100 E#
b10 D#
b100000 B#
b100000 *#
b100000 p"
1%
#1980000
0%
#1995000
b1000 E#
b100001 p"
b100001 *#
b100 D#
b100001 B#
1%
#2010000
0%
#2025000
b10000 E#
b1000 D#
b100010 B#
b100010 *#
b100010 p"
1%
#2040000
0%
#2055000
b100000 E#
b100011 p"
b100011 *#
b10000 D#
b100011 B#
1%
#2070000
0%
#2085000
b1000000 E#
b100000 D#
b100100 B#
b100100 *#
b100100 p"
1%
#2100000
0%
#2115000
b10000000 E#
b100101 p"
b100101 *#
b1000000 D#
b100101 B#
1%
#2130000
0%
#2145000
b100000000 E#
b10000000 D#
b100110 B#
b100110 *#
b100110 p"
1%
#2160000
0%
#2175000
b1000000000 E#
b100111 p"
b100111 *#
b100000000 D#
b100111 B#
1%
#2190000
0%
#2205000
b10000000000 E#
b1000000000 D#
b101000 B#
b101000 *#
b101000 p"
1%
#2220000
0%
#2235000
b100000000000 E#
b101001 p"
b101001 *#
b10000000000 D#
b101001 B#
1%
#2250000
0%
#2265000
b1000000000000 E#
b100000000000 D#
b101010 B#
b101010 *#
b101010 p"
1%
#2280000
0%
#2295000
b10000000000000 E#
b101011 p"
b101011 *#
b1000000000000 D#
b101011 B#
1%
#2310000
0%
#2325000
b100000000000000 E#
b10000000000000 D#
b101100 B#
b101100 *#
b101100 p"
1%
#2340000
0%
#2355000
b1000000000000000 E#
b101101 p"
b101101 *#
b100000000000000 D#
b101101 B#
1%
#2370000
0%
#2385000
b10000000000000000 E#
b1000000000000000 D#
b101110 B#
b101110 *#
b101110 p"
1%
#2400000
0%
#2415000
b100000000000000000 E#
b101111 p"
b11 w"
b101111 *#
b11 1#
b10000000000000000 D#
b101111 B#
b11 I#
1%
#2430000
0%
#2445000
b100 I#
b100 1#
b100 w"
1%
#2460000
0%
#2475000
1v"
1W"
0n"
b0 w"
10#
1U"
0(#
b0 1#
1H#
1S"
0@#
b11111111111111110000000000000000 R"
b11111111111111110000000000000000 G#
b0 I#
1%
#2490000
0%
#2505000
b0 _"
1A
b11111111111111110000000000000000 >
b11111111111111110000000000000000 \"
b0 ?
b0 ["
b0 @
b0 Z"
1%
#2520000
0%
#2535000
b10 b
1^
b0 Z
b0 U
b11001000000000000000000 ]
b11001000000000000000000 i
b0 \
b0 h
b0 [
b0 g
b11111111111111110000000000000000 O
b0 N
b0 M
1%
#2550000
0%
#2565000
03"
0^
b1 &"
b10000000000000000 w
b10000000000000000000000000000000100000000000000000000000000000001000000000000000 q
b1000000000000 ~
b1000000000000 ("
1%
#2580000
0%
#2595000
b10011 &"
b1100100000000000000 v
1%
#2610000
0%
#2625000
b10 &"
b111111111111111100000000000000001111111111111111000000000000000000000000000001010100000000000000 v
1%
#2640000
0%
#2655000
b1110 &"
b100000000000000000000000000000000000000000000000011111111111110101100000000000000 v
1%
#2670000
0%
#2685000
b100 &"
b100000000000000000000000000000000000000000000000000000000000001010100000000000000 v
1%
#2700000
0%
#2715000
b101 &"
b10000000000000001111111111111111100000000000000000000000000001001100000000000000 x
1%
#2730000
0%
#2745000
b10010 &"
b1001100000000000000 }
b0 {
b1000000000000000 y
1%
#2760000
0%
#2775000
b1 %"
b100000000000000 z
1%
#2790000
0%
#2805000
b10 %"
b0 |
1%
#2820000
0%
#2835000
b0 %"
b110 &"
b101101101000000000000 #"
b101101101000000000000 >"
1%
#2850000
0%
#2865000
b111 &"
1$"
1%
#2880000
0%
#2895000
b0 G"
b0 C"
b1011011010000000000000000 L"
b1111111111111111111111111111111111 J"
b0 B"
b10110110100000000000000 K"
b0 F"
b0 E"
0k
1D"
0$"
1%
#2910000
0%
#2925000
b101101101000000000000000000 L"
b1011011010000000000000000 K"
b1 E"
1%
#2940000
0%
#2955000
b10110110100000000000000000000 L"
b101101101000000000000000000 K"
b10 E"
1%
#2970000
0%
#2985000
b1011011010000000000000000000000 L"
b10110110100000000000000000000 K"
b11 E"
1%
#3000000
0%
#3015000
b1 C"
b1101101000000000000000000000000 L"
b1011011010000000000000000000000 K"
b100 E"
1%
#3030000
0%
#3045000
b1 G"
b10110100000000000000000000000000 L"
b0 J"
b1 B"
b1101101000000000000000000000000 K"
b101 E"
1%
#3060000
0%
#3075000
b10 G"
b110 C"
b11010000000000000000000000000000 L"
b1111111111111111111111111111111100 J"
b1 F"
b10110100000000000000000000000000 K"
b110 E"
1%
#3090000
0%
#3105000
b100 G"
b11011 C"
b1000000000000000000000000000000 L"
b1111111111111111111111111111111101 J"
b10 F"
b110 B"
b11010000000000000000000000000000 K"
b111 E"
1%
#3120000
0%
#3135000
b1001 G"
b101001 C"
b0 L"
b1010 J"
b100 F"
b11011 B"
b1000000000000000000000000000000 K"
b1000 E"
1%
#3150000
0%
#3165000
b10011 G"
b10000 C"
b100 J"
b1001 F"
b101001 B"
b0 K"
b1001 E"
1%
#3180000
0%
#3195000
b100110 G"
b1000000 C"
b1111111111111111111111111111000011 J"
b10011 F"
b10000 B"
b1010 E"
1%
#3210000
0%
#3225000
b1001100 G"
b100000000 C"
b1111111111111111111111111110100111 J"
b100110 F"
b1000000 B"
b1011 E"
1%
#3240000
0%
#3255000
b10011000 G"
b10000000000 C"
b1111111111111111111111111111001111 J"
b1001100 F"
b100000000 B"
b1100 E"
1%
#3270000
0%
#3285000
b100110001 G"
b11001111100 C"
b110011111 J"
b10011000 F"
b10000000000 B"
b1101 E"
1%
#3300000
0%
#3315000
b1001100011 G"
b11011011100 C"
b110110111 J"
b100110001 F"
b11001111100 B"
b1110 E"
1%
#3330000
0%
#3345000
b10011000110 G"
b1101101110000 C"
b1111111111111111111111110101001111 J"
b1001100011 F"
b11011011100 B"
b1111 E"
1%
#3360000
0%
#3375000
b100110001101 G"
b10000101011100 C"
b100001010111 J"
b10011000110 F"
b1101101110000 B"
b10000 E"
1%
#3390000
0%
#3405000
b1001100011010 G"
b1000010101110000 C"
b1111111111111111111111101100100111 J"
b100110001101 F"
b10000101011100 B"
b10001 E"
1%
#3420000
0%
#3435000
b10011000110101 G"
b1110010000011100 C"
b11100100000111 J"
b1001100011010 F"
b1000010101110000 B"
b10010 E"
1%
#3450000
0%
#3465000
b100110001101011 G"
b10010110100011100 C"
b100101101000111 J"
b10011000110101 F"
b1110010000011100 B"
b10011 E"
1%
#3480000
0%
#3495000
b1001100011010110 G"
b1001011010001110000 C"
b1111111111111111111111101101101111 J"
b100110001101011 F"
b10010110100011100 B"
b10100 E"
1%
#3510000
0%
#3525000
b10011000110101101 G"
b10010100010001011100 C"
b100101000100010111 J"
b1001100011010110 F"
b1001011010001110000 B"
b10101 E"
1%
#3540000
0%
#3555000
b100110001101011011 G"
b100011111011010011100 C"
b1000111110110100111 J"
b10011000110101101 F"
b10010100010001011100 B"
b10110 E"
1%
#3570000
0%
#3585000
b1001100011010110111 G"
b1000011010010010111100 C"
b10000110100100101111 J"
b100110001101011011 F"
b100011111011010011100 B"
b10111 E"
1%
#3600000
0%
#3615000
b10000110100100101111 H"
b1001100011010110111 j
b1001100011010110111 I"
1k
0D"
1%
#3630000
0%
#3645000
b1111 &"
b1001100011010110111 r
1%
#3660000
0%
#3675000
b10000 &"
b1001100000000000000 t
1%
#3690000
0%
#3705000
b10001 &"
b1001100000000000000 s
1%
#3720000
0%
#3735000
b1000 &"
b0 u
1%
#3750000
0%
#3765000
b1001 &"
b1001100011010110111 !"
1%
#3780000
0%
#3795000
0/"
b1101 &"
1p
b1001100011010110111 o
b1001100011010110111 '"
1%
#3810000
0%
