raymarcher.vcd
$date
	Wed Oct 18 22:08:22 2023
$end
$version
	Icarus Verilog
$end
$timescale
	1ps
$end
$scope module tb $end
$var wire 33 ! y_out [32:0] $end
$var wire 33 " x_out [32:0] $end
$var wire 8 # red_out [7:0] $end
$var wire 1 $ pixel_done $end
$var wire 8 % green_out [7:0] $end
$var wire 8 & blue_out [7:0] $end
$var reg 1 ' clk_in $end
$var reg 1 ( rst_in $end
$var reg 33 ) x_in [32:0] $end
$var reg 33 * y_in [32:0] $end
$scope module raym $end
$var wire 1 ' clk_pixel_in $end
$var wire 9 + curr_x [8:0] $end
$var wire 9 , curr_y [8:0] $end
$var wire 1 ( rst_in $end
$var wire 8 - sdf_red_out [7:0] $end
$var wire 32 . sdf_out [31:0] $end
$var wire 8 / sdf_green_out [7:0] $end
$var wire 1 0 sdf_done $end
$var wire 8 1 sdf_blue_out [7:0] $end
$var wire 32 2 ray_gen_out_z [31:0] $end
$var wire 32 3 ray_gen_out_y [31:0] $end
$var wire 32 4 ray_gen_out_x [31:0] $end
$var wire 1 5 ray_gen_done $end
$var parameter 32 6 EPSILON $end
$var parameter 32 7 HEIGHT $end
$var parameter 32 8 MAX_DIST_SQUARE $end
$var parameter 32 9 MAX_STEPS $end
$var parameter 32 : WIDTH $end
$var reg 8 ; blue_out [7:0] $end
$var reg 32 < dir_x [31:0] $end
$var reg 32 = dir_y [31:0] $end
$var reg 32 > dir_z [31:0] $end
$var reg 8 ? green_out [7:0] $end
$var reg 9 @ out_x [8:0] $end
$var reg 9 A out_y [8:0] $end
$var reg 1 $ pixel_done $end
$var reg 32 B ray_gen_in_x [31:0] $end
$var reg 32 C ray_gen_in_y [31:0] $end
$var reg 32 D ray_gen_in_z [31:0] $end
$var reg 1 E ray_gen_start $end
$var reg 8 F ray_steps [7:0] $end
$var reg 32 G ray_x [31:0] $end
$var reg 32 H ray_y [31:0] $end
$var reg 32 I ray_z [31:0] $end
$var reg 8 J red_out [7:0] $end
$var reg 1 K sdf_start $end
$var integer 32 L state [31:0] $end
$scope module ray_gen_inst $end
$var wire 1 ' clk_in $end
$var wire 32 M ray_gen_in_x [31:0] $end
$var wire 32 N ray_gen_in_y [31:0] $end
$var wire 32 O ray_gen_in_z [31:0] $end
$var wire 1 E ray_gen_start $end
$var wire 1 ( rst_in $end
$var wire 32 P sqrt_out [31:0] $end
$var wire 1 Q sqrt_done $end
$var wire 32 R div_z_out [31:0] $end
$var wire 1 S div_z_done $end
$var wire 32 T div_y_out [31:0] $end
$var wire 1 U div_y_done $end
$var wire 32 V div_x_out [31:0] $end
$var wire 1 W div_x_done $end
$var reg 1 X div_start $end
$var reg 1 Y div_x_set $end
$var reg 1 Z div_y_set $end
$var reg 1 [ div_z_set $end
$var reg 32 \ norm [31:0] $end
$var reg 1 ] processing $end
$var reg 1 5 ray_gen_done $end
$var reg 32 ^ ray_gen_out_x [31:0] $end
$var reg 32 _ ray_gen_out_y [31:0] $end
$var reg 32 ` ray_gen_out_z [31:0] $end
$var reg 32 a sqrt_in [31:0] $end
$var reg 1 b sqrt_start $end
$scope module divx $end
$var wire 32 c a [31:0] $end
$var wire 32 d b [31:0] $end
$var wire 1 ' clk $end
$var wire 1 ( rst $end
$var wire 1 X start $end
$var parameter 32 e FBITS $end
$var parameter 32 f FBITSW $end
$var parameter 34 g ITER $end
$var parameter 32 h SMALLEST $end
$var parameter 32 i WIDTH $end
$var parameter 33 j WIDTHU $end
$var reg 1 k a_sig $end
$var reg 32 l acc [31:0] $end
$var reg 32 m acc_next [31:0] $end
$var reg 31 n au [30:0] $end
$var reg 1 o b_sig $end
$var reg 31 p bu [30:0] $end
$var reg 1 q busy $end
$var reg 1 r dbz $end
$var reg 1 W done $end
$var reg 7 s i [6:0] $end
$var reg 1 t ovf $end
$var reg 31 u quo [30:0] $end
$var reg 31 v quo_next [30:0] $end
$var reg 1 w sig_diff $end
$var reg 32 x val [31:0] $end
$var reg 1 y valid $end
$var integer 32 z state [31:0] $end
$upscope $end
$scope module divy $end
$var wire 32 { a [31:0] $end
$var wire 32 | b [31:0] $end
$var wire 1 ' clk $end
$var wire 1 ( rst $end
$var wire 1 X start $end
$var parameter 32 } FBITS $end
$var parameter 32 ~ FBITSW $end
$var parameter 34 !" ITER $end
$var parameter 32 "" SMALLEST $end
$var parameter 32 #" WIDTH $end
$var parameter 33 $" WIDTHU $end
$var reg 1 %" a_sig $end
$var reg 32 &" acc [31:0] $end
$var reg 32 '" acc_next [31:0] $end
$var reg 31 (" au [30:0] $end
$var reg 1 )" b_sig $end
$var reg 31 *" bu [30:0] $end
$var reg 1 +" busy $end
$var reg 1 ," dbz $end
$var reg 1 U done $end
$var reg 7 -" i [6:0] $end
$var reg 1 ." ovf $end
$var reg 31 /" quo [30:0] $end
$var reg 31 0" quo_next [30:0] $end
$var reg 1 1" sig_diff $end
$var reg 32 2" val [31:0] $end
$var reg 1 3" valid $end
$var integer 32 4" state [31:0] $end
$upscope $end
$scope module divz $end
$var wire 32 5" a [31:0] $end
$var wire 32 6" b [31:0] $end
$var wire 1 ' clk $end
$var wire 1 ( rst $end
$var wire 1 X start $end
$var parameter 32 7" FBITS $end
$var parameter 32 8" FBITSW $end
$var parameter 34 9" ITER $end
$var parameter 32 :" SMALLEST $end
$var parameter 32 ;" WIDTH $end
$var parameter 33 <" WIDTHU $end
$var reg 1 =" a_sig $end
$var reg 32 >" acc [31:0] $end
$var reg 32 ?" acc_next [31:0] $end
$var reg 31 @" au [30:0] $end
$var reg 1 A" b_sig $end
$var reg 31 B" bu [30:0] $end
$var reg 1 C" busy $end
$var reg 1 D" dbz $end
$var reg 1 S done $end
$var reg 7 E" i [6:0] $end
$var reg 1 F" ovf $end
$var reg 31 G" quo [30:0] $end
$var reg 31 H" quo_next [30:0] $end
$var reg 1 I" sig_diff $end
$var reg 32 J" val [31:0] $end
$var reg 1 K" valid $end
$var integer 32 L" state [31:0] $end
$upscope $end
$scope module sqrt_inst $end
$var wire 1 ' clk $end
$var wire 32 M" rad [31:0] $end
$var wire 1 b start $end
$var parameter 32 N" FBITS $end
$var parameter 32 O" ITER $end
$var parameter 32 P" WIDTH $end
$var reg 34 Q" ac [33:0] $end
$var reg 34 R" ac_next [33:0] $end
$var reg 1 S" busy $end
$var reg 5 T" i [4:0] $end
$var reg 32 U" q [31:0] $end
$var reg 32 V" q_next [31:0] $end
$var reg 32 W" rem [31:0] $end
$var reg 32 X" root [31:0] $end
$var reg 34 Y" test_res [33:0] $end
$var reg 1 Q valid $end
$var reg 32 Z" x [31:0] $end
$var reg 32 [" x_next [31:0] $end
$upscope $end
$upscope $end
$scope module sdf_inst $end
$var wire 1 ' clk_in $end
$var wire 1 ( rst_in $end
$var wire 1 K sdf_start $end
$var wire 32 \" x [31:0] $end
$var wire 32 ]" y [31:0] $end
$var wire 32 ^" z [31:0] $end
$var reg 8 _" sdf_blue_out [7:0] $end
$var reg 1 0 sdf_done $end
$var reg 8 `" sdf_green_out [7:0] $end
$var reg 32 a" sdf_out [31:0] $end
$var reg 8 b" sdf_red_out [7:0] $end
$upscope $end
$upscope $end
$upscope $end
$enddefinitions $end
$comment Show the parameter values. $end
$dumpall
b100000 P"
b10100 O"
b1000 N"
b11111 <"
b100000 ;"
b10000000000000000000000000000000 :"
b100111 9"
b1000 8"
b1000 7"
b11111 $"
b100000 #"
b10000000000000000000000000000000 ""
b100111 !"
b1000 ~
b1000 }
b11111 j
b100000 i
b10000000000000000000000000000000 h
b100111 g
b1000 f
b1000 e
b100101100 :
b1100100 9
b1000000000000000000000000 8
b100101100 7
b100000000 6
$end
#0
$dumpvars
bx b"
bx a"
bx `"
bx _"
bx ^"
bx ]"
bx \"
bx00 ["
bx Z"
bx Y"
bx X"
bx W"
bx0 V"
bx U"
bx T"
xS"
bx R"
bx Q"
bx M"
b0 L"
xK"
bx J"
xI"
bx0 H"
bx G"
xF"
bx E"
xD"
xC"
bx B"
xA"
bx @"
bx ?"
bx >"
x="
bx 6"
bx 5"
b0 4"
x3"
bx 2"
x1"
bx0 0"
bx /"
x."
bx -"
x,"
x+"
bx *"
x)"
bx ("
bx '"
bx &"
x%"
bx |
bx {
b0 z
xy
bx x
xw
bx0 v
bx u
xt
bx s
xr
xq
bx p
xo
bx n
bx m
bx l
xk
bx d
bx c
xb
bx a
bx `
bx _
bx ^
x]
bx \
x[
xZ
xY
xX
xW
bx V
xU
bx T
xS
bx R
xQ
bx P
bx O
bx N
bx M
b0 L
0K
bx J
bx I
bx H
bx G
bx F
0E
bx D
bx C
bx B
bx A
bx @
bx ?
bx >
bx =
bx <
bx ;
x5
bx 4
bx 3
bx 2
bx 1
x0
bx /
bx .
bx -
b0 ,
b0 +
b0 *
b0 )
0(
0'
bx &
bx %
1$
bx #
b0xxxxxxxxx "
b0xxxxxxxxx !
$end
#5000
0$
00
0W
0U
0S
0X
0b
b1 L
1'
#10000
0'
1(
#15000
1$
b0 L
05
0]
b0 R
b0 J"
0F"
0D"
0K"
0C"
b0 T
b0 2"
0."
0,"
03"
0+"
b0 V
b0 x
0t
0r
0y
0q
1'
#20000
0'
0(
#25000
0$
b1 L
1'
#30000
0'
#35000
1E
0="
1%"
1k
b11 L
b0 !
b0 A
b0 "
b0 @
b1001011000000000 D
b1001011000000000 O
b1001011000000000 5"
b11111111111111110110101000000000 C
b11111111111111110110101000000000 N
b11111111111111110110101000000000 {
b11111111111111110110101000000000 B
b11111111111111110110101000000000 M
b11111111111111110110101000000000 c
1'
#40000
0'
#45000
1b
b1000001111010110000000000 a
b1000001111010110000000000 M"
1]
1'
#50000
0'
#55000
b0 V"
b0 R"
b10000011110101100000000000000 ["
b1111111111111111111111111111111111 Y"
0b
b0 Q"
b100000111101011000000000000 Z"
b0 U"
b0 T"
0Q
1S"
1'
#60000
0'
#65000
b1000001111010110000000000000000 ["
b10000011110101100000000000000 Z"
b1 T"
1'
#70000
0'
#75000
b1 R"
b111101011000000000000000000 ["
b1000001111010110000000000000000 Z"
b10 T"
1'
#80000
0'
#85000
b1 V"
b0 R"
b11110101100000000000000000000 ["
b0 Y"
b1 Q"
b111101011000000000000000000 Z"
b11 T"
1'
#90000
0'
#95000
b10 V"
b1111010110000000000000000000000 ["
b1111111111111111111111111111111011 Y"
b1 U"
b0 Q"
b11110101100000000000000000000 Z"
b100 T"
1'
#100000
0'
#105000
b100 V"
b1 R"
b11101011000000000000000000000000 ["
b1111111111111111111111111111110111 Y"
b10 U"
b1111010110000000000000000000000 Z"
b101 T"
1'
#110000
0'
#115000
b1000 V"
b111 R"
b10101100000000000000000000000000 ["
b1111111111111111111111111111110000 Y"
b100 U"
b1 Q"
b11101011000000000000000000000000 Z"
b110 T"
1'
#120000
0'
#125000
b10000 V"
b11110 R"
b10110000000000000000000000000000 ["
b1111111111111111111111111111100110 Y"
b1000 U"
b111 Q"
b10101100000000000000000000000000 Z"
b111 T"
1'
#130000
0'
#135000
b100000 V"
b1111010 R"
b11000000000000000000000000000000 ["
b1111111111111111111111111111011101 Y"
b10000 U"
b11110 Q"
b10110000000000000000000000000000 Z"
b1000 T"
1'
#140000
0'
#145000
b1000000 V"
b111101011 R"
b0 ["
b1111111111111111111111111111111001 Y"
b100000 U"
b1111010 Q"
b11000000000000000000000000000000 Z"
b1001 T"
1'
#150000
0'
#155000
b10000001 V"
b1110101000 R"
b11101010 Y"
b1000000 U"
b111101011 Q"
b0 Z"
b1010 T"
1'
#160000
0'
#165000
b100000011 V"
b11010001100 R"
b110100011 Y"
b10000001 U"
b1110101000 Q"
b1011 T"
1'
#170000
0'
#175000
b1000000111 V"
b100111111100 R"
b1001111111 Y"
b100000011 U"
b11010001100 Q"
b1100 T"
1'
#180000
0'
#185000
b10000001111 V"
b11101111100 R"
b111011111 Y"
b1000000111 U"
b100111111100 Q"
b1101 T"
1'
#190000
0'
#195000
b100000011110 V"
b1110111110000 R"
b1111111111111111111111011100111111 Y"
b10000001111 U"
b11101111100 Q"
b1110 T"
1'
#200000
0'
#205000
b1000000111100 V"
b111011111000000 R"
b1111111111111111111111110101110111 Y"
b100000011110 U"
b1110111110000 Q"
b1111 T"
1'
#210000
0'
#215000
b10000001111001 V"
b1101101100111100 R"
b11011011001111 Y"
b1000000111100 U"
b111011111000000 Q"
b10000 T"
1'
#220000
0'
#225000
b100000011110011 V"
b10110010101011100 R"
b101100101010111 Y"
b10000001111001 U"
b1101101100111100 Q"
b10001 T"
1'
#230000
0'
#235000
b1000000111100111 V"
b11000011000111100 R"
b110000110001111 Y"
b100000011110011 U"
b10110010101011100 Q"
b10010 T"
1'
#240000
0'
#245000
b10000001111001110 V"
b1100001100011110000 R"
b1111111111111111110111111010011111 Y"
b1000000111100111 U"
b11000011000111100 Q"
b10011 T"
1'
#250000
0'
#255000
b11000011000111100 W"
b10000001111001110 P
b10000001111001110 X"
1Q
0S"
1'
#260000
0'
#265000
0o
0)"
0A"
0[
0Z
0Y
1X
b10000001111001110 \
b10000001111001110 d
b10000001111001110 |
b10000001111001110 6"
1'
#270000
0'
#275000
1C"
0I"
b10000001111001110 B"
b1001011000000000 @"
b1 L"
1+"
11"
b10000001111001110 *"
b1001011000000000 ("
b1 4"
1q
1w
b10000001111001110 p
b1001011000000000 n
b1 z
1'
#280000
0'
#285000
b0 m
b100101100000000000 v
b0 '"
b100101100000000000 0"
b0 ?"
b100101100000000000 H"
b0 l
b10010110000000000 u
b0 s
b10 z
b0 &"
b10010110000000000 /"
b0 -"
b10 4"
b0 >"
b10010110000000000 G"
b0 E"
b10 L"
1'
#290000
0'
#295000
b1001011000000000000 H"
b1001011000000000000 0"
b1001011000000000000 v
b100101100000000000 G"
b1 E"
b100101100000000000 /"
b1 -"
b100101100000000000 u
b1 s
1'
#300000
0'
#305000
b10010110000000000000 v
b10010110000000000000 0"
b10010110000000000000 H"
b1001011000000000000 u
b10 s
b1001011000000000000 /"
b10 -"
b1001011000000000000 G"
b10 E"
1'
#310000
0'
#315000
b100101100000000000000 H"
b100101100000000000000 0"
b100101100000000000000 v
b10010110000000000000 G"
b11 E"
b10010110000000000000 /"
b11 -"
b10010110000000000000 u
b11 s
1'
#320000
0'
#325000
b1001011000000000000000 v
b1001011000000000000000 0"
b1001011000000000000000 H"
b100101100000000000000 u
b100 s
b100101100000000000000 /"
b100 -"
b100101100000000000000 G"
b100 E"
1'
#330000
0'
#335000
b10010110000000000000000 H"
b10010110000000000000000 0"
b10010110000000000000000 v
b1001011000000000000000 G"
b101 E"
b1001011000000000000000 /"
b101 -"
b1001011000000000000000 u
b101 s
1'
#340000
0'
#345000
b100101100000000000000000 v
b100101100000000000000000 0"
b100101100000000000000000 H"
b10010110000000000000000 u
b110 s
b10010110000000000000000 /"
b110 -"
b10010110000000000000000 G"
b110 E"
1'
#350000
0'
#355000
b1001011000000000000000000 H"
b1001011000000000000000000 0"
b1001011000000000000000000 v
b100101100000000000000000 G"
b111 E"
b100101100000000000000000 /"
b111 -"
b100101100000000000000000 u
b111 s
1'
#360000
0'
#365000
b10010110000000000000000000 v
b10010110000000000000000000 0"
b10010110000000000000000000 H"
b1001011000000000000000000 u
b1000 s
b1001011000000000000000000 /"
b1000 -"
b1001011000000000000000000 G"
b1000 E"
1'
#370000
0'
#375000
b100101100000000000000000000 H"
b100101100000000000000000000 0"
b100101100000000000000000000 v
b10010110000000000000000000 G"
b1001 E"
b10010110000000000000000000 /"
b1001 -"
b10010110000000000000000000 u
b1001 s
1'
#380000
0'
#385000
b1001011000000000000000000000 v
b1001011000000000000000000000 0"
b1001011000000000000000000000 H"
b100101100000000000000000000 u
b1010 s
b100101100000000000000000000 /"
b1010 -"
b100101100000000000000000000 G"
b1010 E"
1'
#390000
0'
#395000
b10010110000000000000000000000 H"
b10010110000000000000000000000 0"
b10010110000000000000000000000 v
b1001011000000000000000000000 G"
b1011 E"
b1001011000000000000000000000 /"
b1011 -"
b1001011000000000000000000000 u
b1011 s
1'
#400000
0'
#405000
b100101100000000000000000000000 v
b100101100000000000000000000000 0"
b100101100000000000000000000000 H"
b10010110000000000000000000000 u
b1100 s
b10010110000000000000000000000 /"
b1100 -"
b10010110000000000000000000000 G"
b1100 E"
1'
#410000
0'
#415000
b1001011000000000000000000000000 H"
b1001011000000000000000000000000 0"
b1001011000000000000000000000000 v
b100101100000000000000000000000 G"
b1101 E"
b100101100000000000000000000000 /"
b1101 -"
b100101100000000000000000000000 u
b1101 s
1'
#420000
0'
#425000
b1 m
b10110000000000000000000000000 v
b1 '"
b10110000000000000000000000000 0"
b1 ?"
b10110000000000000000000000000 H"
b1001011000000000000000000000000 u
b1110 s
b1001011000000000000000000000000 /"
b1110 -"
b1001011000000000000000000000000 G"
b1110 E"
1'
#430000
0'
#435000
b10 ?"
b101100000000000000000000000000 H"
b10 '"
b101100000000000000000000000000 0"
b10 m
b101100000000000000000000000000 v
b10110000000000000000000000000 G"
b1 >"
b1111 E"
b10110000000000000000000000000 /"
b1 &"
b1111 -"
b10110000000000000000000000000 u
b1 l
b1111 s
1'
#440000
0'
#445000
b100 m
b1011000000000000000000000000000 v
b100 '"
b1011000000000000000000000000000 0"
b100 ?"
b1011000000000000000000000000000 H"
b101100000000000000000000000000 u
b10 l
b10000 s
b101100000000000000000000000000 /"
b10 &"
b10000 -"
b101100000000000000000000000000 G"
b10 >"
b10000 E"
1'
#450000
0'
#455000
b1001 ?"
b110000000000000000000000000000 H"
b1001 '"
b110000000000000000000000000000 0"
b1001 m
b110000000000000000000000000000 v
b1011000000000000000000000000000 G"
b100 >"
b10001 E"
b1011000000000000000000000000000 /"
b100 &"
b10001 -"
b1011000000000000000000000000000 u
b100 l
b10001 s
1'
#460000
0'
#465000
b10010 m
b1100000000000000000000000000000 v
b10010 '"
b1100000000000000000000000000000 0"
b10010 ?"
b1100000000000000000000000000000 H"
b110000000000000000000000000000 u
b1001 l
b10010 s
b110000000000000000000000000000 /"
b1001 &"
b10010 -"
b110000000000000000000000000000 G"
b1001 >"
b10010 E"
1'
#470000
0'
#475000
b100101 ?"
b1000000000000000000000000000000 H"
b100101 '"
b1000000000000000000000000000000 0"
b100101 m
b1000000000000000000000000000000 v
b1100000000000000000000000000000 G"
b10010 >"
b10011 E"
b1100000000000000000000000000000 /"
b10010 &"
b10011 -"
b1100000000000000000000000000000 u
b10010 l
b10011 s
1'
#480000
0'
#485000
b1001011 m
b0 v
b1001011 '"
b0 0"
b1001011 ?"
b0 H"
b1000000000000000000000000000000 u
b100101 l
b10100 s
b1000000000000000000000000000000 /"
b100101 &"
b10100 -"
b1000000000000000000000000000000 G"
b100101 >"
b10100 E"
1'
#490000
0'
#495000
b10010110 ?"
b10010110 '"
b10010110 m
b0 G"
b1001011 >"
b10101 E"
b0 /"
b1001011 &"
b10101 -"
b0 u
b1001011 l
b10101 s
1'
#500000
0'
#505000
b100101100 m
b100101100 '"
b100101100 ?"
b10010110 l
b10110 s
b10010110 &"
b10110 -"
b10010110 >"
b10110 E"
1'
#510000
0'
#515000
b1001011000 ?"
b1001011000 '"
b1001011000 m
b100101100 >"
b10111 E"
b100101100 &"
b10111 -"
b100101100 l
b10111 s
1'
#520000
0'
#525000
b10010110000 m
b10010110000 '"
b10010110000 ?"
b1001011000 l
b11000 s
b1001011000 &"
b11000 -"
b1001011000 >"
b11000 E"
1'
#530000
0'
#535000
b100101100000 ?"
b100101100000 '"
b100101100000 m
b10010110000 >"
b11001 E"
b10010110000 &"
b11001 -"
b10010110000 l
b11001 s
1'
#540000
0'
#545000
b1001011000000 m
b1001011000000 '"
b1001011000000 ?"
b100101100000 l
b11010 s
b100101100000 &"
b11010 -"
b100101100000 >"
b11010 E"
1'
#550000
0'
#555000
b10010110000000 ?"
b10010110000000 '"
b10010110000000 m
b1001011000000 >"
b11011 E"
b1001011000000 &"
b11011 -"
b1001011000000 l
b11011 s
1'
#560000
0'
#565000
b100101100000000 m
b100101100000000 '"
b100101100000000 ?"
b10010110000000 l
b11100 s
b10010110000000 &"
b11100 -"
b10010110000000 >"
b11100 E"
1'
#570000
0'
#575000
b1001011000000000 ?"
b1001011000000000 '"
b1001011000000000 m
b100101100000000 >"
b11101 E"
b100101100000000 &"
b11101 -"
b100101100000000 l
b11101 s
1'
#580000
0'
#585000
b10010110000000000 m
b10010110000000000 '"
b10010110000000000 ?"
b1001011000000000 l
b11110 s
b1001011000000000 &"
b11110 -"
b1001011000000000 >"
b11110 E"
1'
#590000
0'
#595000
b1 H"
b101000001100100 ?"
b1 0"
b101000001100100 '"
b1 v
b101000001100100 m
b10010110000000000 >"
b11111 E"
b10010110000000000 &"
b11111 -"
b10010110000000000 l
b11111 s
1'
#600000
0'
#605000
b1010000011001000 m
b10 v
b1010000011001000 '"
b10 0"
b1010000011001000 ?"
b10 H"
b1 u
b101000001100100 l
b100000 s
b1 /"
b101000001100100 &"
b100000 -"
b1 G"
b101000001100100 >"
b100000 E"
1'
#610000
0'
#615000
b10100000110010000 ?"
b100 H"
b10100000110010000 '"
b100 0"
b10100000110010000 m
b100 v
b10 G"
b1010000011001000 >"
b100001 E"
b10 /"
b1010000011001000 &"
b100001 -"
b10 u
b1010000011001000 l
b100001 s
1'
#620000
0'
#625000
b1001 v
b111101110000100 m
b1001 0"
b111101110000100 '"
b1001 H"
b111101110000100 ?"
b100 u
b10100000110010000 l
b100010 s
b100 /"
b10100000110010000 &"
b100010 -"
b100 G"
b10100000110010000 >"
b100010 E"
1'
#630000
0'
#635000
b1111011100001000 ?"
b10010 H"
b1111011100001000 '"
b10010 0"
b1111011100001000 m
b10010 v
b1001 G"
b111101110000100 >"
b100011 E"
b1001 /"
b111101110000100 &"
b100011 -"
b1001 u
b111101110000100 l
b100011 s
1'
#640000
0'
#645000
b11110111000010000 m
b100100 v
b11110111000010000 '"
b100100 0"
b11110111000010000 ?"
b100100 H"
b10010 u
b1111011100001000 l
b100100 s
b10010 /"
b1111011100001000 &"
b100100 -"
b10010 G"
b1111011100001000 >"
b100100 E"
1'
#650000
0'
#655000
b1001001 H"
b11101010010000100 ?"
b1001001 0"
b11101010010000100 '"
b1001001 v
b11101010010000100 m
b100100 G"
b11110111000010000 >"
b100101 E"
b100100 /"
b11110111000010000 &"
b100101 -"
b100100 u
b11110111000010000 l
b100101 s
1'
#660000
0'
#665000
b10010011 v
b11010000101101100 m
b10010011 0"
b11010000101101100 '"
b10010011 H"
b11010000101101100 ?"
b1001001 u
b11101010010000100 l
b100110 s
b1001001 /"
b11101010010000100 &"
b100110 -"
b1001001 G"
b11101010010000100 >"
b100110 E"
1'
#670000
0'
#675000
b100100111 H"
b10011101100111100 ?"
b100100111 0"
b10011101100111100 '"
b100100111 v
b10011101100111100 m
b10010011 G"
b11010000101101100 >"
b100111 E"
b11 L"
b10010011 /"
b11010000101101100 &"
b100111 -"
b11 4"
b10010011 u
b11010000101101100 l
b100111 s
b11 z
1'
#680000
0'
#685000
b100101001 v
b10011101100111100 m
b100101001 0"
b10011101100111100 '"
b100101001 H"
b10011101100111100 ?"
b10010100 u
b100 z
b10010100 /"
b100 4"
b10010100 G"
b100 L"
1'
#690000
0'
#695000
1K"
1S
0C"
b10010100 R
b10010100 J"
b0 L"
13"
1U
0+"
b11111111111111111111111101101100 T
b11111111111111111111111101101100 2"
b0 4"
1y
1W
0q
b11111111111111111111111101101100 V
b11111111111111111111111101101100 x
b0 z
1'
#700000
0'
#705000
1q
b1 z
0y
0W
1+"
b1 4"
03"
0U
1C"
b1 L"
0K"
0S
1[
b10010100 2
b10010100 `
1Z
b11111111111111111111111101101100 3
b11111111111111111111111101101100 _
1Y
b11111111111111111111111101101100 4
b11111111111111111111111101101100 ^
1'
#710000
0'
#715000
b0 ?"
b100101100000000000 H"
b0 '"
b100101100000000000 0"
b0 m
b100101100000000000 v
15
0]
0[
0Z
0Y
b0 >"
b10010110000000000 G"
b0 E"
b10 L"
b0 &"
b10010110000000000 /"
b0 -"
b10 4"
b0 l
b10010110000000000 u
b0 s
b10 z
1'
#720000
0'
#725000
b1001011000000000000 v
b1001011000000000000 0"
b1001011000000000000 H"
1K
0E
b100101100000000000 u
b1 s
b100101100000000000 /"
b1 -"
b100101100000000000 G"
b1 E"
05
1b
1]
b10 L
b0 F
b0 I
b0 ^"
b0 H
b0 ]"
b0 G
b0 \"
b10010100 >
b11111111111111111111111101101100 =
b11111111111111111111111101101100 <
1'
#730000
0'
#735000
b10010110000000000000 H"
b10010110000000000000 0"
b10010110000000000000 v
b0 V"
b0 R"
b10000011110101100000000000000 ["
b1111111111111111111111111111111111 Y"
0b
b1001011000000000000 G"
b10 E"
b1001011000000000000 /"
b10 -"
b1001011000000000000 u
b10 s
b0 Q"
b100000111101011000000000000 Z"
b0 U"
b0 T"
0Q
1S"
10
b11111111 1
b11111111 _"
b0 /
b0 `"
b11111111 -
b11111111 b"
b10110110101010000000000 .
b10110110101010000000000 a"
1'
#740000
0'
#745000
b1000001111010110000000000000000 ["
b100101100000000000000 v
b100101100000000000000 0"
b100101100000000000000 H"
0K
b10000011110101100000000000000 Z"
b1 T"
b10010110000000000000 u
b11 s
b10010110000000000000 /"
b11 -"
b10010110000000000000 G"
b11 E"
0X
b100 L
1'
#750000
0'
#755000
1K
b1001011000000000000000 H"
b1001011000000000000000 0"
b1001011000000000000000 v
b1 R"
b111101011000000000000000000 ["
b10 L
b1 F
b1101001100110010010000 I
b1101001100110010010000 ^"
b11111111110010110011001101110000 H
b11111111110010110011001101110000 ]"
b11111111110010110011001101110000 G
b11111111110010110011001101110000 \"
b100101100000000000000 G"
b100 E"
b100101100000000000000 /"
b100 -"
b100101100000000000000 u
b100 s
b1000001111010110000000000000000 Z"
b10 T"
00
1'
#760000
0'
#765000
b1 V"
b0 R"
b11110101100000000000000000000 ["
b0 Y"
b10010110000000000000000 v
b10010110000000000000000 0"
b10010110000000000000000 H"
10
b11111010111010001010000010110011 .
b11111010111010001010000010110011 a"
b1 Q"
b111101011000000000000000000 Z"
b11 T"
b1001011000000000000000 u
b101 s
b1001011000000000000000 /"
b101 -"
b1001011000000000000000 G"
b101 E"
1'
#770000
0'
#775000
1$
0K
b100101100000000000000000 H"
b100101100000000000000000 0"
b100101100000000000000000 v
b10 V"
b1111010110000000000000000000000 ["
b1111111111111111111111111111111011 Y"
b0 L
b11111111 &
b11111111 ;
b0 %
b0 ?
b11111111 #
b11111111 J
b10010110000000000000000 G"
b110 E"
b10010110000000000000000 /"
b110 -"
b10010110000000000000000 u
b110 s
b1 U"
b0 Q"
b11110101100000000000000000000 Z"
b100 T"
1'
#780000
0'
#785000
b100 V"
b1 R"
b11101011000000000000000000000000 ["
b1111111111111111111111111111110111 Y"
b1001011000000000000000000 v
b1001011000000000000000000 0"
b1001011000000000000000000 H"
0$
00
b10 U"
b1111010110000000000000000000000 Z"
b101 T"
b100101100000000000000000 u
b111 s
b100101100000000000000000 /"
b111 -"
b100101100000000000000000 G"
b111 E"
b1 L
1'
