raymarcher.vcd
$date
	Thu Oct 19 10:54:21 2023
$end
$version
	Icarus Verilog
$end
$timescale
	1ps
$end
$scope module tb $end
$var wire 33 ! y_out [32:0] $end
$var wire 33 " x_out [32:0] $end
$var wire 8 # red_out [7:0] $end
$var wire 1 $ pixel_done $end
$var wire 8 % green_out [7:0] $end
$var wire 8 & blue_out [7:0] $end
$var reg 1 ' clk_in $end
$var reg 1 ( rst_in $end
$var reg 33 ) x_in [32:0] $end
$var reg 33 * y_in [32:0] $end
$scope module raym $end
$var wire 1 ' clk_in $end
$var wire 9 + curr_x [8:0] $end
$var wire 9 , curr_y [8:0] $end
$var wire 1 ( rst_in $end
$var wire 8 - sdf_red_out [7:0] $end
$var wire 64 . sdf_out [63:0] $end
$var wire 8 / sdf_green_out [7:0] $end
$var wire 1 0 sdf_done $end
$var wire 8 1 sdf_blue_out [7:0] $end
$var wire 64 2 ray_gen_out_z [63:0] $end
$var wire 64 3 ray_gen_out_y [63:0] $end
$var wire 64 4 ray_gen_out_x [63:0] $end
$var wire 1 5 ray_gen_done $end
$var parameter 64 6 EPSILON $end
$var parameter 32 7 HEIGHT $end
$var parameter 64 8 MAX_DIST_SQUARE $end
$var parameter 32 9 MAX_STEPS $end
$var parameter 32 : WIDTH $end
$var reg 8 ; blue_out [7:0] $end
$var reg 64 < dir_x [63:0] $end
$var reg 64 = dir_y [63:0] $end
$var reg 64 > dir_z [63:0] $end
$var reg 8 ? green_out [7:0] $end
$var reg 9 @ out_x [8:0] $end
$var reg 9 A out_y [8:0] $end
$var reg 1 $ pixel_done $end
$var reg 64 B ray_gen_in_x [63:0] $end
$var reg 64 C ray_gen_in_y [63:0] $end
$var reg 64 D ray_gen_in_z [63:0] $end
$var reg 1 E ray_gen_start $end
$var reg 8 F ray_steps [7:0] $end
$var reg 64 G ray_x [63:0] $end
$var reg 64 H ray_y [63:0] $end
$var reg 64 I ray_z [63:0] $end
$var reg 8 J red_out [7:0] $end
$var reg 1 K sdf_start $end
$var integer 32 L state [31:0] $end
$scope module ray_gen_inst $end
$var wire 1 ' clk_in $end
$var wire 64 M ray_gen_in_x [63:0] $end
$var wire 64 N ray_gen_in_y [63:0] $end
$var wire 64 O ray_gen_in_z [63:0] $end
$var wire 1 E ray_gen_start $end
$var wire 1 ( rst_in $end
$var wire 64 P sqrt_out [63:0] $end
$var wire 1 Q sqrt_done $end
$var wire 64 R div_z_out [63:0] $end
$var wire 1 S div_z_done $end
$var wire 64 T div_y_out [63:0] $end
$var wire 1 U div_y_done $end
$var wire 64 V div_x_out [63:0] $end
$var wire 1 W div_x_done $end
$var reg 1 X div_start $end
$var reg 1 Y div_x_set $end
$var reg 1 Z div_y_set $end
$var reg 1 [ div_z_set $end
$var reg 64 \ norm [63:0] $end
$var reg 1 ] processing $end
$var reg 1 5 ray_gen_done $end
$var reg 64 ^ ray_gen_out_x [63:0] $end
$var reg 64 _ ray_gen_out_y [63:0] $end
$var reg 64 ` ray_gen_out_z [63:0] $end
$var reg 64 a sqrt_in [63:0] $end
$var reg 1 b sqrt_start $end
$scope module divx $end
$var wire 64 c a [63:0] $end
$var wire 64 d b [63:0] $end
$var wire 1 ' clk $end
$var wire 1 ( rst $end
$var wire 1 X start $end
$var parameter 32 e FBITS $end
$var parameter 32 f FBITSW $end
$var parameter 34 g ITER $end
$var parameter 64 h SMALLEST $end
$var parameter 32 i WIDTH $end
$var parameter 33 j WIDTHU $end
$var reg 1 k a_sig $end
$var reg 64 l acc [63:0] $end
$var reg 64 m acc_next [63:0] $end
$var reg 63 n au [62:0] $end
$var reg 1 o b_sig $end
$var reg 63 p bu [62:0] $end
$var reg 1 q busy $end
$var reg 1 r dbz $end
$var reg 1 W done $end
$var reg 8 s i [7:0] $end
$var reg 1 t ovf $end
$var reg 63 u quo [62:0] $end
$var reg 63 v quo_next [62:0] $end
$var reg 1 w sig_diff $end
$var reg 64 x val [63:0] $end
$var reg 1 y valid $end
$var integer 32 z state [31:0] $end
$upscope $end
$scope module divy $end
$var wire 64 { a [63:0] $end
$var wire 64 | b [63:0] $end
$var wire 1 ' clk $end
$var wire 1 ( rst $end
$var wire 1 X start $end
$var parameter 32 } FBITS $end
$var parameter 32 ~ FBITSW $end
$var parameter 34 !" ITER $end
$var parameter 64 "" SMALLEST $end
$var parameter 32 #" WIDTH $end
$var parameter 33 $" WIDTHU $end
$var reg 1 %" a_sig $end
$var reg 64 &" acc [63:0] $end
$var reg 64 '" acc_next [63:0] $end
$var reg 63 (" au [62:0] $end
$var reg 1 )" b_sig $end
$var reg 63 *" bu [62:0] $end
$var reg 1 +" busy $end
$var reg 1 ," dbz $end
$var reg 1 U done $end
$var reg 8 -" i [7:0] $end
$var reg 1 ." ovf $end
$var reg 63 /" quo [62:0] $end
$var reg 63 0" quo_next [62:0] $end
$var reg 1 1" sig_diff $end
$var reg 64 2" val [63:0] $end
$var reg 1 3" valid $end
$var integer 32 4" state [31:0] $end
$upscope $end
$scope module divz $end
$var wire 64 5" a [63:0] $end
$var wire 64 6" b [63:0] $end
$var wire 1 ' clk $end
$var wire 1 ( rst $end
$var wire 1 X start $end
$var parameter 32 7" FBITS $end
$var parameter 32 8" FBITSW $end
$var parameter 34 9" ITER $end
$var parameter 64 :" SMALLEST $end
$var parameter 32 ;" WIDTH $end
$var parameter 33 <" WIDTHU $end
$var reg 1 =" a_sig $end
$var reg 64 >" acc [63:0] $end
$var reg 64 ?" acc_next [63:0] $end
$var reg 63 @" au [62:0] $end
$var reg 1 A" b_sig $end
$var reg 63 B" bu [62:0] $end
$var reg 1 C" busy $end
$var reg 1 D" dbz $end
$var reg 1 S done $end
$var reg 8 E" i [7:0] $end
$var reg 1 F" ovf $end
$var reg 63 G" quo [62:0] $end
$var reg 63 H" quo_next [62:0] $end
$var reg 1 I" sig_diff $end
$var reg 64 J" val [63:0] $end
$var reg 1 K" valid $end
$var integer 32 L" state [31:0] $end
$upscope $end
$scope module sqrt_inst $end
$var wire 1 ' clk $end
$var wire 64 M" rad [63:0] $end
$var wire 1 b start $end
$var parameter 32 N" FBITS $end
$var parameter 32 O" ITER $end
$var parameter 32 P" WIDTH $end
$var reg 66 Q" ac [65:0] $end
$var reg 66 R" ac_next [65:0] $end
$var reg 1 S" busy $end
$var reg 6 T" i [5:0] $end
$var reg 64 U" q [63:0] $end
$var reg 64 V" q_next [63:0] $end
$var reg 64 W" rem [63:0] $end
$var reg 64 X" root [63:0] $end
$var reg 66 Y" test_res [65:0] $end
$var reg 1 Q valid $end
$var reg 64 Z" x [63:0] $end
$var reg 64 [" x_next [63:0] $end
$upscope $end
$upscope $end
$scope module sdf_inst $end
$var wire 1 ' clk_in $end
$var wire 1 ( rst_in $end
$var wire 1 K sdf_start $end
$var wire 64 \" x [63:0] $end
$var wire 64 ]" y [63:0] $end
$var wire 64 ^" z [63:0] $end
$var wire 1 _" sphere_2_sqrt_done $end
$var wire 64 `" sphere_2_dist [63:0] $end
$var wire 1 a" sphere_1_sqrt_done $end
$var wire 64 b" sphere_1_dist [63:0] $end
$var reg 8 c" sdf_blue_out [7:0] $end
$var reg 1 0 sdf_done $end
$var reg 8 d" sdf_green_out [7:0] $end
$var reg 64 e" sdf_out [63:0] $end
$var reg 8 f" sdf_red_out [7:0] $end
$var reg 64 g" sphere_1_dist_squared [63:0] $end
$var reg 64 h" sphere_2_dist_squared [63:0] $end
$var reg 1 i" sqrt_start $end
$var integer 32 j" state [31:0] $end
$scope module sqrt_inst $end
$var wire 1 ' clk $end
$var wire 64 k" rad [63:0] $end
$var wire 1 i" start $end
$var parameter 32 l" FBITS $end
$var parameter 32 m" ITER $end
$var parameter 32 n" WIDTH $end
$var reg 66 o" ac [65:0] $end
$var reg 66 p" ac_next [65:0] $end
$var reg 1 q" busy $end
$var reg 6 r" i [5:0] $end
$var reg 64 s" q [63:0] $end
$var reg 64 t" q_next [63:0] $end
$var reg 64 u" rem [63:0] $end
$var reg 64 v" root [63:0] $end
$var reg 66 w" test_res [65:0] $end
$var reg 1 a" valid $end
$var reg 64 x" x [63:0] $end
$var reg 64 y" x_next [63:0] $end
$upscope $end
$scope module sqrt_inst2 $end
$var wire 1 ' clk $end
$var wire 64 z" rad [63:0] $end
$var wire 1 i" start $end
$var parameter 32 {" FBITS $end
$var parameter 32 |" ITER $end
$var parameter 32 }" WIDTH $end
$var reg 66 ~" ac [65:0] $end
$var reg 66 !# ac_next [65:0] $end
$var reg 1 "# busy $end
$var reg 6 ## i [5:0] $end
$var reg 64 $# q [63:0] $end
$var reg 64 %# q_next [63:0] $end
$var reg 64 &# rem [63:0] $end
$var reg 64 '# root [63:0] $end
$var reg 66 (# test_res [65:0] $end
$var reg 1 _" valid $end
$var reg 64 )# x [63:0] $end
$var reg 64 *# x_next [63:0] $end
$upscope $end
$upscope $end
$upscope $end
$upscope $end
$enddefinitions $end
$comment Show the parameter values. $end
$dumpall
b1000000 }"
b110000 |"
b100000 {"
b1000000 n"
b110000 m"
b100000 l"
b1000000 P"
b110000 O"
b100000 N"
b111111 <"
b1000000 ;"
b1000000000000000000000000000000000000000000000000000000000000000 :"
b1011111 9"
b100000 8"
b100000 7"
b111111 $"
b1000000 #"
b1000000000000000000000000000000000000000000000000000000000000000 ""
b1011111 !"
b100000 ~
b100000 }
b111111 j
b1000000 i
b1000000000000000000000000000000000000000000000000000000000000000 h
b1011111 g
b100000 f
b100000 e
b100101100 :
b1100100 9
b1111010000100100000000000000000000000000000000000000 8
b100101100 7
b10000000000000000000000000000 6
$end
#0
$dumpvars
bx00 *#
bx )#
bx (#
bx '#
bx &#
bx0 %#
bx $#
bx ##
x"#
bx !#
bx ~"
bx z"
bx00 y"
bx x"
bx w"
bx v"
bx u"
bx0 t"
bx s"
bx r"
xq"
bx p"
bx o"
bx k"
b0 j"
xi"
bx h"
bx g"
bx f"
bx e"
bx d"
bx c"
bx b"
xa"
bx `"
x_"
bx ^"
bx ]"
bx \"
bx00 ["
bx Z"
bx Y"
bx X"
bx W"
bx0 V"
bx U"
bx T"
xS"
bx R"
bx Q"
bx M"
b0 L"
xK"
bx J"
xI"
bx0 H"
bx G"
xF"
bx E"
xD"
xC"
bx B"
xA"
bx @"
bx ?"
bx >"
x="
bx 6"
bx 5"
b0 4"
x3"
bx 2"
x1"
bx0 0"
bx /"
x."
bx -"
x,"
x+"
bx *"
x)"
bx ("
bx '"
bx &"
x%"
bx |
bx {
b0 z
xy
bx x
xw
bx0 v
bx u
xt
bx s
xr
xq
bx p
xo
bx n
bx m
bx l
xk
bx d
bx c
xb
bx a
bx `
bx _
bx ^
x]
bx \
x[
xZ
xY
xX
xW
bx V
xU
bx T
xS
bx R
xQ
bx P
bx O
bx N
bx M
b0 L
0K
bx J
bx I
bx H
bx G
bx F
0E
bx D
bx C
bx B
bx A
bx @
bx ?
bx >
bx =
bx <
bx ;
x5
bx 4
bx 3
bx 2
bx 1
00
bx /
bx .
bx -
b11001000 ,
b10110100 +
b11001000 *
b10110100 )
0(
0'
bx &
bx %
1$
bx #
b0xxxxxxxxx "
b0xxxxxxxxx !
$end
#5000
0$
0W
0U
0S
0X
0b
b1 L
1'
#10000
0'
1(
#15000
1$
b0 L
05
0]
b0 R
b0 J"
0F"
0D"
0K"
0C"
b0 T
b0 2"
0."
0,"
03"
0+"
b0 V
b0 x
0t
0r
0y
0q
0i"
1'
#20000
0'
0(
#25000
0$
b1 L
1'
#30000
0'
#35000
1E
0="
0%"
0k
b11 L
b11001000 !
b11001000 A
b10110100 "
b10110100 @
b1001011000000000000000000000000000000000 D
b1001011000000000000000000000000000000000 O
b1001011000000000000000000000000000000000 5"
b11001000000000000000000000000000000000 C
b11001000000000000000000000000000000000 N
b11001000000000000000000000000000000000 {
b1111000000000000000000000000000000000 B
b1111000000000000000000000000000000000 M
b1111000000000000000000000000000000000 c
1'
#40000
0'
#45000
1b
b11001010010110000000000000000000000000000000000 a
b11001010010110000000000000000000000000000000000 M"
1]
1'
#50000
0'
#55000
b0 V"
b0 R"
b110010100101100000000000000000000000000000000000000 ["
b111111111111111111111111111111111111111111111111111111111111111111 Y"
0b
b0 Q"
b1100101001011000000000000000000000000000000000000 Z"
b0 U"
b0 T"
0Q
1S"
1'
#60000
0'
#65000
b11001010010110000000000000000000000000000000000000000 ["
b110010100101100000000000000000000000000000000000000 Z"
b1 T"
1'
#70000
0'
#75000
b1100101001011000000000000000000000000000000000000000000 ["
b11001010010110000000000000000000000000000000000000000 Z"
b10 T"
1'
#80000
0'
#85000
b110010100101100000000000000000000000000000000000000000000 ["
b1100101001011000000000000000000000000000000000000000000 Z"
b11 T"
1'
#90000
0'
#95000
b11001010010110000000000000000000000000000000000000000000000 ["
b110010100101100000000000000000000000000000000000000000000 Z"
b100 T"
1'
#100000
0'
#105000
b1100101001011000000000000000000000000000000000000000000000000 ["
b11001010010110000000000000000000000000000000000000000000000 Z"
b101 T"
1'
#110000
0'
#115000
b110010100101100000000000000000000000000000000000000000000000000 ["
b1100101001011000000000000000000000000000000000000000000000000 Z"
b110 T"
1'
#120000
0'
#125000
b1 R"
b1001010010110000000000000000000000000000000000000000000000000000 ["
b110010100101100000000000000000000000000000000000000000000000000 Z"
b111 T"
1'
#130000
0'
#135000
b1 V"
b10 R"
b101001011000000000000000000000000000000000000000000000000000000 ["
b0 Y"
b1 Q"
b1001010010110000000000000000000000000000000000000000000000000000 Z"
b1000 T"
1'
#140000
0'
#145000
b10 V"
b1001 R"
b100101100000000000000000000000000000000000000000000000000000000 ["
b111111111111111111111111111111111111111111111111111111111111111101 Y"
b1 U"
b10 Q"
b101001011000000000000000000000000000000000000000000000000000000 Z"
b1001 T"
1'
#150000
0'
#155000
b101 V"
b1 R"
b10110000000000000000000000000000000000000000000000000000000000 ["
b0 Y"
b10 U"
b1001 Q"
b100101100000000000000000000000000000000000000000000000000000000 Z"
b1010 T"
1'
#160000
0'
#165000
b1010 V"
b100 R"
b1011000000000000000000000000000000000000000000000000000000000000 ["
b111111111111111111111111111111111111111111111111111111111111101100 Y"
b101 U"
b1 Q"
b10110000000000000000000000000000000000000000000000000000000000 Z"
b1011 T"
1'
#170000
0'
#175000
b10100 V"
b10010 R"
b1100000000000000000000000000000000000000000000000000000000000000 ["
b111111111111111111111111111111111111111111111111111111111111011011 Y"
b1010 U"
b100 Q"
b1011000000000000000000000000000000000000000000000000000000000000 Z"
b1100 T"
1'
#180000
0'
#185000
b101000 V"
b1001011 R"
b0 ["
b111111111111111111111111111111111111111111111111111111111111000001 Y"
b10100 U"
b10010 Q"
b1100000000000000000000000000000000000000000000000000000000000000 Z"
b1101 T"
1'
#190000
0'
#195000
b1010000 V"
b100101100 R"
b111111111111111111111111111111111111111111111111111111111110101010 Y"
b101000 U"
b1001011 Q"
b0 Z"
b1110 T"
1'
#200000
0'
#205000
b10100000 V"
b10010110000 R"
b111111111111111111111111111111111111111111111111111111111111101011 Y"
b1010000 U"
b100101100 Q"
b1111 T"
1'
#210000
0'
#215000
b101000001 V"
b100010111100 R"
b1000101111 Y"
b10100000 U"
b10010110000 Q"
b10000 T"
1'
#220000
0'
#225000
b1010000011 V"
b111011011100 R"
b1110110111 Y"
b101000001 U"
b100010111100 Q"
b10001 T"
1'
#230000
0'
#235000
b10100000111 V"
b1001100111100 R"
b10011001111 Y"
b1010000011 U"
b111011011100 Q"
b10010 T"
1'
#240000
0'
#245000
b101000001110 V"
b100110011110000 R"
b111111111111111111111111111111111111111111111111111111111100011111 Y"
b10100000111 U"
b1001100111100 Q"
b10011 T"
1'
#250000
0'
#255000
b1010000011101 V"
b1001001011011100 R"
b10010010110111 Y"
b101000001110 U"
b100110011110000 Q"
b10100 T"
1'
#260000
0'
#265000
b10100000111011 V"
b10000100110011100 R"
b100001001100111 Y"
b1010000011101 U"
b1001001011011100 Q"
b10101 T"
1'
#270000
0'
#275000
b101000001110111 V"
b11010001010111100 R"
b110100010101111 Y"
b10100000111011 U"
b10000100110011100 Q"
b10110 T"
1'
#280000
0'
#285000
b1010000011101111 V"
b11000001101111100 R"
b110000011011111 Y"
b101000001110111 U"
b11010001010111100 Q"
b10111 T"
1'
#290000
0'
#295000
b10100000111011110 V"
b1100000110111110000 R"
b111111111111111111111111111111111111111111111111101111111110111111 Y"
b1010000011101111 U"
b11000001101111100 Q"
b11000 T"
1'
#300000
0'
#305000
b101000001110111101 V"
b1000001100111011100 R"
b10000011001110111 Y"
b10100000111011110 U"
b1100000110111110000 Q"
b11001 T"
1'
#310000
0'
#315000
b1010000011101111010 V"
b100000110011101110000 R"
b111111111111111111111111111111111111111111111110100000101011100111 Y"
b101000001110111101 U"
b1000001100111011100 Q"
b11010 T"
1'
#320000
0'
#325000
b10100000111011110100 V"
b10000011001110111000000 R"
b111111111111111111111111111111111111111111111111000100100110000111 Y"
b1010000011101111010 U"
b100000110011101110000 Q"
b11011 T"
1'
#330000
0'
#335000
b101000001110111101001 V"
b11001011000011110111100 R"
b110010110000111101111 Y"
b10100000111011110100 U"
b10000011001110111000000 Q"
b11100 T"
1'
#340000
0'
#345000
b1010000011101111010011 V"
b10101000100000001011100 R"
b101010001000000010111 Y"
b101000001110111101001 U"
b11001011000011110111100 Q"
b11101 T"
1'
#350000
0'
#355000
b10100000111011110100110 V"
b1010100010000000101110000 R"
b111111111111111111111111111111111111111111101100110101000100001111 Y"
b1010000011101111010011 U"
b10101000100000001011100 Q"
b11110 T"
1'
#360000
0'
#365000
b101000001110111101001101 V"
b1111001000101101011100 R"
b11110010001011010111 Y"
b10100000111011110100110 U"
b1010100010000000101110000 Q"
b11111 T"
1'
#370000
0'
#375000
b1010000011101111010011010 V"
b111100100010110101110000 R"
b111111111111111111111111111111111111111101101110001100111000100111 Y"
b101000001110111101001101 U"
b1111001000101101011100 Q"
b100000 T"
1'
#380000
0'
#385000
b10100000111011110100110100 V"
b11110010001011010111000000 R"
b111111111111111111111111111111111111111011111010101011001100000111 Y"
b1010000011101111010011010 U"
b111100100010110101110000 Q"
b100001 T"
1'
#390000
0'
#395000
b101000001110111101001101000 V"
b1111001000101101011100000000 R"
b111111111111111111111111111111111111111001101110011100000011101111 Y"
b10100000111011110100110100 U"
b11110010001011010111000000 Q"
b100010 T"
1'
#400000
0'
#405000
b1010000011101111010011010000 V"
b111100100010110101110000000000 R"
b111111111111111111111111111111111111111011000001001110110101011111 Y"
b101000001110111101001101000 U"
b1111001000101101011100000000 Q"
b100011 T"
1'
#410000
0'
#415000
b10100000111011110100110100001 V"
b1010001001111100010001011111100 R"
b10100010011111000100010111111 Y"
b1010000011101111010011010000 U"
b111100100010110101110000000000 Q"
b100100 T"
1'
#420000
0'
#425000
b101000001110111101001101000011 V"
b11000110011111000111011100 R"
b110001100111110001110111 Y"
b10100000111011110100110100001 U"
b1010001001111100010001011111100 Q"
b100101 T"
1'
#430000
0'
#435000
b1010000011101111010011010000110 V"
b1100011001111100011101110000 R"
b111111111111111111111111111111111101100010001010101010010011001111 Y"
b101000001110111101001101000011 U"
b11000110011111000111011100 Q"
b100110 T"
1'
#440000
0'
#445000
b10100000111011110100110100001100 V"
b110001100111110001110111000000 R"
b111111111111111111111111111111111011001010100010010010110101010111 Y"
b1010000011101111010011010000110 U"
b1100011001111100011101110000 Q"
b100111 T"
1'
#450000
0'
#455000
b101000001110111101001101000011000 V"
b11000110011111000111011100000000 R"
b111111111111111111111111111111110110101101111000011110100110001111 Y"
b10100000111011110100110100001100 U"
b110001100111110001110111000000 Q"
b101000 T"
1'
#460000
0'
#465000
b1010000011101111010011010000110000 V"
b1100011001111100011101110000000000 R"
b111111111111111111111111111111101110111111000000100000111010011111 Y"
b101000001110111101001101000011000 U"
b11000110011111000111011100000000 Q"
b101001 T"
1'
#470000
0'
#475000
b10100000111011110100110100001100000 V"
b110001100111110001110111000000000000 R"
b111111111111111111111111111111100100001010111111010000101100111111 Y"
b1010000011101111010011010000110000 U"
b1100011001111100011101110000000000 Q"
b101010 T"
1'
#480000
0'
#485000
b101000001110111101001101000011000000 V"
b11000110011111000111011100000000000000 R"
b111111111111111111111111111111100001001001110111011100111001111111 Y"
b10100000111011110100110100001100000 U"
b110001100111110001110111000000000000 Q"
b101011 T"
1'
#490000
0'
#495000
b1010000011101111010011010000110000001 V"
b10010110001101001010011111001111111100 R"
b100101100011010010100111110011111111 Y"
b101000001110111101001101000011000000 U"
b11000110011111000111011100000000000000 Q"
b101100 T"
1'
#500000
0'
#505000
b10100000111011110100110100001100000010 V"
b1001011000110100101001111100111111110000 R"
b111111111111111111111111111101010100010101100000110110110111110111 Y"
b1010000011101111010011010000110000001 U"
b10010110001101001010011111001111111100 Q"
b101101 T"
1'
#510000
0'
#515000
b101000001110111101001101000011000000100 V"
b100101100011010010100111110011111111000000 R"
b111111111111111111111111111111010101000101010110101100001111100111 Y"
b10100000111011110100110100001100000010 U"
b1001011000110100101001111100111111110000 Q"
b101110 T"
1'
#520000
0'
#525000
b1010000011101111010011010000110000001001 V"
b1000101101111010000000101001001111010111100 R"
b10001011011110100000001010010011110101111 Y"
b101000001110111101001101000011000000100 U"
b100101100011010010100111110011111111000000 Q"
b101111 T"
1'
#530000
0'
#535000
b10001011011110100000001010010011110101111 W"
b1010000011101111010011010000110000001001 P
b1010000011101111010011010000110000001001 X"
1Q
0S"
1'
#540000
0'
#545000
0o
0)"
0A"
0[
0Z
0Y
1X
b1010000011101111010011010000110000001001 \
b1010000011101111010011010000110000001001 d
b1010000011101111010011010000110000001001 |
b1010000011101111010011010000110000001001 6"
1'
#550000
0'
#555000
1C"
0I"
b1010000011101111010011010000110000001001 B"
b1001011000000000000000000000000000000000 @"
b1 L"
1+"
01"
b1010000011101111010011010000110000001001 *"
b11001000000000000000000000000000000000 ("
b1 4"
1q
0w
b1010000011101111010011010000110000001001 p
b1111000000000000000000000000000000000 n
b1 z
1'
#560000
0'
#565000
b0 m
b111100000000000000000000000000000000000 v
b0 '"
b1100100000000000000000000000000000000000 0"
b0 ?"
b100101100000000000000000000000000000000000 H"
b0 l
b11110000000000000000000000000000000000 u
b0 s
b10 z
b0 &"
b110010000000000000000000000000000000000 /"
b0 -"
b10 4"
b0 >"
b10010110000000000000000000000000000000000 G"
b0 E"
b10 L"
1'
#570000
0'
#575000
b1001011000000000000000000000000000000000000 H"
b11001000000000000000000000000000000000000 0"
b1111000000000000000000000000000000000000 v
b100101100000000000000000000000000000000000 G"
b1 E"
b1100100000000000000000000000000000000000 /"
b1 -"
b111100000000000000000000000000000000000 u
b1 s
1'
#580000
0'
#585000
b11110000000000000000000000000000000000000 v
b110010000000000000000000000000000000000000 0"
b10010110000000000000000000000000000000000000 H"
b1111000000000000000000000000000000000000 u
b10 s
b11001000000000000000000000000000000000000 /"
b10 -"
b1001011000000000000000000000000000000000000 G"
b10 E"
1'
#590000
0'
#595000
b100101100000000000000000000000000000000000000 H"
b1100100000000000000000000000000000000000000 0"
b111100000000000000000000000000000000000000 v
b10010110000000000000000000000000000000000000 G"
b11 E"
b110010000000000000000000000000000000000000 /"
b11 -"
b11110000000000000000000000000000000000000 u
b11 s
1'
#600000
0'
#605000
b1111000000000000000000000000000000000000000 v
b11001000000000000000000000000000000000000000 0"
b1001011000000000000000000000000000000000000000 H"
b111100000000000000000000000000000000000000 u
b100 s
b1100100000000000000000000000000000000000000 /"
b100 -"
b100101100000000000000000000000000000000000000 G"
b100 E"
1'
#610000
0'
#615000
b10010110000000000000000000000000000000000000000 H"
b110010000000000000000000000000000000000000000 0"
b11110000000000000000000000000000000000000000 v
b1001011000000000000000000000000000000000000000 G"
b101 E"
b11001000000000000000000000000000000000000000 /"
b101 -"
b1111000000000000000000000000000000000000000 u
b101 s
1'
#620000
0'
#625000
b111100000000000000000000000000000000000000000 v
b1100100000000000000000000000000000000000000000 0"
b100101100000000000000000000000000000000000000000 H"
b11110000000000000000000000000000000000000000 u
b110 s
b110010000000000000000000000000000000000000000 /"
b110 -"
b10010110000000000000000000000000000000000000000 G"
b110 E"
1'
#630000
0'
#635000
b1001011000000000000000000000000000000000000000000 H"
b11001000000000000000000000000000000000000000000 0"
b1111000000000000000000000000000000000000000000 v
b100101100000000000000000000000000000000000000000 G"
b111 E"
b1100100000000000000000000000000000000000000000 /"
b111 -"
b111100000000000000000000000000000000000000000 u
b111 s
1'
#640000
0'
#645000
b11110000000000000000000000000000000000000000000 v
b110010000000000000000000000000000000000000000000 0"
b10010110000000000000000000000000000000000000000000 H"
b1111000000000000000000000000000000000000000000 u
b1000 s
b11001000000000000000000000000000000000000000000 /"
b1000 -"
b1001011000000000000000000000000000000000000000000 G"
b1000 E"
1'
#650000
0'
#655000
b100101100000000000000000000000000000000000000000000 H"
b1100100000000000000000000000000000000000000000000 0"
b111100000000000000000000000000000000000000000000 v
b10010110000000000000000000000000000000000000000000 G"
b1001 E"
b110010000000000000000000000000000000000000000000 /"
b1001 -"
b11110000000000000000000000000000000000000000000 u
b1001 s
1'
#660000
0'
#665000
b1111000000000000000000000000000000000000000000000 v
b11001000000000000000000000000000000000000000000000 0"
b1001011000000000000000000000000000000000000000000000 H"
b111100000000000000000000000000000000000000000000 u
b1010 s
b1100100000000000000000000000000000000000000000000 /"
b1010 -"
b100101100000000000000000000000000000000000000000000 G"
b1010 E"
1'
#670000
0'
#675000
b10010110000000000000000000000000000000000000000000000 H"
b110010000000000000000000000000000000000000000000000 0"
b11110000000000000000000000000000000000000000000000 v
b1001011000000000000000000000000000000000000000000000 G"
b1011 E"
b11001000000000000000000000000000000000000000000000 /"
b1011 -"
b1111000000000000000000000000000000000000000000000 u
b1011 s
1'
#680000
0'
#685000
b111100000000000000000000000000000000000000000000000 v
b1100100000000000000000000000000000000000000000000000 0"
b100101100000000000000000000000000000000000000000000000 H"
b11110000000000000000000000000000000000000000000000 u
b1100 s
b110010000000000000000000000000000000000000000000000 /"
b1100 -"
b10010110000000000000000000000000000000000000000000000 G"
b1100 E"
1'
#690000
0'
#695000
b1001011000000000000000000000000000000000000000000000000 H"
b11001000000000000000000000000000000000000000000000000 0"
b1111000000000000000000000000000000000000000000000000 v
b100101100000000000000000000000000000000000000000000000 G"
b1101 E"
b1100100000000000000000000000000000000000000000000000 /"
b1101 -"
b111100000000000000000000000000000000000000000000000 u
b1101 s
1'
#700000
0'
#705000
b11110000000000000000000000000000000000000000000000000 v
b110010000000000000000000000000000000000000000000000000 0"
b10010110000000000000000000000000000000000000000000000000 H"
b1111000000000000000000000000000000000000000000000000 u
b1110 s
b11001000000000000000000000000000000000000000000000000 /"
b1110 -"
b1001011000000000000000000000000000000000000000000000000 G"
b1110 E"
1'
#710000
0'
#715000
b100101100000000000000000000000000000000000000000000000000 H"
b1100100000000000000000000000000000000000000000000000000 0"
b111100000000000000000000000000000000000000000000000000 v
b10010110000000000000000000000000000000000000000000000000 G"
b1111 E"
b110010000000000000000000000000000000000000000000000000 /"
b1111 -"
b11110000000000000000000000000000000000000000000000000 u
b1111 s
1'
#720000
0'
#725000
b1111000000000000000000000000000000000000000000000000000 v
b11001000000000000000000000000000000000000000000000000000 0"
b1001011000000000000000000000000000000000000000000000000000 H"
b111100000000000000000000000000000000000000000000000000 u
b10000 s
b1100100000000000000000000000000000000000000000000000000 /"
b10000 -"
b100101100000000000000000000000000000000000000000000000000 G"
b10000 E"
1'
#730000
0'
#735000
b10010110000000000000000000000000000000000000000000000000000 H"
b110010000000000000000000000000000000000000000000000000000 0"
b11110000000000000000000000000000000000000000000000000000 v
b1001011000000000000000000000000000000000000000000000000000 G"
b10001 E"
b11001000000000000000000000000000000000000000000000000000 /"
b10001 -"
b1111000000000000000000000000000000000000000000000000000 u
b10001 s
1'
#740000
0'
#745000
b111100000000000000000000000000000000000000000000000000000 v
b1100100000000000000000000000000000000000000000000000000000 0"
b100101100000000000000000000000000000000000000000000000000000 H"
b11110000000000000000000000000000000000000000000000000000 u
b10010 s
b110010000000000000000000000000000000000000000000000000000 /"
b10010 -"
b10010110000000000000000000000000000000000000000000000000000 G"
b10010 E"
1'
#750000
0'
#755000
b1001011000000000000000000000000000000000000000000000000000000 H"
b11001000000000000000000000000000000000000000000000000000000 0"
b1111000000000000000000000000000000000000000000000000000000 v
b100101100000000000000000000000000000000000000000000000000000 G"
b10011 E"
b1100100000000000000000000000000000000000000000000000000000 /"
b10011 -"
b111100000000000000000000000000000000000000000000000000000 u
b10011 s
1'
#760000
0'
#765000
b11110000000000000000000000000000000000000000000000000000000 v
b110010000000000000000000000000000000000000000000000000000000 0"
b10010110000000000000000000000000000000000000000000000000000000 H"
b1111000000000000000000000000000000000000000000000000000000 u
b10100 s
b11001000000000000000000000000000000000000000000000000000000 /"
b10100 -"
b1001011000000000000000000000000000000000000000000000000000000 G"
b10100 E"
1'
#770000
0'
#775000
b100101100000000000000000000000000000000000000000000000000000000 H"
b1100100000000000000000000000000000000000000000000000000000000 0"
b111100000000000000000000000000000000000000000000000000000000 v
b10010110000000000000000000000000000000000000000000000000000000 G"
b10101 E"
b110010000000000000000000000000000000000000000000000000000000 /"
b10101 -"
b11110000000000000000000000000000000000000000000000000000000 u
b10101 s
1'
#780000
0'
#785000
b1111000000000000000000000000000000000000000000000000000000000 v
b11001000000000000000000000000000000000000000000000000000000000 0"
b1 ?"
b1011000000000000000000000000000000000000000000000000000000000 H"
b111100000000000000000000000000000000000000000000000000000000 u
b10110 s
b1100100000000000000000000000000000000000000000000000000000000 /"
b10110 -"
b100101100000000000000000000000000000000000000000000000000000000 G"
b10110 E"
1'
#790000
0'
