raymarcher.vcd
$date
	Sat Nov 11 02:38:08 2023
$end
$version
	Icarus Verilog
$end
$timescale
	1ps
$end
$scope module tb $end
$var wire 33 ! y_out [32:0] $end
$var wire 33 " x_out [32:0] $end
$var wire 8 # red_out [7:0] $end
$var wire 1 $ pixel_done $end
$var wire 8 % green_out [7:0] $end
$var wire 8 & blue_out [7:0] $end
$var reg 1 ' clk_in $end
$var reg 1 ( rst_in $end
$var reg 33 ) x_in [32:0] $end
$var reg 33 * y_in [32:0] $end
$scope module raym $end
$var wire 1 ' clk_in $end
$var wire 9 + curr_x [8:0] $end
$var wire 8 , curr_y [7:0] $end
$var wire 1 ( rst_in $end
$var wire 32 - timer [31:0] $end
$var wire 8 . sdf_red_out [7:0] $end
$var wire 32 / sdf_out [31:0] $end
$var wire 8 0 sdf_green_out [7:0] $end
$var wire 1 1 sdf_done $end
$var wire 8 2 sdf_blue_out [7:0] $end
$var wire 32 3 ray_gen_out_z [31:0] $end
$var wire 32 4 ray_gen_out_y [31:0] $end
$var wire 32 5 ray_gen_out_x [31:0] $end
$var wire 1 6 ray_gen_done $end
$var parameter 32 7 EPSILON $end
$var parameter 32 8 HEIGHT $end
$var parameter 32 9 MAX_DIST_MANHATTEN $end
$var parameter 32 : MAX_STEPS $end
$var parameter 12 ; NORMAL_EPS $end
$var parameter 19 < UNCALCULATED_NORMAL_VALUE $end
$var parameter 32 = WIDTH $end
$var reg 8 > blue_out [7:0] $end
$var reg 32 ? dir_x [31:0] $end
$var reg 32 @ dir_y [31:0] $end
$var reg 32 A dir_z [31:0] $end
$var reg 8 B green_out [7:0] $end
$var reg 32 C normal_base_dist [31:0] $end
$var reg 9 D out_x [8:0] $end
$var reg 8 E out_y [7:0] $end
$var reg 1 $ pixel_done $end
$var reg 32 F ray_gen_in_x [31:0] $end
$var reg 32 G ray_gen_in_y [31:0] $end
$var reg 32 H ray_gen_in_z [31:0] $end
$var reg 1 I ray_gen_start $end
$var reg 9 J ray_steps [8:0] $end
$var reg 32 K ray_x [31:0] $end
$var reg 32 L ray_y [31:0] $end
$var reg 32 M ray_z [31:0] $end
$var reg 8 N red_out [7:0] $end
$var reg 1 O sdf_start $end
$var integer 32 P state [31:0] $end
$scope module ray_gen_inst $end
$var wire 1 ' clk_in $end
$var wire 32 Q ray_gen_in_x [31:0] $end
$var wire 32 R ray_gen_in_y [31:0] $end
$var wire 32 S ray_gen_in_z [31:0] $end
$var wire 1 I ray_gen_start $end
$var wire 1 ( rst_in $end
$var wire 32 T sqrt_out [31:0] $end
$var wire 1 U sqrt_done $end
$var wire 32 V div_z_out [31:0] $end
$var wire 1 W div_z_done $end
$var wire 32 X div_y_out [31:0] $end
$var wire 1 Y div_y_done $end
$var wire 32 Z div_x_out [31:0] $end
$var wire 1 [ div_x_done $end
$var reg 1 \ div_start $end
$var reg 1 ] div_x_set $end
$var reg 1 ^ div_y_set $end
$var reg 1 _ div_z_set $end
$var reg 32 ` norm [31:0] $end
$var reg 1 a processing $end
$var reg 1 6 ray_gen_done $end
$var reg 32 b ray_gen_out_x [31:0] $end
$var reg 32 c ray_gen_out_y [31:0] $end
$var reg 32 d ray_gen_out_z [31:0] $end
$var reg 32 e sqrt_in [31:0] $end
$var reg 1 f sqrt_start $end
$var integer 32 g state [31:0] $end
$scope module divx $end
$var wire 32 h a [31:0] $end
$var wire 32 i b [31:0] $end
$var wire 1 ' clk $end
$var wire 1 ( rst $end
$var wire 1 \ start $end
$var parameter 32 j FBITS $end
$var parameter 32 k FBITSW $end
$var parameter 34 l ITER $end
$var parameter 32 m SMALLEST $end
$var parameter 32 n WIDTH $end
$var parameter 33 o WIDTHU $end
$var reg 1 p a_sig $end
$var reg 32 q acc [31:0] $end
$var reg 32 r acc_next [31:0] $end
$var reg 31 s au [30:0] $end
$var reg 1 t b_sig $end
$var reg 31 u bu [30:0] $end
$var reg 1 v busy $end
$var reg 1 w dbz $end
$var reg 1 [ done $end
$var reg 7 x i [6:0] $end
$var reg 1 y ovf $end
$var reg 31 z quo [30:0] $end
$var reg 31 { quo_next [30:0] $end
$var reg 1 | sig_diff $end
$var reg 32 } val [31:0] $end
$var reg 1 ~ valid $end
$var integer 32 !" state [31:0] $end
$upscope $end
$scope module divy $end
$var wire 32 "" a [31:0] $end
$var wire 32 #" b [31:0] $end
$var wire 1 ' clk $end
$var wire 1 ( rst $end
$var wire 1 \ start $end
$var parameter 32 $" FBITS $end
$var parameter 32 %" FBITSW $end
$var parameter 34 &" ITER $end
$var parameter 32 '" SMALLEST $end
$var parameter 32 (" WIDTH $end
$var parameter 33 )" WIDTHU $end
$var reg 1 *" a_sig $end
$var reg 32 +" acc [31:0] $end
$var reg 32 ," acc_next [31:0] $end
$var reg 31 -" au [30:0] $end
$var reg 1 ." b_sig $end
$var reg 31 /" bu [30:0] $end
$var reg 1 0" busy $end
$var reg 1 1" dbz $end
$var reg 1 Y done $end
$var reg 7 2" i [6:0] $end
$var reg 1 3" ovf $end
$var reg 31 4" quo [30:0] $end
$var reg 31 5" quo_next [30:0] $end
$var reg 1 6" sig_diff $end
$var reg 32 7" val [31:0] $end
$var reg 1 8" valid $end
$var integer 32 9" state [31:0] $end
$upscope $end
$scope module divz $end
$var wire 32 :" a [31:0] $end
$var wire 32 ;" b [31:0] $end
$var wire 1 ' clk $end
$var wire 1 ( rst $end
$var wire 1 \ start $end
$var parameter 32 <" FBITS $end
$var parameter 32 =" FBITSW $end
$var parameter 34 >" ITER $end
$var parameter 32 ?" SMALLEST $end
$var parameter 32 @" WIDTH $end
$var parameter 33 A" WIDTHU $end
$var reg 1 B" a_sig $end
$var reg 32 C" acc [31:0] $end
$var reg 32 D" acc_next [31:0] $end
$var reg 31 E" au [30:0] $end
$var reg 1 F" b_sig $end
$var reg 31 G" bu [30:0] $end
$var reg 1 H" busy $end
$var reg 1 I" dbz $end
$var reg 1 W done $end
$var reg 7 J" i [6:0] $end
$var reg 1 K" ovf $end
$var reg 31 L" quo [30:0] $end
$var reg 31 M" quo_next [30:0] $end
$var reg 1 N" sig_diff $end
$var reg 32 O" val [31:0] $end
$var reg 1 P" valid $end
$var integer 32 Q" state [31:0] $end
$upscope $end
$scope module sqrt_inst $end
$var wire 1 ' clk $end
$var wire 32 R" rad [31:0] $end
$var wire 1 f start $end
$var parameter 32 S" FBITS $end
$var parameter 32 T" ITER $end
$var parameter 32 U" WIDTH $end
$var reg 34 V" ac [33:0] $end
$var reg 34 W" ac_next [33:0] $end
$var reg 1 X" busy $end
$var reg 5 Y" i [4:0] $end
$var reg 32 Z" q [31:0] $end
$var reg 32 [" q_next [31:0] $end
$var reg 32 \" rem [31:0] $end
$var reg 32 ]" root [31:0] $end
$var reg 34 ^" test_res [33:0] $end
$var reg 1 U valid $end
$var reg 32 _" x [31:0] $end
$var reg 32 `" x_next [31:0] $end
$upscope $end
$upscope $end
$scope module sdf_inst $end
$var wire 1 ' clk_in $end
$var wire 1 ( rst_in $end
$var wire 1 O sdf_start $end
$var wire 32 a" timer [31:0] $end
$var wire 32 b" x [31:0] $end
$var wire 32 c" y [31:0] $end
$var wire 32 d" z [31:0] $end
$var wire 1 e" sphere_3_sqrt_done $end
$var wire 32 f" sphere_3_dist [31:0] $end
$var wire 1 g" sphere_2_sqrt_done $end
$var wire 32 h" sphere_2_dist [31:0] $end
$var wire 1 i" sphere_1_sqrt_done $end
$var wire 32 j" sphere_1_dist [31:0] $end
$var reg 8 k" sdf_blue_out [7:0] $end
$var reg 1 1 sdf_done $end
$var reg 8 l" sdf_green_out [7:0] $end
$var reg 32 m" sdf_out [31:0] $end
$var reg 8 n" sdf_red_out [7:0] $end
$var reg 32 o" sphere_1_dist_squared [31:0] $end
$var reg 32 p" sphere_2_dist_squared [31:0] $end
$var reg 32 q" sphere_3_dist_squared [31:0] $end
$var reg 1 r" sqrt_start $end
$var reg 32 s" tmp_x_1 [31:0] $end
$var reg 32 t" tmp_x_2 [31:0] $end
$var reg 32 u" tmp_x_3 [31:0] $end
$var reg 32 v" tmp_y_1 [31:0] $end
$var reg 32 w" tmp_y_2 [31:0] $end
$var reg 32 x" tmp_y_3 [31:0] $end
$var reg 32 y" tmp_z_1 [31:0] $end
$var reg 32 z" tmp_z_2 [31:0] $end
$var reg 32 {" tmp_z_3 [31:0] $end
$var integer 32 |" state [31:0] $end
$scope module sqrt_inst $end
$var wire 1 ' clk $end
$var wire 32 }" rad [31:0] $end
$var wire 1 r" start $end
$var parameter 32 ~" FBITS $end
$var parameter 32 !# ITER $end
$var parameter 32 "# WIDTH $end
$var reg 34 ## ac [33:0] $end
$var reg 34 $# ac_next [33:0] $end
$var reg 1 %# busy $end
$var reg 5 &# i [4:0] $end
$var reg 32 '# q [31:0] $end
$var reg 32 (# q_next [31:0] $end
$var reg 32 )# rem [31:0] $end
$var reg 32 *# root [31:0] $end
$var reg 34 +# test_res [33:0] $end
$var reg 1 i" valid $end
$var reg 32 ,# x [31:0] $end
$var reg 32 -# x_next [31:0] $end
$upscope $end
$scope module sqrt_inst2 $end
$var wire 1 ' clk $end
$var wire 32 .# rad [31:0] $end
$var wire 1 r" start $end
$var parameter 32 /# FBITS $end
$var parameter 32 0# ITER $end
$var parameter 32 1# WIDTH $end
$var reg 34 2# ac [33:0] $end
$var reg 34 3# ac_next [33:0] $end
$var reg 1 4# busy $end
$var reg 5 5# i [4:0] $end
$var reg 32 6# q [31:0] $end
$var reg 32 7# q_next [31:0] $end
$var reg 32 8# rem [31:0] $end
$var reg 32 9# root [31:0] $end
$var reg 34 :# test_res [33:0] $end
$var reg 1 g" valid $end
$var reg 32 ;# x [31:0] $end
$var reg 32 <# x_next [31:0] $end
$upscope $end
$scope module sqrt_inst3 $end
$var wire 1 ' clk $end
$var wire 32 =# rad [31:0] $end
$var wire 1 r" start $end
$var parameter 32 ># FBITS $end
$var parameter 32 ?# ITER $end
$var parameter 32 @# WIDTH $end
$var reg 34 A# ac [33:0] $end
$var reg 34 B# ac_next [33:0] $end
$var reg 1 C# busy $end
$var reg 5 D# i [4:0] $end
$var reg 32 E# q [31:0] $end
$var reg 32 F# q_next [31:0] $end
$var reg 32 G# rem [31:0] $end
$var reg 32 H# root [31:0] $end
$var reg 34 I# test_res [33:0] $end
$var reg 1 e" valid $end
$var reg 32 J# x [31:0] $end
$var reg 32 K# x_next [31:0] $end
$upscope $end
$upscope $end
$upscope $end
$upscope $end
$enddefinitions $end
$comment Show the parameter values. $end
$dumpall
b100000 @#
b11000 ?#
b10000 >#
b100000 1#
b11000 0#
b10000 /#
b100000 "#
b11000 !#
b10000 ~"
b100000 U"
b11000 T"
b10000 S"
b11111 A"
b100000 @"
b10000000000000000000000000000000 ?"
b101111 >"
b10000 ="
b10000 <"
b11111 )"
b100000 ("
b10000000000000000000000000000000 '"
b101111 &"
b10000 %"
b10000 $"
b11111 o
b100000 n
b10000000000000000000000000000000 m
b101111 l
b10000 k
b10000 j
b101000000 =
b1110000000000000000 <
b100000000000 ;
b11001000 :
b10000000000000000000000000 9
b10110100 8
b10000000000000 7
$end
#0
$dumpvars
bx00 K#
bx J#
bx I#
bx H#
bx G#
bx0 F#
bx E#
bx D#
xC#
bx B#
bx A#
bx =#
bx00 <#
bx ;#
bx :#
bx 9#
bx 8#
bx0 7#
bx 6#
bx 5#
x4#
bx 3#
bx 2#
bx .#
bx00 -#
bx ,#
bx +#
bx *#
bx )#
bx0 (#
bx '#
bx &#
x%#
bx $#
bx ##
bx }"
b0 |"
bx {"
bx z"
bx y"
bx x"
bx w"
bx v"
bx u"
bx t"
bx s"
xr"
bx q"
bx p"
bx o"
bx n"
bx m"
bx l"
bx k"
bx j"
xi"
bx h"
xg"
bx f"
xe"
bx d"
bx c"
bx b"
bz a"
bx00 `"
bx _"
bx ^"
bx ]"
bx \"
bx0 ["
bx Z"
bx Y"
xX"
bx W"
bx V"
bx R"
b0 Q"
xP"
bx O"
xN"
bx0 M"
bx L"
xK"
bx J"
xI"
xH"
bx G"
xF"
bx E"
bx D"
bx C"
xB"
bx ;"
bx :"
b0 9"
x8"
bx 7"
x6"
bx0 5"
bx 4"
x3"
bx 2"
x1"
x0"
bx /"
x."
bx -"
bx ,"
bx +"
x*"
bx #"
bx ""
b0 !"
x~
bx }
x|
bx0 {
bx z
xy
bx x
xw
xv
bx u
xt
bx s
bx r
bx q
xp
bx i
bx h
b0 g
xf
bx e
bx d
bx c
bx b
xa
bx `
x_
x^
x]
x\
x[
bx Z
xY
bx X
xW
bx V
xU
bx T
bx S
bx R
bx Q
b0 P
xO
bx N
bx M
bx L
bx K
bx J
xI
bx H
bx G
bx F
bx E
bx D
bx C
bx B
bx A
bx @
bx ?
bx >
x6
bx 5
bx 4
bx 3
bx 2
01
bx 0
bx /
bx .
bz -
b1110000 ,
b10110000 +
b1110000 *
b10110000 )
0(
0'
bx &
bx %
1$
bx #
b0xxxxxxxxx "
b0xxxxxxxx !
$end
#15000
0$
0[
0Y
0W
b1 P
1'
#30000
0'
1(
#45000
1$
b0 P
0\
0f
06
0a
b0 V
b0 O"
0K"
0I"
0P"
0H"
b0 X
b0 7"
03"
01"
08"
00"
b0 Z
b0 }
0y
0w
0~
0v
0r"
1'
#60000
0'
0(
#75000
0$
b1 P
1'
#90000
0'
#105000
0B"
0*"
0p
b11 P
1I
b1110000 !
b1110000 E
b10110000 "
b10110000 D
b11111010000000000000000 H
b11111010000000000000000 S
b11111010000000000000000 :"
b101100000000000000000 G
b101100000000000000000 R
b101100000000000000000 ""
b100000000000000000000 F
b100000000000000000000 Q
b100000000000000000000 h
1'
#120000
0'
#135000
b1 g
1f
0_
0^
0]
b111111111011010000000000000000 e
b111111111011010000000000000000 R"
0I
1'
#150000
0'
#165000
b0 ["
b11 W"
b11111110110100000000000000000000 `"
b1111111111111111111111111111111111 ^"
0f
b0 V"
b11111111101101000000000000000000 _"
b0 Z"
b0 Y"
0U
1X"
1'
#180000
0'
#195000
b1 ["
b1011 W"
b11111011010000000000000000000000 `"
b10 ^"
b11 V"
b11111110110100000000000000000000 _"
b1 Y"
1'
#210000
0'
#225000
b11 ["
b11011 W"
b11101101000000000000000000000000 `"
b110 ^"
b1 Z"
b1011 V"
b11111011010000000000000000000000 _"
b10 Y"
1'
#240000
0'
#255000
b111 ["
b111011 W"
b10110100000000000000000000000000 `"
b1110 ^"
b11 Z"
b11011 V"
b11101101000000000000000000000000 _"
b11 Y"
1'
#270000
0'
#285000
b1111 ["
b1111010 W"
b11010000000000000000000000000000 `"
b11110 ^"
b111 Z"
b111011 V"
b10110100000000000000000000000000 _"
b100 Y"
1'
#300000
0'
#315000
b11111 ["
b11110111 W"
b1000000000000000000000000000000 `"
b111101 ^"
b1111 Z"
b1111010 V"
b11010000000000000000000000000000 _"
b101 Y"
1'
#330000
0'
#345000
b111111 ["
b111101001 W"
b0 `"
b1111010 ^"
b11111 Z"
b11110111 V"
b1000000000000000000000000000000 _"
b110 Y"
1'
#360000
0'
#375000
b1111111 ["
b1110110000 W"
b11101100 ^"
b111111 Z"
b111101001 V"
b0 _"
b111 Y"
1'
#390000
0'
#405000
b11111111 ["
b11011001100 W"
b110110011 ^"
b1111111 Z"
b1110110000 V"
b1000 Y"
1'
#420000
0'
#435000
b111111111 ["
b101100111100 W"
b1011001111 ^"
b11111111 Z"
b11011001100 V"
b1001 Y"
1'
#450000
0'
#465000
b1111111111 ["
b110011111100 W"
b1100111111 ^"
b111111111 Z"
b101100111100 V"
b1010 Y"
1'
#480000
0'
#495000
b11111111110 ["
b11001111110000 W"
b1111111111111111111111110011111111 ^"
b1111111111 Z"
b110011111100 V"
b1011 Y"
1'
#510000
0'
#525000
b111111111101 ["
b100111111011100 W"
b1001111110111 ^"
b11111111110 Z"
b11001111110000 V"
b1100 Y"
1'
#540000
0'
#555000
b1111111111011 ["
b11111110011100 W"
b111111100111 ^"
b111111111101 Z"
b100111111011100 V"
b1101 Y"
1'
#570000
0'
#585000
b11111111110110 ["
b1111111001110000 W"
b1111111111111111111011111110101111 ^"
b1111111111011 Z"
b11111110011100 V"
b1110 Y"
1'
#600000
0'
#615000
b111111111101100 ["
b111111100111000000 W"
b1111111111111111111111111010010111 ^"
b11111111110110 Z"
b1111111001110000 V"
b1111 Y"
1'
#630000
0'
#645000
b1111111111011001 ["
b1111110100000111100 W"
b11111101000001111 ^"
b111111111101100 Z"
b111111100111000000 V"
b10000 Y"
1'
#660000
0'
#675000
b11111111110110011 ["
b11111010001101011100 W"
b111110100011010111 ^"
b1111111111011001 Z"
b1111110100000111100 V"
b10001 Y"
1'
#690000
0'
#705000
b111111111101100111 ["
b111101001001000111100 W"
b1111010010010001111 ^"
b11111111110110011 Z"
b11111010001101011100 V"
b10010 Y"
1'
#720000
0'
#735000
b1111111111011001111 ["
b1110100101001001111100 W"
b11101001010010011111 ^"
b111111111101100111 Z"
b111101001001000111100 V"
b10011 Y"
1'
#750000
0'
#765000
b11111111110110011111 ["
b11010010101110011111100 W"
b110100101011100111111 ^"
b1111111111011001111 Z"
b1110100101001001111100 V"
b10100 Y"
1'
#780000
0'
#795000
b111111111101100111111 ["
b101001011001100111111100 W"
b1010010110011001111111 ^"
b11111111110110011111 Z"
b11010010101110011111100 V"
b10101 Y"
1'
#810000
0'
#825000
b1111111111011001111111 ["
b100101101011001111111100 W"
b1001011010110011111111 ^"
b111111111101100111111 Z"
b101001011001100111111100 V"
b10110 Y"
1'
#840000
0'
#855000
b11111111110110011111110 ["
b10010110101100111111110000 W"
b1111111111100101101101100111111111 ^"
b1111111111011001111111 Z"
b100101101011001111111100 V"
b10111 Y"
1'
#870000
0'
#885000
b100101101011001111111100 \"
b11111111110110011111110 T
b11111111110110011111110 ]"
1U
0X"
1'
#900000
0'
#915000
0t
0."
0F"
b10 g
1\
b11111111110110011111110 `
b11111111110110011111110 i
b11111111110110011111110 #"
b11111111110110011111110 ;"
1'
#930000
0'
#945000
0\
1H"
0N"
b11111111110110011111110 G"
b11111010000000000000000 E"
b1 Q"
10"
06"
b11111111110110011111110 /"
b101100000000000000000 -"
b1 9"
1v
0|
b11111111110110011111110 u
b100000000000000000000 s
b1 !"
1'
#960000
0'
#975000
b0 r
b10000000000000000000000 {
b0 ,"
b10110000000000000000000 5"
b0 D"
b1111101000000000000000000 M"
b0 q
b1000000000000000000000 z
b0 x
b10 !"
b0 +"
b1011000000000000000000 4"
b0 2"
b10 9"
b0 C"
b111110100000000000000000 L"
b0 J"
b10 Q"
1'
#990000
0'
#1005000
b11111010000000000000000000 M"
b101100000000000000000000 5"
b100000000000000000000000 {
b1111101000000000000000000 L"
b1 J"
b10110000000000000000000 4"
b1 2"
b10000000000000000000000 z
b1 x
1'
#1020000
0'
#1035000
b1000000000000000000000000 {
b1011000000000000000000000 5"
b111110100000000000000000000 M"
b100000000000000000000000 z
b10 x
b101100000000000000000000 4"
b10 2"
b11111010000000000000000000 L"
b10 J"
1'
#1050000
0'
#1065000
b1111101000000000000000000000 M"
b10110000000000000000000000 5"
b10000000000000000000000000 {
b111110100000000000000000000 L"
b11 J"
b1011000000000000000000000 4"
b11 2"
b1000000000000000000000000 z
b11 x
1'
#1080000
0'
#1095000
b100000000000000000000000000 {
b101100000000000000000000000 5"
b11111010000000000000000000000 M"
b10000000000000000000000000 z
b100 x
b10110000000000000000000000 4"
b100 2"
b1111101000000000000000000000 L"
b100 J"
1'
#1110000
0'
#1125000
b111110100000000000000000000000 M"
b1011000000000000000000000000 5"
b1000000000000000000000000000 {
b11111010000000000000000000000 L"
b101 J"
b101100000000000000000000000 4"
b101 2"
b100000000000000000000000000 z
b101 x
1'
#1140000
0'
#1155000
b10000000000000000000000000000 {
b10110000000000000000000000000 5"
b1111101000000000000000000000000 M"
b1000000000000000000000000000 z
b110 x
b1011000000000000000000000000 4"
b110 2"
b111110100000000000000000000000 L"
b110 J"
1'
#1170000
0'
#1185000
b1 D"
b1111010000000000000000000000000 M"
b101100000000000000000000000000 5"
b100000000000000000000000000000 {
b1111101000000000000000000000000 L"
b111 J"
b10110000000000000000000000000 4"
b111 2"
b10000000000000000000000000000 z
b111 x
1'
#1200000
0'
#1215000
b1000000000000000000000000000000 {
b1011000000000000000000000000000 5"
b11 D"
b1110100000000000000000000000000 M"
b100000000000000000000000000000 z
b1000 x
b101100000000000000000000000000 4"
b1000 2"
b1111010000000000000000000000000 L"
b1 C"
b1000 J"
1'
#1230000
0'
#1245000
b111 D"
b1101000000000000000000000000000 M"
b1 ,"
b110000000000000000000000000000 5"
b1 r
b0 {
b1110100000000000000000000000000 L"
b11 C"
b1001 J"
b1011000000000000000000000000000 4"
b1001 2"
b1000000000000000000000000000000 z
b1001 x
1'
#1260000
0'
#1275000
b10 r
b10 ,"
b1100000000000000000000000000000 5"
b1111 D"
b1010000000000000000000000000000 M"
b0 z
b1 q
b1010 x
b110000000000000000000000000000 4"
b1 +"
b1010 2"
b1101000000000000000000000000000 L"
b111 C"
b1010 J"
1'
#1290000
0'
#1305000
b11111 D"
b100000000000000000000000000000 M"
b101 ,"
b1000000000000000000000000000000 5"
b100 r
b1010000000000000000000000000000 L"
b1111 C"
b1011 J"
b1100000000000000000000000000000 4"
b10 +"
b1011 2"
b10 q
b1011 x
1'
#1320000
0'
#1335000
b1000 r
b1011 ,"
b0 5"
b111110 D"
b1000000000000000000000000000000 M"
b100 q
b1100 x
b1000000000000000000000000000000 4"
b101 +"
b1100 2"
b100000000000000000000000000000 L"
b11111 C"
b1100 J"
1'
#1350000
0'
#1365000
b1111101 D"
b0 M"
b10110 ,"
b10000 r
b1000000000000000000000000000000 L"
b111110 C"
b1101 J"
b0 4"
b1011 +"
b1101 2"
b1000 q
b1101 x
1'
#1380000
0'
#1395000
b100000 r
b101100 ,"
b11111010 D"
b10000 q
b1110 x
b10110 +"
b1110 2"
b0 L"
b1111101 C"
b1110 J"
1'
#1410000
0'
#1425000
b111110100 D"
b1011000 ,"
b1000000 r
b11111010 C"
b1111 J"
b101100 +"
b1111 2"
b100000 q
b1111 x
1'
#1440000
0'
#1455000
b10000000 r
b10110000 ,"
b1111101000 D"
b1000000 q
b10000 x
b1011000 +"
b10000 2"
b111110100 C"
b10000 J"
1'
#1470000
0'
#1485000
b11111010000 D"
b101100000 ,"
b100000000 r
b1111101000 C"
b10001 J"
b10110000 +"
b10001 2"
b10000000 q
b10001 x
1'
#1500000
0'
#1515000
b1000000000 r
b1011000000 ,"
b111110100000 D"
b100000000 q
b10010 x
b101100000 +"
b10010 2"
b11111010000 C"
b10010 J"
1'
#1530000
0'
#1545000
b1111101000000 D"
b10110000000 ,"
b10000000000 r
b111110100000 C"
b10011 J"
b1011000000 +"
b10011 2"
b1000000000 q
b10011 x
1'
#1560000
0'
#1575000
b100000000000 r
b101100000000 ,"
b11111010000000 D"
b10000000000 q
b10100 x
b10110000000 +"
b10100 2"
b1111101000000 C"
b10100 J"
1'
#1590000
0'
#1605000
b111110100000000 D"
b1011000000000 ,"
b1000000000000 r
b11111010000000 C"
b10101 J"
b101100000000 +"
b10101 2"
b100000000000 q
b10101 x
1'
#1620000
0'
#1635000
b10000000000000 r
b10110000000000 ,"
b1111101000000000 D"
b1000000000000 q
b10110 x
b1011000000000 +"
b10110 2"
b111110100000000 C"
b10110 J"
1'
#1650000
0'
#1665000
b11111010000000000 D"
b101100000000000 ,"
b100000000000000 r
b1111101000000000 C"
b10111 J"
b10110000000000 +"
b10111 2"
b10000000000000 q
b10111 x
1'
#1680000
0'
#1695000
b1000000000000000 r
b1011000000000000 ,"
b111110100000000000 D"
b100000000000000 q
b11000 x
b101100000000000 +"
b11000 2"
b11111010000000000 C"
b11000 J"
1'
#1710000
0'
#1725000
b1111101000000000000 D"
b10110000000000000 ,"
b10000000000000000 r
b111110100000000000 C"
b11001 J"
b1011000000000000 +"
b11001 2"
b1000000000000000 q
b11001 x
1'
#1740000
0'
#1755000
b100000000000000000 r
b101100000000000000 ,"
b11111010000000000000 D"
b10000000000000000 q
b11010 x
b10110000000000000 +"
b11010 2"
b1111101000000000000 C"
b11010 J"
1'
#1770000
0'
#1785000
b111110100000000000000 D"
b1011000000000000000 ,"
b1000000000000000000 r
b11111010000000000000 C"
b11011 J"
b101100000000000000 +"
b11011 2"
b100000000000000000 q
b11011 x
1'
#1800000
0'
#1815000
b10000000000000000000 r
b10110000000000000000 ,"
b1111101000000000000000 D"
b1000000000000000000 q
b11100 x
b1011000000000000000 +"
b11100 2"
b111110100000000000000 C"
b11100 J"
1'
#1830000
0'
#1845000
b11111010000000000000000 D"
b101100000000000000000 ,"
b100000000000000000000 r
b1111101000000000000000 C"
b11101 J"
b10110000000000000000 +"
b11101 2"
b10000000000000000000 q
b11101 x
1'
#1860000
0'
#1875000
b1000000000000000000000 r
b1011000000000000000000 ,"
b111110100000000000000000 D"
b100000000000000000000 q
b11110 x
b101100000000000000000 +"
b11110 2"
b11111010000000000000000 C"
b11110 J"
1'
#1890000
0'
#1905000
b1 M"
b111101000010011000000100 D"
b10110000000000000000000 ,"
b10000000000000000000000 r
b111110100000000000000000 C"
b11111 J"
b1011000000000000000000 +"
b11111 2"
b1000000000000000000000 q
b11111 x
1'
#1920000
0'
#1935000
b100000000000000000000000 r
b101100000000000000000000 ,"
b11 M"
b111010000111001000001100 D"
b10000000000000000000000 q
b100000 x
b10110000000000000000000 +"
b100000 2"
b1 L"
b111101000010011000000100 C"
b100000 J"
1'
#1950000
0'
#1965000
b111 M"
b110100010000101000011100 D"
b1 5"
b11000000010011000000100 ,"
b1 {
b10011000000100 r
b11 L"
b111010000111001000001100 C"
b100001 J"
b101100000000000000000000 +"
b100001 2"
b100000000000000000000000 q
b100001 x
1'
#1980000
0'
#1995000
b100110000001000 r
b10 {
b110000000100110000001000 ,"
b10 5"
b1111 M"
b101000100011101000111100 D"
b1 z
b10011000000100 q
b100010 x
b1 4"
b11000000010011000000100 +"
b100010 2"
b111 L"
b110100010000101000011100 C"
b100010 J"
1'
#2010000
0'
#2025000
b11111 M"
b10001001001101001111100 D"
b101 5"
b100000001011111000010100 ,"
b1001100000010000 r
b100 {
b1111 L"
b101000100011101000111100 C"
b100011 J"
b10 4"
b110000000100110000001000 +"
b100011 2"
b10 z
b100110000001000 q
b100011 x
1'
#2040000
0'
#2055000
b10011000000100000 r
b1000 {
b1011 5"
b11010001000101100 ,"
b100010010011010011111000 D"
b111110 M"
b100 z
b1001100000010000 q
b100100 x
b101 4"
b100000001011111000010100 +"
b100100 2"
b11111 L"
b10001001001101001111100 C"
b100100 J"
1'
#2070000
0'
#2085000
b1111101 M"
b100101000111111110100 D"
b110100010001011000 ,"
b10110 5"
b100110000001000000 r
b10000 {
b111110 L"
b100010010011010011111000 C"
b100101 J"
b1011 4"
b11010001000101100 +"
b100101 2"
b1000 z
b10011000000100000 q
b100101 x
1'
#2100000
0'
#2115000
b1001100000010000000 r
b100000 {
b1101000100010110000 ,"
b101100 5"
b1001010001111111101000 D"
b11111010 M"
b10000 z
b100110000001000000 q
b100110 x
b10110 4"
b110100010001011000 +"
b100110 2"
b1111101 L"
b100101000111111110100 C"
b100110 J"
1'
#2130000
0'
#2145000
b10010100011111111010000 D"
b111110100 M"
b11010001000101100000 ,"
b1011000 5"
b10011000000100000000 r
b1000000 {
b11111010 L"
b1001010001111111101000 C"
b100111 J"
b101100 4"
b1101000100010110000 +"
b100111 2"
b100000 z
b1001100000010000000 q
b100111 x
1'
#2160000
0'
#2175000
b100110000001000000000 r
b10000000 {
b110100010001011000000 ,"
b10110000 5"
b100101000111111110100000 D"
b1111101000 M"
b1000000 z
b10011000000100000000 q
b101000 x
b1011000 4"
b11010001000101100000 +"
b101000 2"
b111110100 L"
b10010100011111111010000 C"
b101000 J"
1'
#2190000
0'
#2205000
b11111010001 M"
b1010010010010101000100 D"
b1101000100010110000000 ,"
b101100000 5"
b1001100000010000000000 r
b100000000 {
b1111101000 L"
b100101000111111110100000 C"
b101001 J"
b10110000 4"
b110100010001011000000 +"
b101001 2"
b10000000 z
b100110000001000000000 q
b101001 x
1'
#2220000
0'
#2235000
b10011000000100000000000 r
b1000000000 {
b11010001000101100000000 ,"
b1011000000 5"
b10100100100101010001000 D"
b111110100010 M"
b100000000 z
b1001100000010000000000 q
b101010 x
b101100000 4"
b1101000100010110000000 +"
b101010 2"
b11111010001 L"
b1010010010010101000100 C"
b101010 J"
1'
#2250000
0'
#2265000
b101001001001010100010000 D"
b1111101000100 M"
b110100010001011000000000 ,"
b10110000000 5"
b100110000001000000000000 r
b10000000000 {
b111110100010 L"
b10100100100101010001000 C"
b101011 J"
b1011000000 4"
b11010001000101100000000 +"
b101011 2"
b1000000000 z
b10011000000100000000000 q
b101011 x
1'
#2280000
0'
#2295000
b100000000001 {
b1100000100011000000100 r
b101100000001 5"
b101000100101001000000100 ,"
b11111010001001 M"
b10010010101000000100100 D"
b10000000000 z
b100110000001000000000000 q
b101100 x
b10110000000 4"
b110100010001011000000000 +"
b101100 2"
b1111101000100 L"
b101001001001010100010000 C"
b101100 J"
1'
#2310000
0'
#2325000
b100100101010000001001000 D"
b111110100010010 M"
b1011000000011 5"
b10001001100101000001100 ,"
b11000001000110000001000 r
b1000000000010 {
b11111010001001 L"
b10010010101000000100100 C"
b101101 J"
b101100000001 4"
b101000100101001000000100 +"
b101101 2"
b100000000001 z
b1100000100011000000100 q
b101101 x
1'
#2340000
0'
#2355000
b110000010001100000010000 r
b10000000000100 {
b100010011001010000011000 ,"
b10110000000110 5"
b1111101000100101 M"
b1001010110011010010100 D"
b1000000000010 z
b11000001000110000001000 q
b101110 x
b1011000000011 4"
b10001001100101000001100 +"
b101110 2"
b111110100010010 L"
b100100101010000001001000 C"
b101110 J"
1'
#2370000
0'
