raymarcher.vcd
$date
	Wed Oct 18 18:07:01 2023
$end
$version
	Icarus Verilog
$end
$timescale
	1ps
$end
$scope module tb $end
$var wire 8 ! red_out [7:0] $end
$var wire 1 " pixel_done $end
$var wire 8 # green_out [7:0] $end
$var wire 8 $ blue_out [7:0] $end
$var reg 24 % a [23:0] $end
$var reg 24 & b [23:0] $end
$var reg 24 ' c [23:0] $end
$var reg 1 ( clk_in $end
$var reg 1 ) rst_in $end
$var reg 33 * x_in [32:0] $end
$var reg 33 + y_in [32:0] $end
$scope module raym $end
$var wire 1 ( clk_pixel_in $end
$var wire 9 , curr_x [8:0] $end
$var wire 9 - curr_y [8:0] $end
$var wire 1 ) rst_in $end
$var wire 32 . sdf_out [31:0] $end
$var wire 1 / sdf_done $end
$var wire 32 0 ray_gen_out_z [31:0] $end
$var wire 32 1 ray_gen_out_y [31:0] $end
$var wire 32 2 ray_gen_out_x [31:0] $end
$var wire 1 3 ray_gen_done $end
$var parameter 32 4 EPSILON $end
$var parameter 32 5 HEIGHT $end
$var parameter 32 6 MAX_DIST_SQUARE $end
$var parameter 32 7 MAX_STEPS $end
$var parameter 32 8 WIDTH $end
$var reg 8 9 blue_out [7:0] $end
$var reg 32 : dir_x [31:0] $end
$var reg 32 ; dir_y [31:0] $end
$var reg 32 < dir_z [31:0] $end
$var reg 8 = green_out [7:0] $end
$var reg 1 " pixel_done $end
$var reg 32 > ray_gen_in_x [31:0] $end
$var reg 32 ? ray_gen_in_y [31:0] $end
$var reg 32 @ ray_gen_in_z [31:0] $end
$var reg 1 A ray_gen_start $end
$var reg 8 B ray_steps [7:0] $end
$var reg 32 C ray_x [31:0] $end
$var reg 32 D ray_y [31:0] $end
$var reg 32 E ray_z [31:0] $end
$var reg 8 F red_out [7:0] $end
$var reg 1 G sdf_start $end
$var integer 32 H state [31:0] $end
$scope module ray_gen_inst $end
$var wire 1 ( clk_in $end
$var wire 32 I ray_gen_in_x [31:0] $end
$var wire 32 J ray_gen_in_y [31:0] $end
$var wire 32 K ray_gen_in_z [31:0] $end
$var wire 1 A ray_gen_start $end
$var wire 1 ) rst_in $end
$var wire 32 L sqrt_out [31:0] $end
$var wire 1 M sqrt_done $end
$var wire 32 N div_z_out [31:0] $end
$var wire 1 O div_z_done $end
$var wire 32 P div_y_out [31:0] $end
$var wire 1 Q div_y_done $end
$var wire 32 R div_x_out [31:0] $end
$var wire 1 S div_x_done $end
$var reg 1 T div_start $end
$var reg 1 U div_x_set $end
$var reg 1 V div_y_set $end
$var reg 1 W div_z_set $end
$var reg 32 X norm [31:0] $end
$var reg 1 Y processing $end
$var reg 1 3 ray_gen_done $end
$var reg 32 Z ray_gen_out_x [31:0] $end
$var reg 32 [ ray_gen_out_y [31:0] $end
$var reg 32 \ ray_gen_out_z [31:0] $end
$var reg 32 ] sqrt_in [31:0] $end
$var reg 1 ^ sqrt_start $end
$scope module divx $end
$var wire 32 _ a [31:0] $end
$var wire 32 ` b [31:0] $end
$var wire 1 ( clk $end
$var wire 1 ) rst $end
$var wire 1 T start $end
$var parameter 32 a FBITS $end
$var parameter 32 b FBITSW $end
$var parameter 34 c ITER $end
$var parameter 32 d SMALLEST $end
$var parameter 32 e WIDTH $end
$var parameter 33 f WIDTHU $end
$var reg 1 g a_sig $end
$var reg 32 h acc [31:0] $end
$var reg 32 i acc_next [31:0] $end
$var reg 31 j au [30:0] $end
$var reg 1 k b_sig $end
$var reg 31 l bu [30:0] $end
$var reg 1 m busy $end
$var reg 1 n dbz $end
$var reg 1 S done $end
$var reg 7 o i [6:0] $end
$var reg 1 p ovf $end
$var reg 31 q quo [30:0] $end
$var reg 31 r quo_next [30:0] $end
$var reg 1 s sig_diff $end
$var reg 32 t val [31:0] $end
$var reg 1 u valid $end
$var integer 32 v state [31:0] $end
$upscope $end
$scope module divy $end
$var wire 32 w a [31:0] $end
$var wire 32 x b [31:0] $end
$var wire 1 ( clk $end
$var wire 1 ) rst $end
$var wire 1 T start $end
$var parameter 32 y FBITS $end
$var parameter 32 z FBITSW $end
$var parameter 34 { ITER $end
$var parameter 32 | SMALLEST $end
$var parameter 32 } WIDTH $end
$var parameter 33 ~ WIDTHU $end
$var reg 1 !" a_sig $end
$var reg 32 "" acc [31:0] $end
$var reg 32 #" acc_next [31:0] $end
$var reg 31 $" au [30:0] $end
$var reg 1 %" b_sig $end
$var reg 31 &" bu [30:0] $end
$var reg 1 '" busy $end
$var reg 1 (" dbz $end
$var reg 1 Q done $end
$var reg 7 )" i [6:0] $end
$var reg 1 *" ovf $end
$var reg 31 +" quo [30:0] $end
$var reg 31 ," quo_next [30:0] $end
$var reg 1 -" sig_diff $end
$var reg 32 ." val [31:0] $end
$var reg 1 /" valid $end
$var integer 32 0" state [31:0] $end
$upscope $end
$scope module divz $end
$var wire 32 1" a [31:0] $end
$var wire 32 2" b [31:0] $end
$var wire 1 ( clk $end
$var wire 1 ) rst $end
$var wire 1 T start $end
$var parameter 32 3" FBITS $end
$var parameter 32 4" FBITSW $end
$var parameter 34 5" ITER $end
$var parameter 32 6" SMALLEST $end
$var parameter 32 7" WIDTH $end
$var parameter 33 8" WIDTHU $end
$var reg 1 9" a_sig $end
$var reg 32 :" acc [31:0] $end
$var reg 32 ;" acc_next [31:0] $end
$var reg 31 <" au [30:0] $end
$var reg 1 =" b_sig $end
$var reg 31 >" bu [30:0] $end
$var reg 1 ?" busy $end
$var reg 1 @" dbz $end
$var reg 1 O done $end
$var reg 7 A" i [6:0] $end
$var reg 1 B" ovf $end
$var reg 31 C" quo [30:0] $end
$var reg 31 D" quo_next [30:0] $end
$var reg 1 E" sig_diff $end
$var reg 32 F" val [31:0] $end
$var reg 1 G" valid $end
$var integer 32 H" state [31:0] $end
$upscope $end
$scope module sqrt_inst $end
$var wire 1 ( clk $end
$var wire 32 I" rad [31:0] $end
$var wire 1 ^ start $end
$var parameter 32 J" FBITS $end
$var parameter 32 K" ITER $end
$var parameter 32 L" WIDTH $end
$var reg 34 M" ac [33:0] $end
$var reg 34 N" ac_next [33:0] $end
$var reg 1 O" busy $end
$var reg 5 P" i [4:0] $end
$var reg 32 Q" q [31:0] $end
$var reg 32 R" q_next [31:0] $end
$var reg 32 S" rem [31:0] $end
$var reg 32 T" root [31:0] $end
$var reg 34 U" test_res [33:0] $end
$var reg 1 M valid $end
$var reg 32 V" x [31:0] $end
$var reg 32 W" x_next [31:0] $end
$upscope $end
$upscope $end
$scope module sdf_inst $end
$var wire 1 ( clk_in $end
$var wire 1 ) rst_in $end
$var wire 1 G sdf_start $end
$var wire 32 X" x [31:0] $end
$var wire 32 Y" y [31:0] $end
$var wire 32 Z" z [31:0] $end
$var reg 1 / sdf_done $end
$var reg 32 [" sdf_out [31:0] $end
$upscope $end
$upscope $end
$scope begin $ivl_for_loop0 $end
$var integer 32 \" i [31:0] $end
$upscope $end
$upscope $end
$enddefinitions $end
$comment Show the parameter values. $end
$dumpall
b100000 L"
b10100 K"
b1000 J"
b11111 8"
b100000 7"
b10000000000000000000000000000000 6"
b100111 5"
b1000 4"
b1000 3"
b11111 ~
b100000 }
b10000000000000000000000000000000 |
b100111 {
b1000 z
b1000 y
b11111 f
b100000 e
b10000000000000000000000000000000 d
b100111 c
b1000 b
b1000 a
b100101100 8
b1100100 7
b1000000000000000 6
b100101100 5
b10000 4
$end
#0
$dumpvars
b0 \"
bx ["
bx Z"
bx Y"
bx X"
bx00 W"
bx V"
bx U"
bx T"
bx S"
bx0 R"
bx Q"
bx P"
xO"
bx N"
bx M"
bx I"
b0 H"
xG"
bx F"
xE"
bx0 D"
bx C"
xB"
bx A"
x@"
x?"
bx >"
x="
bx <"
bx ;"
bx :"
x9"
bx 2"
bx 1"
b0 0"
x/"
bx ."
x-"
bx0 ,"
bx +"
x*"
bx )"
x("
x'"
bx &"
x%"
bx $"
bx #"
bx ""
x!"
bx x
bx w
b0 v
xu
bx t
xs
bx0 r
bx q
xp
bx o
xn
xm
bx l
xk
bx j
bx i
bx h
xg
bx `
bx _
x^
bx ]
bx \
bx [
bx Z
xY
bx X
xW
xV
xU
xT
xS
bx R
xQ
bx P
xO
bx N
xM
bx L
bx K
bx J
bx I
b0 H
0G
bx F
bx E
bx D
bx C
bx B
0A
bx @
bx ?
bx >
bx =
bx <
bx ;
bx :
bx 9
x3
bx 2
bx 1
bx 0
x/
bx .
b10001100 -
b10010110 ,
b10001100 +
b10010110 *
0)
0(
bx '
bx &
bx %
bx $
bx #
1"
bx !
$end
#5000
0"
0/
0S
0Q
0O
0T
0^
b1 H
b0 B
1(
#10000
0(
1)
#15000
1"
b0 H
03
0Y
b0 N
b0 F"
0B"
0@"
0G"
0?"
b0 P
b0 ."
0*"
0("
0/"
0'"
b0 R
b0 t
0p
0n
0u
0m
1(
#20000
0(
0)
#25000
0"
b1 H
1(
#30000
0(
b0 '
b1000000000000 &
b111111111111000000000000 %
#35000
1A
09"
1!"
0g
b11 H
b1001011000000000 @
b1001011000000000 K
b1001011000000000 1"
b11111111111111111111011000000000 ?
b11111111111111111111011000000000 J
b11111111111111111111011000000000 w
b0 >
b0 I
b0 _
1(
#40000
0(
#45000
1^
b10110000100100000000000 ]
b10110000100100000000000 I"
1Y
1(
#50000
0(
b1 \"
#55000
b0 R"
b0 N"
b101100001001000000000000000 W"
b1111111111111111111111111111111111 U"
0^
b0 M"
b1011000010010000000000000 V"
b0 Q"
b0 P"
0M
1O"
1(
#60000
0(
b10 \"
#65000
b10110000100100000000000000000 W"
b101100001001000000000000000 V"
b1 P"
1(
#70000
0(
b11 \"
#75000
b1011000010010000000000000000000 W"
b10110000100100000000000000000 V"
b10 P"
1(
#80000
0(
b100 \"
#85000
b1 N"
b1100001001000000000000000000000 W"
b1011000010010000000000000000000 V"
b11 P"
1(
#90000
0(
b101 \"
#95000
b1 R"
b10000100100000000000000000000000 W"
b0 U"
b1 M"
b1100001001000000000000000000000 V"
b100 P"
1(
#100000
0(
b110 \"
#105000
b10 R"
b110 N"
b10010000000000000000000000000 W"
b1111111111111111111111111111111100 U"
b1 Q"
b10000100100000000000000000000000 V"
b101 P"
1(
#110000
0(
b111 \"
#115000
b100 R"
b11000 N"
b1001000000000000000000000000000 W"
b1111111111111111111111111111111101 U"
b10 Q"
b110 M"
b10010000000000000000000000000 V"
b110 P"
1(
#120000
0(
b1000 \"
#125000
b1001 R"
b11101 N"
b100000000000000000000000000000 W"
b111 U"
b100 Q"
b11000 M"
b1001000000000000000000000000000 V"
b111 P"
1(
#130000
0(
b1001 \"
#135000
b10010 R"
b1110100 N"
b10000000000000000000000000000000 W"
b1111111111111111111111111111111000 U"
b1001 Q"
b11101 M"
b100000000000000000000000000000 V"
b1000 P"
1(
#140000
0(
b1010 \"
#145000
b100101 R"
b10101110 N"
b0 W"
b101011 U"
b10010 Q"
b1110100 M"
b10000000000000000000000000000000 V"
b1001 P"
1(
#150000
0(
b1011 \"
#155000
b1001011 R"
b1100100 N"
b11001 U"
b100101 Q"
b10101110 M"
b0 V"
b1010 P"
1(
#160000
0(
b1100 \"
#165000
b10010110 R"
b110010000 N"
b1111111111111111111111111100110111 U"
b1001011 Q"
b1100100 M"
b1011 P"
1(
#170000
0(
b1101 \"
#175000
b100101100 R"
b11001000000 N"
b10010110 Q"
b110010000 M"
b1100 P"
1(
#180000
0(
b1110 \"
#185000
b1001011001 R"
b11000111100 N"
b110001111 U"
b100101100 Q"
b11001000000 M"
b1101 P"
1(
#190000
0(
b1111 \"
#195000
b10010110010 R"
b1100011110000 N"
b1111111111111111111111110011010111 U"
b1001011001 Q"
b11000111100 M"
b1110 P"
1(
#200000
0(
b10000 \"
#205000
b100101100101 R"
b1100010011100 N"
b11000100111 U"
b10010110010 Q"
b1100011110000 M"
b1111 P"
1(
#210000
0(
b10001 \"
#215000
b1001011001010 R"
b110001001110000 N"
b1111111111111111111111001100000111 U"
b100101100101 Q"
b1100010011100 M"
b10000 P"
1(
#220000
0(
b10010 \"
#225000
b10010110010101 R"
b101110100011100 N"
b1011101000111 U"
b1001011001010 Q"
b110001001110000 M"
b10001 P"
1(
#230000
0(
b10011 \"
#235000
b100101100101010 R"
b10111010001110000 N"
b1111111111111111111100011011000111 U"
b10010110010101 Q"
b101110100011100 M"
b10010 P"
1(
#240000
0(
b10100 \"
#245000
b1001011001010101 R"
b10001111100011100 N"
b100011111000111 U"
b100101100101010 Q"
b10111010001110000 M"
b10011 P"
1(
#250000
0(
b10101 \"
#255000
b100011111000111 S"
b1001011001010101 L
b1001011001010101 T"
1M
0O"
1(
#260000
0(
b10110 \"
#265000
0k
0%"
0="
0W
0V
0U
1T
b1001011001010101 X
b1001011001010101 `
b1001011001010101 x
b1001011001010101 2"
1(
#270000
0(
b10111 \"
#275000
1?"
0E"
b1001011001010101 >"
b1001011000000000 <"
b1 H"
1'"
1-"
b1001011001010101 &"
b101000000000 $"
b1 0"
1m
0s
b1001011001010101 l
b0 j
b1 v
1(
#280000
0(
b11000 \"
#285000
b0 i
b0 r
b0 #"
b10100000000000 ,"
b0 ;"
b100101100000000000 D"
b0 h
b0 q
b0 o
b10 v
b0 ""
b1010000000000 +"
b0 )"
b10 0"
b0 :"
b10010110000000000 C"
b0 A"
b10 H"
1(
#290000
0(
b11001 \"
#295000
b1001011000000000000 D"
b101000000000000 ,"
b100101100000000000 C"
b1 A"
b10100000000000 +"
b1 )"
b1 o
1(
#300000
0(
b11010 \"
#305000
b1010000000000000 ,"
b10010110000000000000 D"
b10 o
b101000000000000 +"
b10 )"
b1001011000000000000 C"
b10 A"
1(
#310000
0(
b11011 \"
#315000
b100101100000000000000 D"
b10100000000000000 ,"
b10010110000000000000 C"
b11 A"
b1010000000000000 +"
b11 )"
b11 o
1(
#320000
0(
b11100 \"
#325000
b101000000000000000 ,"
b1001011000000000000000 D"
b100 o
b10100000000000000 +"
b100 )"
b100101100000000000000 C"
b100 A"
1(
#330000
0(
b11101 \"
#335000
b10010110000000000000000 D"
b1010000000000000000 ,"
b1001011000000000000000 C"
b101 A"
b101000000000000000 +"
b101 )"
b101 o
1(
#340000
0(
b11110 \"
#345000
b10100000000000000000 ,"
b100101100000000000000000 D"
b110 o
b1010000000000000000 +"
b110 )"
b10010110000000000000000 C"
b110 A"
1(
#350000
0(
b11111 \"
#355000
b1001011000000000000000000 D"
b101000000000000000000 ,"
b100101100000000000000000 C"
b111 A"
b10100000000000000000 +"
b111 )"
b111 o
1(
#360000
0(
b100000 \"
#365000
b1010000000000000000000 ,"
b10010110000000000000000000 D"
b1000 o
b101000000000000000000 +"
b1000 )"
b1001011000000000000000000 C"
b1000 A"
1(
#370000
0(
b100001 \"
#375000
b100101100000000000000000000 D"
b10100000000000000000000 ,"
b10010110000000000000000000 C"
b1001 A"
b1010000000000000000000 +"
b1001 )"
b1001 o
1(
#380000
0(
b100010 \"
#385000
b101000000000000000000000 ,"
b1001011000000000000000000000 D"
b1010 o
b10100000000000000000000 +"
b1010 )"
b100101100000000000000000000 C"
b1010 A"
1(
#390000
0(
b100011 \"
#395000
b10010110000000000000000000000 D"
b1010000000000000000000000 ,"
b1001011000000000000000000000 C"
b1011 A"
b101000000000000000000000 +"
b1011 )"
b1011 o
1(
#400000
0(
b100100 \"
#405000
b10100000000000000000000000 ,"
b100101100000000000000000000000 D"
b1100 o
b1010000000000000000000000 +"
b1100 )"
b10010110000000000000000000000 C"
b1100 A"
1(
#410000
0(
b100101 \"
#415000
b1001011000000000000000000000000 D"
b101000000000000000000000000 ,"
b100101100000000000000000000000 C"
b1101 A"
b10100000000000000000000000 +"
b1101 )"
b1101 o
1(
#420000
0(
b100110 \"
#425000
b1010000000000000000000000000 ,"
b1 ;"
b10110000000000000000000000000 D"
b1110 o
b101000000000000000000000000 +"
b1110 )"
b1001011000000000000000000000000 C"
b1110 A"
1(
#430000
0(
b100111 \"
#435000
b10 ;"
b101100000000000000000000000000 D"
b10100000000000000000000000000 ,"
b10110000000000000000000000000 C"
b1 :"
b1111 A"
b1010000000000000000000000000 +"
b1111 )"
b1111 o
1(
#440000
0(
b101000 \"
#445000
b101000000000000000000000000000 ,"
b100 ;"
b1011000000000000000000000000000 D"
b10000 o
b10100000000000000000000000000 +"
b10000 )"
b101100000000000000000000000000 C"
b10 :"
b10000 A"
1(
#450000
0(
b101001 \"
#455000
b1001 ;"
b110000000000000000000000000000 D"
b1010000000000000000000000000000 ,"
b1011000000000000000000000000000 C"
b100 :"
b10001 A"
b101000000000000000000000000000 +"
b10001 )"
b10001 o
1(
#460000
0(
b101010 \"
#465000
b1 #"
b100000000000000000000000000000 ,"
b10010 ;"
b1100000000000000000000000000000 D"
b10010 o
b1010000000000000000000000000000 +"
b10010 )"
b110000000000000000000000000000 C"
b1001 :"
b10010 A"
1(
#470000
0(
b101011 \"
#475000
b100101 ;"
b1000000000000000000000000000000 D"
b10 #"
b1000000000000000000000000000000 ,"
b1100000000000000000000000000000 C"
b10010 :"
b10011 A"
b100000000000000000000000000000 +"
b1 ""
b10011 )"
b10011 o
1(
#480000
0(
b101100 \"
#485000
b101 #"
b0 ,"
b1001011 ;"
b0 D"
b10100 o
b1000000000000000000000000000000 +"
b10 ""
b10100 )"
b1000000000000000000000000000000 C"
b100101 :"
b10100 A"
1(
#490000
0(
b101101 \"
#495000
b10010110 ;"
b1010 #"
b0 C"
b1001011 :"
b10101 A"
b0 +"
b101 ""
b10101 )"
b10101 o
1(
#500000
0(
b101110 \"
#505000
b10100 #"
b100101100 ;"
b10110 o
b1010 ""
b10110 )"
b10010110 :"
b10110 A"
1(
#510000
0(
b101111 \"
#515000
b1001011000 ;"
b101000 #"
b100101100 :"
b10111 A"
b10100 ""
b10111 )"
b10111 o
1(
#520000
0(
b110000 \"
#525000
b1010000 #"
b10010110000 ;"
b11000 o
b101000 ""
b11000 )"
b1001011000 :"
b11000 A"
1(
#530000
0(
b110001 \"
#535000
b100101100000 ;"
b10100000 #"
b10010110000 :"
b11001 A"
b1010000 ""
b11001 )"
b11001 o
1(
#540000
0(
b110010 \"
#545000
b101000000 #"
b1001011000000 ;"
b11010 o
b10100000 ""
b11010 )"
b100101100000 :"
b11010 A"
1(
#550000
0(
b110011 \"
#555000
b10010110000000 ;"
b1010000000 #"
b1001011000000 :"
b11011 A"
b101000000 ""
b11011 )"
b11011 o
1(
#560000
0(
b110100 \"
#565000
b10100000000 #"
b100101100000000 ;"
b11100 o
b1010000000 ""
b11100 )"
b10010110000000 :"
b11100 A"
1(
#570000
0(
b110101 \"
#575000
b1001011000000000 ;"
b101000000000 #"
b100101100000000 :"
b11101 A"
b10100000000 ""
b11101 )"
b11101 o
1(
#580000
0(
b110110 \"
#585000
b1010000000000 #"
b10010110000000000 ;"
b11110 o
b101000000000 ""
b11110 )"
b1001011000000000 :"
b11110 A"
1(
#590000
0(
b110111 \"
#595000
b1 D"
b10010101101010110 ;"
b10100000000000 #"
b10010110000000000 :"
b11111 A"
b1010000000000 ""
b11111 )"
b11111 o
1(
#600000
0(
b111000 \"
#605000
b101000000000000 #"
b11 D"
b10010101000000010 ;"
b100000 o
b10100000000000 ""
b100000 )"
b1 C"
b10010101101010110 :"
b100000 A"
1(
#610000
0(
b111001 \"
#615000
b111 D"
b10010011101011010 ;"
b1010000000000000 #"
b11 C"
b10010101000000010 :"
b100001 A"
b101000000000000 ""
b100001 )"
b100001 o
1(
#620000
0(
b111010 \"
#625000
b1 ,"
b1001101010110 #"
b1111 D"
b10010001000001010 ;"
b100010 o
b1010000000000000 ""
b100010 )"
b111 C"
b10010011101011010 :"
b100010 A"
1(
#630000
0(
b111011 \"
#635000
b11111 D"
b10001011101101010 ;"
b10011010101100 #"
b10 ,"
b1111 C"
b10010001000001010 :"
b100011 A"
b1 +"
b1001101010110 ""
b100011 )"
b100011 o
1(
#640000
0(
b111100 \"
#645000
b100110101011000 #"
b100 ,"
b111111 D"
b10000001000101010 ;"
b100100 o
b10 +"
b10011010101100 ""
b100100 )"
b11111 C"
b10001011101101010 :"
b100100 A"
1(
#650000
0(
b111101 \"
#655000
b1111111 D"
b1101011110101010 ;"
b1001101010110000 #"
b1000 ,"
b111111 C"
b10000001000101010 :"
b100101 A"
b100 +"
b100110101011000 ""
b100101 )"
b100101 o
1(
#660000
0(
b111110 \"
#665000
b10001 ,"
b100010110110 #"
b11111111 D"
b1000001010101010 ;"
b100110 o
b1000 +"
b1001101010110000 ""
b100110 )"
b1111111 C"
b1101011110101010 :"
b100110 A"
1(
#670000
0(
b111111 \"
#675000
b10000010101010100 ;"
b111111110 D"
b1000101101100 #"
b100010 ,"
b11111111 C"
b1000001010101010 :"
b100111 A"
b11 H"
b10001 +"
b100010110110 ""
b100111 )"
b11 0"
b100111 o
b11 v
1(
#680000
0(
b1000000 \"
#685000
b100 v
b100 0"
b100 H"
1(
#690000
0(
b1000001 \"
#695000
1G"
1O
0?"
b11111111 N
b11111111 F"
b0 H"
1/"
1Q
0'"
b11111111111111111111111111101111 P
b11111111111111111111111111101111 ."
b0 0"
1u
1S
0m
b0 v
1(
#700000
0(
b1000010 \"
#705000
1m
b1 v
0u
0S
1'"
b1 0"
0/"
0Q
1?"
b1 H"
0G"
0O
1W
b11111111 0
b11111111 \
1V
b11111111111111111111111111101111 1
b11111111111111111111111111101111 [
1U
b0 2
b0 Z
1(
#710000
0(
b1000011 \"
#715000
b0 ;"
b100101100000000000 D"
b0 #"
b10100000000000 ,"
13
0Y
0W
0V
0U
b0 :"
b10010110000000000 C"
b0 A"
b10 H"
b0 ""
b1010000000000 +"
b0 )"
b10 0"
b0 o
b10 v
1(
#720000
0(
b1000100 \"
#725000
b101000000000000 ,"
b1001011000000000000 D"
1G
0A
b1 o
b10100000000000 +"
b1 )"
b100101100000000000 C"
b1 A"
03
1^
1Y
b10 H
b0 E
b0 Z"
b0 D
b0 Y"
b0 C
b0 X"
b11111111 <
b11111111111111111111111111101111 ;
b0 :
1(
#730000
0(
b1000101 \"
#735000
b10010110000000000000 D"
b1010000000000000 ,"
b0 R"
b0 N"
b101100001001000000000000000 W"
b1111111111111111111111111111111111 U"
0G
0^
b1001011000000000000 C"
b10 A"
b101000000000000 +"
b10 )"
b10 o
b0 M"
b1011000010010000000000000 V"
b0 Q"
b0 P"
0M
1O"
1/
b1001010100000000 .
b1001010100000000 ["
1(
#740000
0(
b1000110 \"
#745000
b10110000100100000000000000000 W"
b10100000000000000 ,"
b100101100000000000000 D"
0/
b101100001001000000000000000 V"
b1 P"
b11 o
b1010000000000000 +"
b11 )"
b10010110000000000000 C"
b11 A"
0T
b100 H
1(
#750000
0(
b1000111 \"
#755000
1G
b1001011000000000000000 D"
b101000000000000000 ,"
b1011000010010000000000000000000 W"
b10 H
b1 B
b1001010001101011 E
b1001010001101011 Z"
b11111111111111111111011000011011 D
b11111111111111111111011000011011 Y"
b100101100000000000000 C"
b100 A"
b10100000000000000 +"
b100 )"
b100 o
b10110000100100000000000000000 V"
b10 P"
1(
#760000
0(
b1001000 \"
#765000
b1 N"
b1100001001000000000000000000000 W"
b1010000000000000000 ,"
b10010110000000000000000 D"
1/
b101001111010 .
b101001111010 ["
b1011000010010000000000000000000 V"
b11 P"
b101 o
b101000000000000000 +"
b101 )"
b1001011000000000000000 C"
b101 A"
0G
1(
#770000
0(
b1001001 \"
#775000
b100101100000000000000000 D"
b10100000000000000000 ,"
b1 R"
b10000100100000000000000000000000 W"
b0 U"
b100 H
b10010110000000000000000 C"
b110 A"
b1010000000000000000 +"
b110 )"
b110 o
b1 M"
b1100001001000000000000000000000 V"
b100 P"
0/
1(
#780000
0(
b1001010 \"
#785000
b10 R"
b110 N"
b10010000000000000000000000000 W"
b1111111111111111111111111111111100 U"
b101000000000000000000 ,"
b1001011000000000000000000 D"
1"
b1 Q"
b10000100100000000000000000000000 V"
b101 P"
b111 o
b10100000000000000000 +"
b111 )"
b100101100000000000000000 C"
b111 A"
b0 H
b11111111 $
b11111111 9
b11111111 #
b11111111 =
b11111111 !
b11111111 F
b1001111011011010 E
b1001111011011010 Z"
b11111111111111111111010101101000 D
b11111111111111111111010101101000 Y"
1(
#790000
0(
b1001011 \"
#795000
0"
b10010110000000000000000000 D"
b1010000000000000000000 ,"
b100 R"
b11000 N"
b1001000000000000000000000000000 W"
b1111111111111111111111111111111101 U"
b1 H
b0 B
b1001011000000000000000000 C"
b1000 A"
b101000000000000000000 +"
b1000 )"
b1000 o
b10 Q"
b110 M"
b10010000000000000000000000000 V"
b110 P"
1(
#800000
0(
b1001100 \"
#805000
b1001 R"
b11101 N"
b100000000000000000000000000000 W"
b111 U"
b10100000000000000000000 ,"
b100101100000000000000000000 D"
1A
b100 Q"
b11000 M"
b1001000000000000000000000000000 V"
b111 P"
b1001 o
b1010000000000000000000 +"
b1001 )"
b10010110000000000000000000 C"
b1001 A"
b11 H
1(
#810000
0(
b1001101 \"
#815000
b1001011000000000000000000000 D"
b101000000000000000000000 ,"
b10010 R"
b1110100 N"
b10000000000000000000000000000000 W"
b1111111111111111111111111111111000 U"
b100101100000000000000000000 C"
b1010 A"
b10100000000000000000000 +"
b1010 )"
b1010 o
b1001 Q"
b11101 M"
b100000000000000000000000000000 V"
b1000 P"
1(
#820000
0(
b1001110 \"
#825000
b100101 R"
b10101110 N"
b0 W"
b101011 U"
b1010000000000000000000000 ,"
b10010110000000000000000000000 D"
b10010 Q"
b1110100 M"
b10000000000000000000000000000000 V"
b1001 P"
b1011 o
b101000000000000000000000 +"
b1011 )"
b1001011000000000000000000000 C"
b1011 A"
1(
#830000
0(
b1001111 \"
#835000
b100101100000000000000000000000 D"
b10100000000000000000000000 ,"
b1001011 R"
b1100100 N"
b11001 U"
b10010110000000000000000000000 C"
b1100 A"
b1010000000000000000000000 +"
b1100 )"
b1100 o
b100101 Q"
b10101110 M"
b0 V"
b1010 P"
1(
#840000
0(
b1010000 \"
#845000
b10010110 R"
b110010000 N"
b1111111111111111111111111100110111 U"
b101000000000000000000000000 ,"
b1001011000000000000000000000000 D"
b1001011 Q"
b1100100 M"
b1011 P"
b1101 o
b10100000000000000000000000 +"
b1101 )"
b100101100000000000000000000000 C"
b1101 A"
1(
#850000
0(
b1010001 \"
#855000
b1 ;"
b10110000000000000000000000000 D"
b1010000000000000000000000000 ,"
b100101100 R"
b11001000000 N"
b1001011000000000000000000000000 C"
b1110 A"
b101000000000000000000000000 +"
b1110 )"
b1110 o
b10010110 Q"
b110010000 M"
b1100 P"
1(
#860000
0(
b1010010 \"
#865000
b1001011001 R"
b11000111100 N"
b110001111 U"
b10100000000000000000000000000 ,"
b10 ;"
b101100000000000000000000000000 D"
b100101100 Q"
b11001000000 M"
b1101 P"
b1111 o
b1010000000000000000000000000 +"
b1111 )"
b10110000000000000000000000000 C"
b1 :"
b1111 A"
1(
#870000
0(
b1010011 \"
#875000
b100 ;"
b1011000000000000000000000000000 D"
b101000000000000000000000000000 ,"
b10010110010 R"
b1100011110000 N"
b1111111111111111111111110011010111 U"
b101100000000000000000000000000 C"
b10 :"
b10000 A"
b10100000000000000000000000000 +"
b10000 )"
b10000 o
b1001011001 Q"
b11000111100 M"
b1110 P"
1(
#880000
0(
b1010100 \"
#885000
b100101100101 R"
b1100010011100 N"
b11000100111 U"
b1010000000000000000000000000000 ,"
b1001 ;"
b110000000000000000000000000000 D"
b10010110010 Q"
b1100011110000 M"
b1111 P"
b10001 o
b101000000000000000000000000000 +"
b10001 )"
b1011000000000000000000000000000 C"
b100 :"
b10001 A"
1(
#890000
0(
b1010101 \"
#895000
b10010 ;"
b1100000000000000000000000000000 D"
b1 #"
b100000000000000000000000000000 ,"
b1001011001010 R"
b110001001110000 N"
b1111111111111111111111001100000111 U"
b110000000000000000000000000000 C"
b1001 :"
b10010 A"
b1010000000000000000000000000000 +"
b10010 )"
b10010 o
b100101100101 Q"
b1100010011100 M"
b10000 P"
1(
#900000
0(
b1010110 \"
#905000
b10010110010101 R"
b101110100011100 N"
b1011101000111 U"
b10 #"
b1000000000000000000000000000000 ,"
b100101 ;"
b1000000000000000000000000000000 D"
b1001011001010 Q"
b110001001110000 M"
b10001 P"
b10011 o
b100000000000000000000000000000 +"
b1 ""
b10011 )"
b1100000000000000000000000000000 C"
b10010 :"
b10011 A"
1(
#910000
0(
b1010111 \"
#915000
b1001011 ;"
b0 D"
b101 #"
b0 ,"
b100101100101010 R"
b10111010001110000 N"
b1111111111111111111100011011000111 U"
b1000000000000000000000000000000 C"
b100101 :"
b10100 A"
b1000000000000000000000000000000 +"
b10 ""
b10100 )"
b10100 o
b10010110010101 Q"
b101110100011100 M"
b10010 P"
1(
#920000
0(
b1011000 \"
#925000
b1001011001010101 R"
b10001111100011100 N"
b100011111000111 U"
b1010 #"
b10010110 ;"
b100101100101010 Q"
b10111010001110000 M"
b10011 P"
b10101 o
b0 +"
b101 ""
b10101 )"
b0 C"
b1001011 :"
b10101 A"
1(
#930000
0(
b1011001 \"
#935000
b100101100 ;"
b10100 #"
b10010110 :"
b10110 A"
b1010 ""
b10110 )"
b10110 o
1M
0O"
1(
#940000
0(
b1011010 \"
#945000
b101000 #"
b1001011000 ;"
b10111 o
b10100 ""
b10111 )"
b100101100 :"
b10111 A"
1T
1(
#950000
0(
b1011011 \"
#955000
b10010110000 ;"
b1010000 #"
b1001011000 :"
b11000 A"
b101000 ""
b11000 )"
b11000 o
1(
#960000
0(
b1011100 \"
#965000
b10100000 #"
b100101100000 ;"
b11001 o
b1010000 ""
b11001 )"
b10010110000 :"
b11001 A"
1(
#970000
0(
b1011101 \"
#975000
b1001011000000 ;"
b101000000 #"
b100101100000 :"
b11010 A"
b10100000 ""
b11010 )"
b11010 o
1(
#980000
0(
b1011110 \"
