raymarcher.vcd
$date
	Thu Dec  7 15:17:41 2023
$end
$version
	Icarus Verilog
$end
$timescale
	1ps
$end
$scope module tb $end
$var wire 33 ! y_out [32:0] $end
$var wire 33 " x_out [32:0] $end
$var wire 1 # pixel_done $end
$var wire 24 $ col_out [23:0] $end
$var reg 1 % clk_in $end
$var reg 1 & rst_in $end
$var reg 1 ' start $end
$var reg 33 ( x_in [32:0] $end
$var reg 33 ) y_in [32:0] $end
$scope module raym $end
$var wire 32 * camera_forward_x [31:0] $end
$var wire 32 + camera_forward_y [31:0] $end
$var wire 32 , camera_forward_z [31:0] $end
$var wire 32 - camera_u_x [31:0] $end
$var wire 32 . camera_u_y [31:0] $end
$var wire 32 / camera_u_z [31:0] $end
$var wire 32 0 camera_v_x [31:0] $end
$var wire 32 1 camera_v_y [31:0] $end
$var wire 32 2 camera_v_z [31:0] $end
$var wire 32 3 camera_x [31:0] $end
$var wire 32 4 camera_y [31:0] $end
$var wire 32 5 camera_z [31:0] $end
$var wire 1 % clk_in $end
$var wire 9 6 curr_x [8:0] $end
$var wire 8 7 curr_y [7:0] $end
$var wire 1 & rst_in $end
$var wire 1 ' start_in $end
$var wire 32 8 timer [31:0] $end
$var wire 32 9 sdf_out [31:0] $end
$var wire 1 : sdf_done $end
$var wire 8 ; sdf_color_out [7:0] $end
$var wire 32 < ray_gen_out_z [31:0] $end
$var wire 32 = ray_gen_out_y [31:0] $end
$var wire 32 > ray_gen_out_x [31:0] $end
$var wire 1 ? ray_gen_done $end
$var parameter 32 @ EPSILON $end
$var parameter 32 A HEIGHT $end
$var parameter 32 B MAX_DIST_MANHATTEN $end
$var parameter 32 C MAX_STEPS $end
$var parameter 12 D NORMAL_EPS $end
$var parameter 19 E UNCALCULATED_NORMAL_VALUE $end
$var parameter 32 F WIDTH $end
$var parameter 32 G light_x $end
$var parameter 32 H light_y $end
$var parameter 32 I light_z $end
$var reg 8 J color_out [7:0] $end
$var reg 32 K dir_x [31:0] $end
$var reg 32 L dir_y [31:0] $end
$var reg 32 M dir_z [31:0] $end
$var reg 32 N light_fac [31:0] $end
$var reg 32 O light_weight [31:0] $end
$var reg 32 P normal_base_dist [31:0] $end
$var reg 9 Q out_x [8:0] $end
$var reg 8 R out_y [7:0] $end
$var reg 1 # pixel_done $end
$var reg 32 S ray_dist [31:0] $end
$var reg 32 T ray_gen_in_x [31:0] $end
$var reg 32 U ray_gen_in_y [31:0] $end
$var reg 32 V ray_gen_in_z [31:0] $end
$var reg 1 W ray_gen_start $end
$var reg 8 X ray_steps [7:0] $end
$var reg 32 Y ray_x [31:0] $end
$var reg 32 Z ray_y [31:0] $end
$var reg 32 [ ray_z [31:0] $end
$var reg 1 \ sdf_start $end
$var reg 32 ] tmp_x [31:0] $end
$var reg 32 ^ tmp_y [31:0] $end
$var reg 32 _ tmp_z [31:0] $end
$var integer 32 ` state [31:0] $end
$scope module ray_gen_inst $end
$var wire 1 % clk_in $end
$var wire 32 a ray_gen_in_x [31:0] $end
$var wire 32 b ray_gen_in_y [31:0] $end
$var wire 32 c ray_gen_in_z [31:0] $end
$var wire 1 W ray_gen_start $end
$var wire 1 & rst_in $end
$var wire 32 d sqrt_out [31:0] $end
$var wire 1 e sqrt_done $end
$var wire 32 f div_z_out [31:0] $end
$var wire 1 g div_z_done $end
$var wire 32 h div_y_out [31:0] $end
$var wire 1 i div_y_done $end
$var wire 32 j div_x_out [31:0] $end
$var wire 1 k div_x_done $end
$var reg 1 l div_start $end
$var reg 32 m norm [31:0] $end
$var reg 1 ? ray_gen_done $end
$var reg 32 n ray_gen_out_x [31:0] $end
$var reg 32 o ray_gen_out_y [31:0] $end
$var reg 32 p ray_gen_out_z [31:0] $end
$var reg 32 q sqrt_in [31:0] $end
$var reg 1 r sqrt_start $end
$var integer 32 s state [31:0] $end
$scope module divx $end
$var wire 32 t a [31:0] $end
$var wire 32 u b [31:0] $end
$var wire 1 % clk $end
$var wire 1 & rst $end
$var wire 1 l start $end
$var parameter 32 v FBITS $end
$var parameter 32 w FBITSW $end
$var parameter 34 x ITER $end
$var parameter 32 y SMALLEST $end
$var parameter 32 z WIDTH $end
$var parameter 33 { WIDTHU $end
$var reg 1 | a_sig $end
$var reg 32 } acc [31:0] $end
$var reg 32 ~ acc_next [31:0] $end
$var reg 31 !" au [30:0] $end
$var reg 1 "" b_sig $end
$var reg 31 #" bu [30:0] $end
$var reg 1 $" busy $end
$var reg 1 %" dbz $end
$var reg 1 k done $end
$var reg 7 &" i [6:0] $end
$var reg 1 '" ovf $end
$var reg 31 (" quo [30:0] $end
$var reg 31 )" quo_next [30:0] $end
$var reg 1 *" sig_diff $end
$var reg 32 +" val [31:0] $end
$var reg 1 ," valid $end
$var integer 32 -" state [31:0] $end
$upscope $end
$scope module divy $end
$var wire 32 ." a [31:0] $end
$var wire 32 /" b [31:0] $end
$var wire 1 % clk $end
$var wire 1 & rst $end
$var wire 1 l start $end
$var parameter 32 0" FBITS $end
$var parameter 32 1" FBITSW $end
$var parameter 34 2" ITER $end
$var parameter 32 3" SMALLEST $end
$var parameter 32 4" WIDTH $end
$var parameter 33 5" WIDTHU $end
$var reg 1 6" a_sig $end
$var reg 32 7" acc [31:0] $end
$var reg 32 8" acc_next [31:0] $end
$var reg 31 9" au [30:0] $end
$var reg 1 :" b_sig $end
$var reg 31 ;" bu [30:0] $end
$var reg 1 <" busy $end
$var reg 1 =" dbz $end
$var reg 1 i done $end
$var reg 7 >" i [6:0] $end
$var reg 1 ?" ovf $end
$var reg 31 @" quo [30:0] $end
$var reg 31 A" quo_next [30:0] $end
$var reg 1 B" sig_diff $end
$var reg 32 C" val [31:0] $end
$var reg 1 D" valid $end
$var integer 32 E" state [31:0] $end
$upscope $end
$scope module divz $end
$var wire 32 F" a [31:0] $end
$var wire 32 G" b [31:0] $end
$var wire 1 % clk $end
$var wire 1 & rst $end
$var wire 1 l start $end
$var parameter 32 H" FBITS $end
$var parameter 32 I" FBITSW $end
$var parameter 34 J" ITER $end
$var parameter 32 K" SMALLEST $end
$var parameter 32 L" WIDTH $end
$var parameter 33 M" WIDTHU $end
$var reg 1 N" a_sig $end
$var reg 32 O" acc [31:0] $end
$var reg 32 P" acc_next [31:0] $end
$var reg 31 Q" au [30:0] $end
$var reg 1 R" b_sig $end
$var reg 31 S" bu [30:0] $end
$var reg 1 T" busy $end
$var reg 1 U" dbz $end
$var reg 1 g done $end
$var reg 7 V" i [6:0] $end
$var reg 1 W" ovf $end
$var reg 31 X" quo [30:0] $end
$var reg 31 Y" quo_next [30:0] $end
$var reg 1 Z" sig_diff $end
$var reg 32 [" val [31:0] $end
$var reg 1 \" valid $end
$var integer 32 ]" state [31:0] $end
$upscope $end
$scope module sqrt_inst $end
$var wire 1 % clk $end
$var wire 32 ^" rad [31:0] $end
$var wire 1 r start $end
$var parameter 32 _" FBITS $end
$var parameter 32 `" ITER $end
$var parameter 32 a" WIDTH $end
$var reg 34 b" ac [33:0] $end
$var reg 34 c" ac_next [33:0] $end
$var reg 1 d" busy $end
$var reg 5 e" i [4:0] $end
$var reg 32 f" q [31:0] $end
$var reg 32 g" q_next [31:0] $end
$var reg 32 h" rem [31:0] $end
$var reg 32 i" root [31:0] $end
$var reg 34 j" test_res [33:0] $end
$var reg 1 e valid $end
$var reg 32 k" x [31:0] $end
$var reg 32 l" x_next [31:0] $end
$upscope $end
$upscope $end
$scope module sdf_inst $end
$var wire 1 % clk_in $end
$var wire 1 & rst_in $end
$var wire 1 \ sdf_start $end
$var wire 32 m" timer [31:0] $end
$var wire 32 n" x [31:0] $end
$var wire 32 o" y [31:0] $end
$var wire 32 p" z [31:0] $end
$var wire 1 q" sphere_3_sqrt_done $end
$var wire 32 r" sphere_3_dist [31:0] $end
$var wire 1 s" sphere_2_sqrt_done $end
$var wire 32 t" sphere_2_dist [31:0] $end
$var wire 1 u" sphere_1_sqrt_done $end
$var wire 32 v" sphere_1_dist [31:0] $end
$var reg 8 w" sdf_color_out [7:0] $end
$var reg 1 : sdf_done $end
$var reg 32 x" sdf_out [31:0] $end
$var reg 32 y" sphere_1_dist_squared [31:0] $end
$var reg 32 z" sphere_2_dist_squared [31:0] $end
$var reg 32 {" sphere_3_dist_squared [31:0] $end
$var reg 1 |" sqrt_start $end
$var reg 32 }" tmp_x_1 [31:0] $end
$var reg 32 ~" tmp_x_2 [31:0] $end
$var reg 32 !# tmp_x_3 [31:0] $end
$var reg 32 "# tmp_y_1 [31:0] $end
$var reg 32 ## tmp_y_2 [31:0] $end
$var reg 32 $# tmp_y_3 [31:0] $end
$var reg 32 %# tmp_z_1 [31:0] $end
$var reg 32 &# tmp_z_2 [31:0] $end
$var reg 32 '# tmp_z_3 [31:0] $end
$var integer 32 (# state [31:0] $end
$scope module sqrt_inst $end
$var wire 1 % clk $end
$var wire 32 )# rad [31:0] $end
$var wire 1 |" start $end
$var parameter 32 *# FBITS $end
$var parameter 32 +# ITER $end
$var parameter 32 ,# WIDTH $end
$var reg 34 -# ac [33:0] $end
$var reg 34 .# ac_next [33:0] $end
$var reg 1 /# busy $end
$var reg 5 0# i [4:0] $end
$var reg 32 1# q [31:0] $end
$var reg 32 2# q_next [31:0] $end
$var reg 32 3# rem [31:0] $end
$var reg 32 4# root [31:0] $end
$var reg 34 5# test_res [33:0] $end
$var reg 1 u" valid $end
$var reg 32 6# x [31:0] $end
$var reg 32 7# x_next [31:0] $end
$upscope $end
$scope module sqrt_inst2 $end
$var wire 1 % clk $end
$var wire 32 8# rad [31:0] $end
$var wire 1 |" start $end
$var parameter 32 9# FBITS $end
$var parameter 32 :# ITER $end
$var parameter 32 ;# WIDTH $end
$var reg 34 <# ac [33:0] $end
$var reg 34 =# ac_next [33:0] $end
$var reg 1 ># busy $end
$var reg 5 ?# i [4:0] $end
$var reg 32 @# q [31:0] $end
$var reg 32 A# q_next [31:0] $end
$var reg 32 B# rem [31:0] $end
$var reg 32 C# root [31:0] $end
$var reg 34 D# test_res [33:0] $end
$var reg 1 s" valid $end
$var reg 32 E# x [31:0] $end
$var reg 32 F# x_next [31:0] $end
$upscope $end
$scope module sqrt_inst3 $end
$var wire 1 % clk $end
$var wire 32 G# rad [31:0] $end
$var wire 1 |" start $end
$var parameter 32 H# FBITS $end
$var parameter 32 I# ITER $end
$var parameter 32 J# WIDTH $end
$var reg 34 K# ac [33:0] $end
$var reg 34 L# ac_next [33:0] $end
$var reg 1 M# busy $end
$var reg 5 N# i [4:0] $end
$var reg 32 O# q [31:0] $end
$var reg 32 P# q_next [31:0] $end
$var reg 32 Q# rem [31:0] $end
$var reg 32 R# root [31:0] $end
$var reg 34 S# test_res [33:0] $end
$var reg 1 q" valid $end
$var reg 32 T# x [31:0] $end
$var reg 32 U# x_next [31:0] $end
$upscope $end
$upscope $end
$upscope $end
$upscope $end
$enddefinitions $end
$comment Show the parameter values. $end
$dumpall
b100000 J#
b11000 I#
b10000 H#
b100000 ;#
b11000 :#
b10000 9#
b100000 ,#
b11000 +#
b10000 *#
b100000 a"
b11000 `"
b10000 _"
b11111 M"
b100000 L"
b10000000000000000000000000000000 K"
b101111 J"
b10000 I"
b10000 H"
b11111 5"
b100000 4"
b10000000000000000000000000000000 3"
b101111 2"
b10000 1"
b10000 0"
b11111 {
b100000 z
b10000000000000000000000000000000 y
b101111 x
b10000 w
b10000 v
b11111111111111111100000000000000 I
b101100000000000 H
b1110000000000000 G
b101000000 F
b1110000000000000000 E
b100000000000 D
b1100100 C
b10000000000000000000000000 B
b10110100 A
b100000000000 @
$end
#0
$dumpvars
bx00 U#
bx T#
bx S#
bx R#
bx Q#
bx0 P#
bx O#
bx N#
xM#
bx L#
bx K#
bx G#
bx00 F#
bx E#
bx D#
bx C#
bx B#
bx0 A#
bx @#
bx ?#
x>#
bx =#
bx <#
bx 8#
bx00 7#
bx 6#
bx 5#
bx 4#
bx 3#
bx0 2#
bx 1#
bx 0#
x/#
bx .#
bx -#
bx )#
b0 (#
bx '#
bx &#
bx %#
bx $#
bx ##
bx "#
bx !#
bx ~"
bx }"
x|"
bx {"
bx z"
bx y"
bx x"
bx w"
bx v"
xu"
bx t"
xs"
bx r"
xq"
bx p"
bx o"
bx n"
bz m"
bx00 l"
bx k"
bx j"
bx i"
bx h"
bx0 g"
bx f"
bx e"
xd"
bx c"
bx b"
bx ^"
b0 ]"
x\"
bx ["
xZ"
bx0 Y"
bx X"
xW"
bx V"
xU"
xT"
bx S"
xR"
bx Q"
bx P"
bx O"
xN"
bx G"
bx F"
b0 E"
xD"
bx C"
xB"
bx0 A"
bx @"
x?"
bx >"
x="
x<"
bx ;"
x:"
bx 9"
bx 8"
bx 7"
x6"
bx /"
bx ."
b0 -"
x,"
bx +"
x*"
bx0 )"
bx ("
x'"
bx &"
x%"
x$"
bx #"
x""
bx !"
bx ~
bx }
x|
bx u
bx t
b0 s
xr
bx q
bx p
bx o
bx n
bx m
xl
xk
bx j
xi
bx h
xg
bx f
xe
bx d
bx c
bx b
bx a
b0 `
bx _
bx ^
bx ]
x\
bx [
bx Z
bx Y
bx X
xW
bx V
bx U
bx T
bx S
bx R
bx Q
bx P
bx O
bx N
bx M
bx L
bx K
bx J
x?
bx >
bx =
bx <
bx ;
0:
bx 9
bz 8
b1011010 7
b10100000 6
b11001000000000000000000 5
b0 4
b0 3
b0 2
b10000000000000000 1
b0 0
b0 /
b0 .
b10000000000000000 -
b11111111100111000000000000000000 ,
b0 +
b0 *
b1011010 )
b10100000 (
1'
0&
0%
b0xxxxxxxx $
1#
b0xxxxxxxxx "
b0xxxxxxxx !
$end
#15000
0#
b1010 `
1%
#30000
0%
1&
#45000
1#
b0 `
0l
0r
0?
b0 f
b0 ["
0W"
0U"
0\"
0g
0T"
b0 h
b0 C"
0?"
0="
0D"
0i
0<"
b0 j
b0 +"
0'"
0%"
0,"
0k
0$"
0|"
1%
#60000
0%
0&
#75000
0#
b1010 `
1%
#90000
0%
#105000
b1 `
b0 ^
b0 ]
b1011010 !
b1011010 R
b10100000 "
b10100000 Q
1%
#120000
0%
#135000
1N"
06"
0|
b11 `
1W
b11111111100111000000000000000000 V
b11111111100111000000000000000000 c
b11111111100111000000000000000000 F"
b0 U
b0 b
b0 ."
b0 T
b0 a
b0 t
1%
#150000
0%
#165000
0W
b1 s
1r
b100111000100000000000000000000 q
b100111000100000000000000000000 ^"
1%
#180000
0%
#195000
b0 g"
b10 c"
b1110001000000000000000000000000 l"
b1111111111111111111111111111111111 j"
b0 b"
b10011100010000000000000000000000 k"
b0 f"
b0 e"
0e
1d"
0r
1%
#210000
0%
#225000
b1 g"
b101 c"
b11000100000000000000000000000000 l"
b1 j"
b10 b"
b1110001000000000000000000000000 k"
b1 e"
1%
#240000
0%
#255000
b11 g"
b11 c"
b10000000000000000000000000000 l"
b0 j"
b1 f"
b101 b"
b11000100000000000000000000000000 k"
b10 e"
1%
#270000
0%
#285000
b110 g"
b1100 c"
b1000000000000000000000000000000 l"
b1111111111111111111111111111110110 j"
b11 f"
b11 b"
b10000000000000000000000000000 k"
b11 e"
1%
#300000
0%
#315000
b1100 g"
b110001 c"
b0 l"
b1111111111111111111111111111110011 j"
b110 f"
b1100 b"
b1000000000000000000000000000000 k"
b100 e"
1%
#330000
0%
#345000
b11001 g"
b0 c"
b0 j"
b1100 f"
b110001 b"
b0 k"
b101 e"
1%
#360000
0%
#375000
b110010 g"
b1111111111111111111111111110011011 j"
b11001 f"
b0 b"
b110 e"
1%
#390000
0%
#405000
b1100100 g"
b1111111111111111111111111100110111 j"
b110010 f"
b111 e"
1%
#420000
0%
#435000
b11001000 g"
b1111111111111111111111111001101111 j"
b1100100 f"
b1000 e"
1%
#450000
0%
#465000
b110010000 g"
b1111111111111111111111110011011111 j"
b11001000 f"
b1001 e"
1%
#480000
0%
#495000
b1100100000 g"
b1111111111111111111111100110111111 j"
b110010000 f"
b1010 e"
1%
#510000
0%
#525000
b11001000000 g"
b1111111111111111111111001101111111 j"
b1100100000 f"
b1011 e"
1%
#540000
0%
#555000
b110010000000 g"
b1111111111111111111110011011111111 j"
b11001000000 f"
b1100 e"
1%
#570000
0%
#585000
b1100100000000 g"
b1111111111111111111100110111111111 j"
b110010000000 f"
b1101 e"
1%
#600000
0%
#615000
b11001000000000 g"
b1111111111111111111001101111111111 j"
b1100100000000 f"
b1110 e"
1%
#630000
0%
#645000
b110010000000000 g"
b1111111111111111110011011111111111 j"
b11001000000000 f"
b1111 e"
1%
#660000
0%
#675000
b1100100000000000 g"
b1111111111111111100110111111111111 j"
b110010000000000 f"
b10000 e"
1%
#690000
0%
#705000
b11001000000000000 g"
b1111111111111111001101111111111111 j"
b1100100000000000 f"
b10001 e"
1%
#720000
0%
#735000
b110010000000000000 g"
b1111111111111110011011111111111111 j"
b11001000000000000 f"
b10010 e"
1%
#750000
0%
#765000
b1100100000000000000 g"
b1111111111111100110111111111111111 j"
b110010000000000000 f"
b10011 e"
1%
#780000
0%
#795000
b11001000000000000000 g"
b1111111111111001101111111111111111 j"
b1100100000000000000 f"
b10100 e"
1%
#810000
0%
#825000
b110010000000000000000 g"
b1111111111110011011111111111111111 j"
b11001000000000000000 f"
b10101 e"
1%
#840000
0%
#855000
b1100100000000000000000 g"
b1111111111100110111111111111111111 j"
b110010000000000000000 f"
b10110 e"
1%
#870000
0%
#885000
b11001000000000000000000 g"
b1111111111001101111111111111111111 j"
b1100100000000000000000 f"
b10111 e"
1%
#900000
0%
#915000
b0 h"
b11001000000000000000000 d
b11001000000000000000000 i"
1e
0d"
1%
#930000
0%
#945000
0""
0:"
0R"
b10 s
1l
b11001000000000000000000 m
b11001000000000000000000 u
b11001000000000000000000 /"
b11001000000000000000000 G"
1%
#960000
0%
#975000
1$"
0*"
b11001000000000000000000 #"
b0 !"
b1 -"
1<"
0B"
b11001000000000000000000 ;"
b0 9"
b1 E"
1T"
1Z"
b11001000000000000000000 S"
b11001000000000000000000 Q"
b1 ]"
0l
1%
#990000
0%
#1005000
b0 P"
b1100100000000000000000000 Y"
b0 8"
b0 A"
b0 ~
b0 )"
b0 O"
b110010000000000000000000 X"
b0 V"
b10 ]"
b0 7"
b0 @"
b0 >"
b10 E"
b0 }
b0 ("
b0 &"
b10 -"
1%
#1020000
0%
#1035000
b11001000000000000000000000 Y"
b1 &"
b1 >"
b1100100000000000000000000 X"
b1 V"
1%
#1050000
0%
#1065000
b110010000000000000000000000 Y"
b11001000000000000000000000 X"
b10 V"
b10 >"
b10 &"
1%
#1080000
0%
#1095000
b1100100000000000000000000000 Y"
b11 &"
b11 >"
b110010000000000000000000000 X"
b11 V"
1%
#1110000
0%
#1125000
b11001000000000000000000000000 Y"
b1100100000000000000000000000 X"
b100 V"
b100 >"
b100 &"
1%
#1140000
0%
#1155000
b110010000000000000000000000000 Y"
b101 &"
b101 >"
b11001000000000000000000000000 X"
b101 V"
1%
#1170000
0%
#1185000
b1100100000000000000000000000000 Y"
b110010000000000000000000000000 X"
b110 V"
b110 >"
b110 &"
1%
#1200000
0%
#1215000
b1 P"
b1001000000000000000000000000000 Y"
b111 &"
b111 >"
b1100100000000000000000000000000 X"
b111 V"
1%
#1230000
0%
#1245000
b11 P"
b10000000000000000000000000000 Y"
b1001000000000000000000000000000 X"
b1 O"
b1000 V"
b1000 >"
b1000 &"
1%
#1260000
0%
#1275000
b110 P"
b100000000000000000000000000000 Y"
b1001 &"
b1001 >"
b10000000000000000000000000000 X"
b11 O"
b1001 V"
1%
#1290000
0%
#1305000
b1100 P"
b1000000000000000000000000000000 Y"
b100000000000000000000000000000 X"
b110 O"
b1010 V"
b1010 >"
b1010 &"
1%
#1320000
0%
#1335000
b11001 P"
b0 Y"
b1011 &"
b1011 >"
b1000000000000000000000000000000 X"
b1100 O"
b1011 V"
1%
#1350000
0%
#1365000
b110010 P"
b0 X"
b11001 O"
b1100 V"
b1100 >"
b1100 &"
1%
#1380000
0%
#1395000
b1100100 P"
b1101 &"
b1101 >"
b110010 O"
b1101 V"
1%
#1410000
0%
#1425000
b11001000 P"
b1100100 O"
b1110 V"
b1110 >"
b1110 &"
1%
#1440000
0%
#1455000
b110010000 P"
b1111 &"
b1111 >"
b11001000 O"
b1111 V"
1%
#1470000
0%
#1485000
b1100100000 P"
b110010000 O"
b10000 V"
b10000 >"
b10000 &"
1%
#1500000
0%
#1515000
b11001000000 P"
b10001 &"
b10001 >"
b1100100000 O"
b10001 V"
1%
#1530000
0%
#1545000
b110010000000 P"
b11001000000 O"
b10010 V"
b10010 >"
b10010 &"
1%
#1560000
0%
#1575000
b1100100000000 P"
b10011 &"
b10011 >"
b110010000000 O"
b10011 V"
1%
#1590000
0%
#1605000
b11001000000000 P"
b1100100000000 O"
b10100 V"
b10100 >"
b10100 &"
1%
#1620000
0%
#1635000
b110010000000000 P"
b10101 &"
b10101 >"
b11001000000000 O"
b10101 V"
1%
#1650000
0%
#1665000
b1100100000000000 P"
b110010000000000 O"
b10110 V"
b10110 >"
b10110 &"
1%
#1680000
0%
#1695000
b11001000000000000 P"
b10111 &"
b10111 >"
b1100100000000000 O"
b10111 V"
1%
#1710000
0%
#1725000
b110010000000000000 P"
b11001000000000000 O"
b11000 V"
b11000 >"
b11000 &"
1%
#1740000
0%
#1755000
b1100100000000000000 P"
b11001 &"
b11001 >"
b110010000000000000 O"
b11001 V"
1%
#1770000
0%
#1785000
b11001000000000000000 P"
b1100100000000000000 O"
b11010 V"
b11010 >"
b11010 &"
1%
#1800000
0%
#1815000
b110010000000000000000 P"
b11011 &"
b11011 >"
b11001000000000000000 O"
b11011 V"
1%
#1830000
0%
#1845000
b1100100000000000000000 P"
b110010000000000000000 O"
b11100 V"
b11100 >"
b11100 &"
1%
#1860000
0%
#1875000
b11001000000000000000000 P"
b11101 &"
b11101 >"
b1100100000000000000000 O"
b11101 V"
1%
#1890000
0%
#1905000
b1 Y"
b0 P"
b11001000000000000000000 O"
b11110 V"
b11110 >"
b11110 &"
1%
#1920000
0%
#1935000
b10 Y"
b11111 &"
b11111 >"
b1 X"
b0 O"
b11111 V"
1%
#1950000
0%
#1965000
b100 Y"
b10 X"
b100000 V"
b100000 >"
b100000 &"
1%
#1980000
0%
#1995000
b1000 Y"
b100001 &"
b100001 >"
b100 X"
b100001 V"
1%
#2010000
0%
#2025000
b10000 Y"
b1000 X"
b100010 V"
b100010 >"
b100010 &"
1%
#2040000
0%
#2055000
b100000 Y"
b100011 &"
b100011 >"
b10000 X"
b100011 V"
1%
#2070000
0%
#2085000
b1000000 Y"
b100000 X"
b100100 V"
b100100 >"
b100100 &"
1%
#2100000
0%
#2115000
b10000000 Y"
b100101 &"
b100101 >"
b1000000 X"
b100101 V"
1%
#2130000
0%
#2145000
b100000000 Y"
b10000000 X"
b100110 V"
b100110 >"
b100110 &"
1%
#2160000
0%
#2175000
b1000000000 Y"
b100111 &"
b100111 >"
b100000000 X"
b100111 V"
1%
#2190000
0%
#2205000
b10000000000 Y"
b1000000000 X"
b101000 V"
b101000 >"
b101000 &"
1%
#2220000
0%
#2235000
b100000000000 Y"
b101001 &"
b101001 >"
b10000000000 X"
b101001 V"
1%
#2250000
0%
#2265000
b1000000000000 Y"
b100000000000 X"
b101010 V"
b101010 >"
b101010 &"
1%
#2280000
0%
#2295000
b10000000000000 Y"
b101011 &"
b101011 >"
b1000000000000 X"
b101011 V"
1%
#2310000
0%
#2325000
b100000000000000 Y"
b10000000000000 X"
b101100 V"
b101100 >"
b101100 &"
1%
#2340000
0%
#2355000
b1000000000000000 Y"
b101101 &"
b101101 >"
b100000000000000 X"
b101101 V"
1%
#2370000
0%
#2385000
b10000000000000000 Y"
b1000000000000000 X"
b101110 V"
b101110 >"
b101110 &"
1%
#2400000
0%
#2415000
b100000000000000000 Y"
b101111 &"
b11 -"
b101111 >"
b11 E"
b10000000000000000 X"
b101111 V"
b11 ]"
1%
#2430000
0%
#2445000
b100 ]"
b100 E"
b100 -"
1%
#2460000
0%
#2475000
1,"
1k
0$"
b0 -"
1D"
1i
0<"
b0 E"
1\"
1g
0T"
b11111111111111110000000000000000 f
b11111111111111110000000000000000 ["
b0 ]"
1%
#2490000
0%
#2505000
b0 s
1?
b11111111111111110000000000000000 <
b11111111111111110000000000000000 p
b0 =
b0 o
b0 >
b0 n
1%
#2520000
0%
#2535000
b10 `
1\
b0 X
b0 S
b11001000000000000000000 [
b11001000000000000000000 p"
b0 Z
b0 o"
b0 Y
b0 n"
b11111111111111110000000000000000 M
b0 L
b0 K
1%
#2550000
0%
#2565000
0\
b11 (#
b0 $#
b11111111111100000000000000000000 !#
b1100100000000000000000 &#
b1110000000000000000 ##
b0 ~"
b1100100000000000000000 %#
b11111111111110010000000000000000 "#
1%
#2580000
0%
#2595000
b1 (#
b1001111101010000000000000000 z"
b1001111101010000000000000000 8#
1|"
1%
#2610000
0%
#2625000
b0 P#
b0xxxx L#
bx0000 U#
b0 A#
b0 =#
b10011111010100000000000000000000 F#
b1111111111111111111111111111111111 D#
b0 2#
b0xxxx .#
bx0000 7#
0|"
b0xx K#
bx00 T#
b0 O#
b0 N#
0q"
1M#
b0 <#
b100111110101000000000000000000 E#
b0 @#
b0 ?#
0s"
1>#
b0xx -#
bx00 6#
b0 1#
b0 0#
0u"
1/#
1%
#2640000
0%
#2655000
b0xxxxxx .#
bx000000 7#
b10 =#
b1111101010000000000000000000000 F#
b0xxxxxx L#
bx000000 U#
b0xxxx -#
bx0000 6#
b1 0#
b10011111010100000000000000000000 E#
b1 ?#
b0xxxx K#
bx0000 T#
b1 N#
1%
#2670000
0%
#2685000
b0xxxxxxxx L#
bx00000000 U#
b1 A#
b101 =#
b11110101000000000000000000000000 F#
b1 D#
b0xxxxxxxx .#
bx00000000 7#
b0xxxxxx K#
bx000000 T#
b10 N#
b10 <#
b1111101010000000000000000000000 E#
b10 ?#
b0xxxxxx -#
bx000000 6#
b10 0#
1%
#2700000
0%
#2715000
b0xxxxxxxxxx .#
bx0000000000 7#
b11 A#
b11 =#
b11010100000000000000000000000000 F#
b0 D#
b0xxxxxxxxxx L#
bx0000000000 U#
b0xxxxxxxx -#
bx00000000 6#
b11 0#
b1 @#
b101 <#
b11110101000000000000000000000000 E#
b11 ?#
b0xxxxxxxx K#
bx00000000 T#
b11 N#
1%
#2730000
0%
#2745000
b0xxxxxxxxxxxx L#
bx000000000000 U#
b110 A#
b1111 =#
b1010000000000000000000000000000 F#
b1111111111111111111111111111110110 D#
b0xxxxxxxxxxxx .#
bx000000000000 7#
b0xxxxxxxxxx K#
bx0000000000 T#
b100 N#
b11 @#
b11 <#
b11010100000000000000000000000000 E#
b100 ?#
b0xxxxxxxxxx -#
bx0000000000 6#
b100 0#
1%
#2760000
0%
#2775000
b0xxxxxxxxxxxxxx .#
bx00000000000000 7#
b1100 A#
b111101 =#
b1000000000000000000000000000000 F#
b0xxxxxxxxxxxxxx L#
bx00000000000000 U#
b0xxxxxxxxxxxx -#
bx000000000000 6#
b101 0#
b110 @#
b1111 <#
b1010000000000000000000000000000 E#
b101 ?#
b0xxxxxxxxxxxx K#
bx000000000000 T#
b101 N#
1%
#2790000
0%
#2805000
b0xxxxxxxxxxxxxxxx L#
bx0000000000000000 U#
b11001 A#
b110001 =#
b0 F#
b1100 D#
b0xxxxxxxxxxxxxxxx .#
bx0000000000000000 7#
b0xxxxxxxxxxxxxx K#
bx00000000000000 T#
b110 N#
b1100 @#
b111101 <#
b1000000000000000000000000000000 E#
b110 ?#
b0xxxxxxxxxxxxxx -#
bx00000000000000 6#
b110 0#
1%
#2820000
0%
#2835000
b0xxxxxxxxxxxxxxxxxx .#
bx000000000000000000 7#
b110010 A#
b11000100 =#
b1111111111111111111111111111001100 D#
b0xxxxxxxxxxxxxxxxxx L#
bx000000000000000000 U#
b0xxxxxxxxxxxxxxxx -#
bx0000000000000000 6#
b111 0#
b11001 @#
b110001 <#
b0 E#
b111 ?#
b0xxxxxxxxxxxxxxxx K#
bx0000000000000000 T#
b111 N#
1%
#2850000
0%
#2865000
b0xxxxxxxxxxxxxxxxxxxx L#
bx00000000000000000000 U#
b1100100 A#
b1100010000 =#
b1111111111111111111111111111111011 D#
b0xxxxxxxxxxxxxxxxxxxx .#
bx00000000000000000000 7#
b0xxxxxxxxxxxxxxxxxx K#
bx000000000000000000 T#
b1000 N#
b110010 @#
b11000100 <#
b1000 ?#
b0xxxxxxxxxxxxxxxxxx -#
bx000000000000000000 6#
b1000 0#
1%
#2880000
0%
#2895000
b0xxxxxxxxxxxxxxxxxxxxxx .#
bx0000000000000000000000 7#
b11001001 A#
b10111111100 =#
b101111111 D#
b0xxxxxxxxxxxxxxxxxxxxxx L#
bx0000000000000000000000 U#
b0xxxxxxxxxxxxxxxxxxxx -#
bx00000000000000000000 6#
b1001 0#
b1100100 @#
b1100010000 <#
b1001 ?#
b0xxxxxxxxxxxxxxxxxxxx K#
bx00000000000000000000 T#
b1001 N#
1%
#2910000
0%
#2925000
b0xxxxxxxxxxxxxxxxxxxxxxxx L#
bx000000000000000000000000 U#
b110010011 A#
b101101011100 =#
b1011010111 D#
b0xxxxxxxxxxxxxxxxxxxxxxxx .#
bx000000000000000000000000 7#
b0xxxxxxxxxxxxxxxxxxxxxx K#
bx0000000000000000000000 T#
b1010 N#
b11001001 @#
b10111111100 <#
b1010 ?#
b0xxxxxxxxxxxxxxxxxxxxxx -#
bx0000000000000000000000 6#
b1010 0#
1%
#2940000
0%
