raymarcher.vcd
$date
	Wed Oct 18 17:57:56 2023
$end
$version
	Icarus Verilog
$end
$timescale
	1ps
$end
$scope module tb $end
$var wire 8 ! red_out [7:0] $end
$var wire 1 " pixel_done $end
$var wire 8 # green_out [7:0] $end
$var wire 8 $ blue_out [7:0] $end
$var reg 24 % a [23:0] $end
$var reg 24 & b [23:0] $end
$var reg 24 ' c [23:0] $end
$var reg 1 ( clk_in $end
$var reg 1 ) rst_in $end
$var reg 33 * x_in [32:0] $end
$var reg 33 + y_in [32:0] $end
$scope module raym $end
$var wire 1 ( clk_pixel_in $end
$var wire 9 , curr_x [8:0] $end
$var wire 9 - curr_y [8:0] $end
$var wire 1 ) rst_in $end
$var wire 32 . sdf_out [31:0] $end
$var wire 1 / sdf_done $end
$var wire 32 0 ray_gen_out_z [31:0] $end
$var wire 32 1 ray_gen_out_y [31:0] $end
$var wire 32 2 ray_gen_out_x [31:0] $end
$var wire 1 3 ray_gen_done $end
$var parameter 32 4 EPSILON $end
$var parameter 32 5 HEIGHT $end
$var parameter 32 6 MAX_DIST_SQUARE $end
$var parameter 32 7 MAX_STEPS $end
$var parameter 32 8 WIDTH $end
$var reg 8 9 blue_out [7:0] $end
$var reg 32 : dir_x [31:0] $end
$var reg 32 ; dir_y [31:0] $end
$var reg 32 < dir_z [31:0] $end
$var reg 8 = green_out [7:0] $end
$var reg 1 " pixel_done $end
$var reg 32 > ray_gen_in_x [31:0] $end
$var reg 32 ? ray_gen_in_y [31:0] $end
$var reg 32 @ ray_gen_in_z [31:0] $end
$var reg 1 A ray_gen_start $end
$var reg 8 B ray_steps [7:0] $end
$var reg 32 C ray_x [31:0] $end
$var reg 32 D ray_y [31:0] $end
$var reg 32 E ray_z [31:0] $end
$var reg 8 F red_out [7:0] $end
$var reg 1 G sdf_start $end
$var integer 32 H state [31:0] $end
$scope module ray_gen_inst $end
$var wire 1 ( clk_in $end
$var wire 32 I ray_gen_in_x [31:0] $end
$var wire 32 J ray_gen_in_y [31:0] $end
$var wire 32 K ray_gen_in_z [31:0] $end
$var wire 1 A ray_gen_start $end
$var wire 1 ) rst_in $end
$var wire 32 L sqrt_out [31:0] $end
$var wire 1 M sqrt_done $end
$var wire 32 N div_z_out [31:0] $end
$var wire 1 O div_z_done $end
$var wire 32 P div_y_out [31:0] $end
$var wire 1 Q div_y_done $end
$var wire 32 R div_x_out [31:0] $end
$var wire 1 S div_x_done $end
$var reg 1 T div_start $end
$var reg 1 U div_x_set $end
$var reg 1 V div_y_set $end
$var reg 1 W div_z_set $end
$var reg 32 X norm [31:0] $end
$var reg 1 Y processing $end
$var reg 1 3 ray_gen_done $end
$var reg 32 Z ray_gen_out_x [31:0] $end
$var reg 32 [ ray_gen_out_y [31:0] $end
$var reg 32 \ ray_gen_out_z [31:0] $end
$var reg 32 ] sqrt_in [31:0] $end
$var reg 1 ^ sqrt_start $end
$scope module divx $end
$var wire 32 _ a [31:0] $end
$var wire 32 ` b [31:0] $end
$var wire 1 ( clk $end
$var wire 1 ) rst $end
$var wire 1 T start $end
$var parameter 32 a FBITS $end
$var parameter 32 b FBITSW $end
$var parameter 34 c ITER $end
$var parameter 32 d SMALLEST $end
$var parameter 32 e WIDTH $end
$var parameter 33 f WIDTHU $end
$var reg 1 g a_sig $end
$var reg 32 h acc [31:0] $end
$var reg 32 i acc_next [31:0] $end
$var reg 31 j au [30:0] $end
$var reg 1 k b_sig $end
$var reg 31 l bu [30:0] $end
$var reg 1 m busy $end
$var reg 1 n dbz $end
$var reg 1 S done $end
$var reg 7 o i [6:0] $end
$var reg 1 p ovf $end
$var reg 31 q quo [30:0] $end
$var reg 31 r quo_next [30:0] $end
$var reg 1 s sig_diff $end
$var reg 32 t val [31:0] $end
$var reg 1 u valid $end
$var integer 32 v state [31:0] $end
$upscope $end
$scope module divy $end
$var wire 32 w a [31:0] $end
$var wire 32 x b [31:0] $end
$var wire 1 ( clk $end
$var wire 1 ) rst $end
$var wire 1 T start $end
$var parameter 32 y FBITS $end
$var parameter 32 z FBITSW $end
$var parameter 34 { ITER $end
$var parameter 32 | SMALLEST $end
$var parameter 32 } WIDTH $end
$var parameter 33 ~ WIDTHU $end
$var reg 1 !" a_sig $end
$var reg 32 "" acc [31:0] $end
$var reg 32 #" acc_next [31:0] $end
$var reg 31 $" au [30:0] $end
$var reg 1 %" b_sig $end
$var reg 31 &" bu [30:0] $end
$var reg 1 '" busy $end
$var reg 1 (" dbz $end
$var reg 1 Q done $end
$var reg 7 )" i [6:0] $end
$var reg 1 *" ovf $end
$var reg 31 +" quo [30:0] $end
$var reg 31 ," quo_next [30:0] $end
$var reg 1 -" sig_diff $end
$var reg 32 ." val [31:0] $end
$var reg 1 /" valid $end
$var integer 32 0" state [31:0] $end
$upscope $end
$scope module divz $end
$var wire 32 1" a [31:0] $end
$var wire 32 2" b [31:0] $end
$var wire 1 ( clk $end
$var wire 1 ) rst $end
$var wire 1 T start $end
$var parameter 32 3" FBITS $end
$var parameter 32 4" FBITSW $end
$var parameter 34 5" ITER $end
$var parameter 32 6" SMALLEST $end
$var parameter 32 7" WIDTH $end
$var parameter 33 8" WIDTHU $end
$var reg 1 9" a_sig $end
$var reg 32 :" acc [31:0] $end
$var reg 32 ;" acc_next [31:0] $end
$var reg 31 <" au [30:0] $end
$var reg 1 =" b_sig $end
$var reg 31 >" bu [30:0] $end
$var reg 1 ?" busy $end
$var reg 1 @" dbz $end
$var reg 1 O done $end
$var reg 7 A" i [6:0] $end
$var reg 1 B" ovf $end
$var reg 31 C" quo [30:0] $end
$var reg 31 D" quo_next [30:0] $end
$var reg 1 E" sig_diff $end
$var reg 32 F" val [31:0] $end
$var reg 1 G" valid $end
$var integer 32 H" state [31:0] $end
$upscope $end
$scope module sqrt_inst $end
$var wire 1 ( clk $end
$var wire 32 I" rad [31:0] $end
$var wire 1 ^ start $end
$var parameter 32 J" FBITS $end
$var parameter 32 K" ITER $end
$var parameter 32 L" WIDTH $end
$var reg 34 M" ac [33:0] $end
$var reg 34 N" ac_next [33:0] $end
$var reg 1 O" busy $end
$var reg 5 P" i [4:0] $end
$var reg 32 Q" q [31:0] $end
$var reg 32 R" q_next [31:0] $end
$var reg 32 S" rem [31:0] $end
$var reg 32 T" root [31:0] $end
$var reg 34 U" test_res [33:0] $end
$var reg 1 M valid $end
$var reg 32 V" x [31:0] $end
$var reg 32 W" x_next [31:0] $end
$upscope $end
$upscope $end
$scope module sdf_inst $end
$var wire 1 ( clk_in $end
$var wire 1 ) rst_in $end
$var wire 1 G sdf_start $end
$var wire 32 X" x [31:0] $end
$var wire 32 Y" y [31:0] $end
$var wire 32 Z" z [31:0] $end
$var reg 1 / sdf_done $end
$var reg 32 [" sdf_out [31:0] $end
$upscope $end
$upscope $end
$scope begin $ivl_for_loop0 $end
$var integer 32 \" i [31:0] $end
$upscope $end
$upscope $end
$enddefinitions $end
$comment Show the parameter values. $end
$dumpall
b100000 L"
b10100 K"
b1000 J"
b11111 8"
b100000 7"
b10000000000000000000000000000000 6"
b100111 5"
b1000 4"
b1000 3"
b11111 ~
b100000 }
b10000000000000000000000000000000 |
b100111 {
b1000 z
b1000 y
b11111 f
b100000 e
b10000000000000000000000000000000 d
b100111 c
b1000 b
b1000 a
b100101100 8
b1100100 7
b1000000000000000 6
b100101100 5
b10000 4
$end
#0
$dumpvars
b0 \"
bx ["
bx Z"
bx Y"
bx X"
bx00 W"
bx V"
bx U"
bx T"
bx S"
bx0 R"
bx Q"
bx P"
xO"
bx N"
bx M"
bx I"
b0 H"
xG"
bx F"
xE"
bx0 D"
bx C"
xB"
bx A"
x@"
x?"
bx >"
x="
bx <"
bx ;"
bx :"
x9"
bx 2"
bx 1"
b0 0"
x/"
bx ."
x-"
bx0 ,"
bx +"
x*"
bx )"
x("
x'"
bx &"
x%"
bx $"
bx #"
bx ""
x!"
bx x
bx w
b0 v
xu
bx t
xs
bx0 r
bx q
xp
bx o
xn
xm
bx l
xk
bx j
bx i
bx h
xg
bx `
bx _
x^
bx ]
bx \
bx [
bx Z
xY
bx X
xW
xV
xU
xT
xS
bx R
xQ
bx P
xO
bx N
xM
bx L
bx K
bx J
bx I
b0 H
0G
bx F
bx E
bx D
bx C
bx B
0A
bx @
bx ?
bx >
bx =
bx <
bx ;
bx :
bx 9
x3
bx 2
bx 1
bx 0
x/
bx .
b100101100 -
b100101100 ,
b100101100 +
b100101100 *
0)
0(
bx '
bx &
bx %
bx $
bx #
1"
bx !
$end
#5000
0"
0/
0S
0Q
0O
0T
0^
b1 H
b0 B
1(
#10000
0(
1)
#15000
1"
b0 H
03
0Y
b0 N
b0 F"
0B"
0@"
0G"
0?"
b0 P
b0 ."
0*"
0("
0/"
0'"
b0 R
b0 t
0p
0n
0u
0m
1(
#20000
0(
0)
#25000
0"
b1 H
1(
#30000
0(
b0 '
b1000000000000 &
b111111111111000000000000 %
#35000
1A
09"
0!"
0g
b11 H
b1001011000000000 @
b1001011000000000 K
b1001011000000000 1"
b1001011000000000 ?
b1001011000000000 J
b1001011000000000 w
b1001011000000000 >
b1001011000000000 I
b1001011000000000 _
1(
#40000
0(
#45000
1^
b1000001111010110000000000 ]
b1000001111010110000000000 I"
1Y
1(
#50000
0(
b1 \"
#55000
b0 R"
b0 N"
b10000011110101100000000000000 W"
b1111111111111111111111111111111111 U"
0^
b0 M"
b100000111101011000000000000 V"
b0 Q"
b0 P"
0M
1O"
1(
#60000
0(
b10 \"
#65000
b1000001111010110000000000000000 W"
b10000011110101100000000000000 V"
b1 P"
1(
#70000
0(
b11 \"
#75000
b1 N"
b111101011000000000000000000 W"
b1000001111010110000000000000000 V"
b10 P"
1(
#80000
0(
b100 \"
#85000
b1 R"
b0 N"
b11110101100000000000000000000 W"
b0 U"
b1 M"
b111101011000000000000000000 V"
b11 P"
1(
#90000
0(
b101 \"
#95000
b10 R"
b1111010110000000000000000000000 W"
b1111111111111111111111111111111011 U"
b1 Q"
b0 M"
b11110101100000000000000000000 V"
b100 P"
1(
#100000
0(
b110 \"
#105000
b100 R"
b1 N"
b11101011000000000000000000000000 W"
b1111111111111111111111111111110111 U"
b10 Q"
b1111010110000000000000000000000 V"
b101 P"
1(
#110000
0(
b111 \"
#115000
b1000 R"
b111 N"
b10101100000000000000000000000000 W"
b1111111111111111111111111111110000 U"
b100 Q"
b1 M"
b11101011000000000000000000000000 V"
b110 P"
1(
#120000
0(
b1000 \"
#125000
b10000 R"
b11110 N"
b10110000000000000000000000000000 W"
b1111111111111111111111111111100110 U"
b1000 Q"
b111 M"
b10101100000000000000000000000000 V"
b111 P"
1(
#130000
0(
b1001 \"
#135000
b100000 R"
b1111010 N"
b11000000000000000000000000000000 W"
b1111111111111111111111111111011101 U"
b10000 Q"
b11110 M"
b10110000000000000000000000000000 V"
b1000 P"
1(
#140000
0(
b1010 \"
#145000
b1000000 R"
b111101011 N"
b0 W"
b1111111111111111111111111111111001 U"
b100000 Q"
b1111010 M"
b11000000000000000000000000000000 V"
b1001 P"
1(
#150000
0(
b1011 \"
#155000
b10000001 R"
b1110101000 N"
b11101010 U"
b1000000 Q"
b111101011 M"
b0 V"
b1010 P"
1(
#160000
0(
b1100 \"
#165000
b100000011 R"
b11010001100 N"
b110100011 U"
b10000001 Q"
b1110101000 M"
b1011 P"
1(
#170000
0(
b1101 \"
#175000
b1000000111 R"
b100111111100 N"
b1001111111 U"
b100000011 Q"
b11010001100 M"
b1100 P"
1(
#180000
0(
b1110 \"
#185000
b10000001111 R"
b11101111100 N"
b111011111 U"
b1000000111 Q"
b100111111100 M"
b1101 P"
1(
#190000
0(
b1111 \"
#195000
b100000011110 R"
b1110111110000 N"
b1111111111111111111111011100111111 U"
b10000001111 Q"
b11101111100 M"
b1110 P"
1(
#200000
0(
b10000 \"
#205000
b1000000111100 R"
b111011111000000 N"
b1111111111111111111111110101110111 U"
b100000011110 Q"
b1110111110000 M"
b1111 P"
1(
#210000
0(
b10001 \"
#215000
b10000001111001 R"
b1101101100111100 N"
b11011011001111 U"
b1000000111100 Q"
b111011111000000 M"
b10000 P"
1(
#220000
0(
b10010 \"
#225000
b100000011110011 R"
b10110010101011100 N"
b101100101010111 U"
b10000001111001 Q"
b1101101100111100 M"
b10001 P"
1(
#230000
0(
b10011 \"
#235000
b1000000111100111 R"
b11000011000111100 N"
b110000110001111 U"
b100000011110011 Q"
b10110010101011100 M"
b10010 P"
1(
#240000
0(
b10100 \"
#245000
b10000001111001110 R"
b1100001100011110000 N"
b1111111111111111110111111010011111 U"
b1000000111100111 Q"
b11000011000111100 M"
b10011 P"
1(
#250000
0(
b10101 \"
#255000
b11000011000111100 S"
b10000001111001110 L
b10000001111001110 T"
1M
0O"
1(
#260000
0(
b10110 \"
#265000
0k
0%"
0="
0W
0V
0U
1T
b10000001111001110 X
b10000001111001110 `
b10000001111001110 x
b10000001111001110 2"
1(
#270000
0(
b10111 \"
#275000
1?"
0E"
b10000001111001110 >"
b1001011000000000 <"
b1 H"
1'"
0-"
b10000001111001110 &"
b1001011000000000 $"
b1 0"
1m
0s
b10000001111001110 l
b1001011000000000 j
b1 v
1(
#280000
0(
b11000 \"
#285000
b0 i
b100101100000000000 r
b0 #"
b100101100000000000 ,"
b0 ;"
b100101100000000000 D"
b0 h
b10010110000000000 q
b0 o
b10 v
b0 ""
b10010110000000000 +"
b0 )"
b10 0"
b0 :"
b10010110000000000 C"
b0 A"
b10 H"
1(
#290000
0(
b11001 \"
#295000
b1001011000000000000 D"
b1001011000000000000 ,"
b1001011000000000000 r
b100101100000000000 C"
b1 A"
b100101100000000000 +"
b1 )"
b100101100000000000 q
b1 o
1(
#300000
0(
b11010 \"
#305000
b10010110000000000000 r
b10010110000000000000 ,"
b10010110000000000000 D"
b1001011000000000000 q
b10 o
b1001011000000000000 +"
b10 )"
b1001011000000000000 C"
b10 A"
1(
#310000
0(
b11011 \"
#315000
b100101100000000000000 D"
b100101100000000000000 ,"
b100101100000000000000 r
b10010110000000000000 C"
b11 A"
b10010110000000000000 +"
b11 )"
b10010110000000000000 q
b11 o
1(
#320000
0(
b11100 \"
#325000
b1001011000000000000000 r
b1001011000000000000000 ,"
b1001011000000000000000 D"
b100101100000000000000 q
b100 o
b100101100000000000000 +"
b100 )"
b100101100000000000000 C"
b100 A"
1(
#330000
0(
b11101 \"
#335000
b10010110000000000000000 D"
b10010110000000000000000 ,"
b10010110000000000000000 r
b1001011000000000000000 C"
b101 A"
b1001011000000000000000 +"
b101 )"
b1001011000000000000000 q
b101 o
1(
#340000
0(
b11110 \"
#345000
b100101100000000000000000 r
b100101100000000000000000 ,"
b100101100000000000000000 D"
b10010110000000000000000 q
b110 o
b10010110000000000000000 +"
b110 )"
b10010110000000000000000 C"
b110 A"
1(
#350000
0(
b11111 \"
#355000
b1001011000000000000000000 D"
b1001011000000000000000000 ,"
b1001011000000000000000000 r
b100101100000000000000000 C"
b111 A"
b100101100000000000000000 +"
b111 )"
b100101100000000000000000 q
b111 o
1(
#360000
0(
b100000 \"
#365000
b10010110000000000000000000 r
b10010110000000000000000000 ,"
b10010110000000000000000000 D"
b1001011000000000000000000 q
b1000 o
b1001011000000000000000000 +"
b1000 )"
b1001011000000000000000000 C"
b1000 A"
1(
#370000
0(
b100001 \"
#375000
b100101100000000000000000000 D"
b100101100000000000000000000 ,"
b100101100000000000000000000 r
b10010110000000000000000000 C"
b1001 A"
b10010110000000000000000000 +"
b1001 )"
b10010110000000000000000000 q
b1001 o
1(
#380000
0(
b100010 \"
#385000
b1001011000000000000000000000 r
b1001011000000000000000000000 ,"
b1001011000000000000000000000 D"
b100101100000000000000000000 q
b1010 o
b100101100000000000000000000 +"
b1010 )"
b100101100000000000000000000 C"
b1010 A"
1(
#390000
0(
b100011 \"
#395000
b10010110000000000000000000000 D"
b10010110000000000000000000000 ,"
b10010110000000000000000000000 r
b1001011000000000000000000000 C"
b1011 A"
b1001011000000000000000000000 +"
b1011 )"
b1001011000000000000000000000 q
b1011 o
1(
#400000
0(
b100100 \"
#405000
b100101100000000000000000000000 r
b100101100000000000000000000000 ,"
b100101100000000000000000000000 D"
b10010110000000000000000000000 q
b1100 o
b10010110000000000000000000000 +"
b1100 )"
b10010110000000000000000000000 C"
b1100 A"
1(
#410000
0(
b100101 \"
#415000
b1001011000000000000000000000000 D"
b1001011000000000000000000000000 ,"
b1001011000000000000000000000000 r
b100101100000000000000000000000 C"
b1101 A"
b100101100000000000000000000000 +"
b1101 )"
b100101100000000000000000000000 q
b1101 o
1(
#420000
0(
b100110 \"
#425000
b1 i
b10110000000000000000000000000 r
b1 #"
b10110000000000000000000000000 ,"
b1 ;"
b10110000000000000000000000000 D"
b1001011000000000000000000000000 q
b1110 o
b1001011000000000000000000000000 +"
b1110 )"
b1001011000000000000000000000000 C"
b1110 A"
1(
#430000
0(
b100111 \"
#435000
b10 ;"
b101100000000000000000000000000 D"
b10 #"
b101100000000000000000000000000 ,"
b10 i
b101100000000000000000000000000 r
b10110000000000000000000000000 C"
b1 :"
b1111 A"
b10110000000000000000000000000 +"
b1 ""
b1111 )"
b10110000000000000000000000000 q
b1 h
b1111 o
1(
#440000
0(
b101000 \"
#445000
b100 i
b1011000000000000000000000000000 r
b100 #"
b1011000000000000000000000000000 ,"
b100 ;"
b1011000000000000000000000000000 D"
b101100000000000000000000000000 q
b10 h
b10000 o
b101100000000000000000000000000 +"
b10 ""
b10000 )"
b101100000000000000000000000000 C"
b10 :"
b10000 A"
1(
#450000
0(
b101001 \"
#455000
b1001 ;"
b110000000000000000000000000000 D"
b1001 #"
b110000000000000000000000000000 ,"
b1001 i
b110000000000000000000000000000 r
b1011000000000000000000000000000 C"
b100 :"
b10001 A"
b1011000000000000000000000000000 +"
b100 ""
b10001 )"
b1011000000000000000000000000000 q
b100 h
b10001 o
1(
#460000
0(
b101010 \"
#465000
b10010 i
b1100000000000000000000000000000 r
b10010 #"
b1100000000000000000000000000000 ,"
b10010 ;"
b1100000000000000000000000000000 D"
b110000000000000000000000000000 q
b1001 h
b10010 o
b110000000000000000000000000000 +"
b1001 ""
b10010 )"
b110000000000000000000000000000 C"
b1001 :"
b10010 A"
1(
#470000
0(
b101011 \"
#475000
b100101 ;"
b1000000000000000000000000000000 D"
b100101 #"
b1000000000000000000000000000000 ,"
b100101 i
b1000000000000000000000000000000 r
b1100000000000000000000000000000 C"
b10010 :"
b10011 A"
b1100000000000000000000000000000 +"
b10010 ""
b10011 )"
b1100000000000000000000000000000 q
b10010 h
b10011 o
1(
#480000
0(
b101100 \"
#485000
b1001011 i
b0 r
b1001011 #"
b0 ,"
b1001011 ;"
b0 D"
b1000000000000000000000000000000 q
b100101 h
b10100 o
b1000000000000000000000000000000 +"
b100101 ""
b10100 )"
b1000000000000000000000000000000 C"
b100101 :"
b10100 A"
1(
#490000
0(
b101101 \"
#495000
b10010110 ;"
b10010110 #"
b10010110 i
b0 C"
b1001011 :"
b10101 A"
b0 +"
b1001011 ""
b10101 )"
b0 q
b1001011 h
b10101 o
1(
#500000
0(
b101110 \"
#505000
b100101100 i
b100101100 #"
b100101100 ;"
b10010110 h
b10110 o
b10010110 ""
b10110 )"
b10010110 :"
b10110 A"
1(
#510000
0(
b101111 \"
#515000
b1001011000 ;"
b1001011000 #"
b1001011000 i
b100101100 :"
b10111 A"
b100101100 ""
b10111 )"
b100101100 h
b10111 o
1(
#520000
0(
b110000 \"
#525000
b10010110000 i
b10010110000 #"
b10010110000 ;"
b1001011000 h
b11000 o
b1001011000 ""
b11000 )"
b1001011000 :"
b11000 A"
1(
#530000
0(
b110001 \"
#535000
b100101100000 ;"
b100101100000 #"
b100101100000 i
b10010110000 :"
b11001 A"
b10010110000 ""
b11001 )"
b10010110000 h
b11001 o
1(
#540000
0(
b110010 \"
#545000
b1001011000000 i
b1001011000000 #"
b1001011000000 ;"
b100101100000 h
b11010 o
b100101100000 ""
b11010 )"
b100101100000 :"
b11010 A"
1(
#550000
0(
b110011 \"
#555000
b10010110000000 ;"
b10010110000000 #"
b10010110000000 i
b1001011000000 :"
b11011 A"
b1001011000000 ""
b11011 )"
b1001011000000 h
b11011 o
1(
#560000
0(
b110100 \"
#565000
b100101100000000 i
b100101100000000 #"
b100101100000000 ;"
b10010110000000 h
b11100 o
b10010110000000 ""
b11100 )"
b10010110000000 :"
b11100 A"
1(
#570000
0(
b110101 \"
#575000
b1001011000000000 ;"
b1001011000000000 #"
b1001011000000000 i
b100101100000000 :"
b11101 A"
b100101100000000 ""
b11101 )"
b100101100000000 h
b11101 o
1(
#580000
0(
b110110 \"
#585000
b10010110000000000 i
b10010110000000000 #"
b10010110000000000 ;"
b1001011000000000 h
b11110 o
b1001011000000000 ""
b11110 )"
b1001011000000000 :"
b11110 A"
1(
#590000
0(
b110111 \"
#595000
b1 D"
b101000001100100 ;"
b1 ,"
b101000001100100 #"
b1 r
b101000001100100 i
b10010110000000000 :"
b11111 A"
b10010110000000000 ""
b11111 )"
b10010110000000000 h
b11111 o
1(
#600000
0(
b111000 \"
#605000
b1010000011001000 i
b10 r
b1010000011001000 #"
b10 ,"
b1010000011001000 ;"
b10 D"
b1 q
b101000001100100 h
b100000 o
b1 +"
b101000001100100 ""
b100000 )"
b1 C"
b101000001100100 :"
b100000 A"
1(
#610000
0(
b111001 \"
#615000
b10100000110010000 ;"
b100 D"
b10100000110010000 #"
b100 ,"
b10100000110010000 i
b100 r
b10 C"
b1010000011001000 :"
b100001 A"
b10 +"
b1010000011001000 ""
b100001 )"
b10 q
b1010000011001000 h
b100001 o
1(
#620000
0(
b111010 \"
#625000
b1001 r
b111101110000100 i
b1001 ,"
b111101110000100 #"
b1001 D"
b111101110000100 ;"
b100 q
b10100000110010000 h
b100010 o
b100 +"
b10100000110010000 ""
b100010 )"
b100 C"
b10100000110010000 :"
b100010 A"
1(
#630000
0(
b111011 \"
#635000
b1111011100001000 ;"
b10010 D"
b1111011100001000 #"
b10010 ,"
b1111011100001000 i
b10010 r
b1001 C"
b111101110000100 :"
b100011 A"
b1001 +"
b111101110000100 ""
b100011 )"
b1001 q
b111101110000100 h
b100011 o
1(
#640000
0(
b111100 \"
#645000
b11110111000010000 i
b100100 r
b11110111000010000 #"
b100100 ,"
b11110111000010000 ;"
b100100 D"
b10010 q
b1111011100001000 h
b100100 o
b10010 +"
b1111011100001000 ""
b100100 )"
b10010 C"
b1111011100001000 :"
b100100 A"
1(
#650000
0(
b111101 \"
#655000
b1001001 D"
b11101010010000100 ;"
b1001001 ,"
b11101010010000100 #"
b1001001 r
b11101010010000100 i
b100100 C"
b11110111000010000 :"
b100101 A"
b100100 +"
b11110111000010000 ""
b100101 )"
b100100 q
b11110111000010000 h
b100101 o
1(
#660000
0(
b111110 \"
#665000
b10010011 r
b11010000101101100 i
b10010011 ,"
b11010000101101100 #"
b10010011 D"
b11010000101101100 ;"
b1001001 q
b11101010010000100 h
b100110 o
b1001001 +"
b11101010010000100 ""
b100110 )"
b1001001 C"
b11101010010000100 :"
b100110 A"
1(
#670000
0(
b111111 \"
#675000
b100100111 D"
b10011101100111100 ;"
b100100111 ,"
b10011101100111100 #"
b100100111 r
b10011101100111100 i
b10010011 C"
b11010000101101100 :"
b100111 A"
b11 H"
b10010011 +"
b11010000101101100 ""
b100111 )"
b11 0"
b10010011 q
b11010000101101100 h
b100111 o
b11 v
1(
#680000
0(
b1000000 \"
#685000
b100101001 r
b10011101100111100 i
b100101001 ,"
b10011101100111100 #"
b100101001 D"
b10011101100111100 ;"
b10010100 q
b100 v
b10010100 +"
b100 0"
b10010100 C"
b100 H"
1(
#690000
0(
b1000001 \"
#695000
1G"
1O
0?"
b10010100 N
b10010100 F"
b0 H"
1/"
1Q
0'"
b10010100 P
b10010100 ."
b0 0"
1u
1S
0m
b10010100 R
b10010100 t
b0 v
1(
#700000
0(
b1000010 \"
#705000
1m
b1 v
0u
0S
1'"
b1 0"
0/"
0Q
1?"
b1 H"
0G"
0O
1W
b10010100 0
b10010100 \
1V
b10010100 1
b10010100 [
1U
b10010100 2
b10010100 Z
1(
#710000
0(
b1000011 \"
#715000
b0 ;"
b100101100000000000 D"
b0 #"
b100101100000000000 ,"
b0 i
b100101100000000000 r
13
0Y
0W
0V
0U
b0 :"
b10010110000000000 C"
b0 A"
b10 H"
b0 ""
b10010110000000000 +"
b0 )"
b10 0"
b0 h
b10010110000000000 q
b0 o
b10 v
1(
#720000
0(
b1000100 \"
#725000
b1001011000000000000 r
b1001011000000000000 ,"
b1001011000000000000 D"
1G
0A
b100101100000000000 q
b1 o
b100101100000000000 +"
b1 )"
b100101100000000000 C"
b1 A"
03
1^
1Y
b10 H
b0 E
b0 Z"
b0 D
b0 Y"
b0 C
b0 X"
b10010100 <
b10010100 ;
b10010100 :
1(
#730000
0(
b1000101 \"
#735000
b10010110000000000000 D"
b10010110000000000000 ,"
b10010110000000000000 r
b0 R"
b0 N"
b10000011110101100000000000000 W"
b1111111111111111111111111111111111 U"
0G
0^
b1001011000000000000 C"
b10 A"
b1001011000000000000 +"
b10 )"
b1001011000000000000 q
b10 o
b0 M"
b100000111101011000000000000 V"
b0 Q"
b0 P"
0M
1O"
1/
b1001010100000000 .
b1001010100000000 ["
1(
#740000
0(
b1000110 \"
#745000
b1000001111010110000000000000000 W"
b100101100000000000000 r
b100101100000000000000 ,"
b100101100000000000000 D"
0/
b10000011110101100000000000000 V"
b1 P"
b10010110000000000000 q
b11 o
b10010110000000000000 +"
b11 )"
b10010110000000000000 C"
b11 A"
0T
b100 H
1(
#750000
0(
b1000111 \"
#755000
1G
b1001011000000000000000 D"
b1001011000000000000000 ,"
b1001011000000000000000 r
b1 N"
b111101011000000000000000000 W"
b10 H
b1 B
b101011000100100 E
b101011000100100 Z"
b101011000100100 D
b101011000100100 Y"
b101011000100100 C
b101011000100100 X"
b100101100000000000000 C"
b100 A"
b100101100000000000000 +"
b100 )"
b100101100000000000000 q
b100 o
b1000001111010110000000000000000 V"
b10 P"
1(
#760000
0(
b1001000 \"
#765000
b1 R"
b0 N"
b11110101100000000000000000000 W"
b0 U"
b10010110000000000000000 r
b10010110000000000000000 ,"
b10010110000000000000000 D"
1/
b1110101100100100 .
b1110101100100100 ["
b1 M"
b111101011000000000000000000 V"
b11 P"
b1001011000000000000000 q
b101 o
b1001011000000000000000 +"
b101 )"
b1001011000000000000000 C"
b101 A"
0G
1(
#770000
0(
b1001001 \"
#775000
b100101100000000000000000 D"
b100101100000000000000000 ,"
b100101100000000000000000 r
b10 R"
b1111010110000000000000000000000 W"
b1111111111111111111111111111111011 U"
b100 H
b10010110000000000000000 C"
b110 A"
b10010110000000000000000 +"
b110 )"
b10010110000000000000000 q
b110 o
b1 Q"
b0 M"
b11110101100000000000000000000 V"
b100 P"
0/
1(
#780000
0(
b1001010 \"
#785000
b100 R"
b1 N"
b11101011000000000000000000000000 W"
b1111111111111111111111111111110111 U"
b1001011000000000000000000 r
b1001011000000000000000000 ,"
b1001011000000000000000000 D"
1"
b10 Q"
b1111010110000000000000000000000 V"
b101 P"
b100101100000000000000000 q
b111 o
b100101100000000000000000 +"
b111 )"
b100101100000000000000000 C"
b111 A"
b0 H
b11111111 $
b11111111 9
b11111111 #
b11111111 =
b11111111 !
b11111111 F
b1101111000010100 E
b1101111000010100 Z"
b1101111000010100 D
b1101111000010100 Y"
b1101111000010100 C
b1101111000010100 X"
1(
#790000
0(
b1001011 \"
#795000
0"
b10010110000000000000000000 D"
b10010110000000000000000000 ,"
b10010110000000000000000000 r
b1000 R"
b111 N"
b10101100000000000000000000000000 W"
b1111111111111111111111111111110000 U"
b1 H
b0 B
b1001011000000000000000000 C"
b1000 A"
b1001011000000000000000000 +"
b1000 )"
b1001011000000000000000000 q
b1000 o
b100 Q"
b1 M"
b11101011000000000000000000000000 V"
b110 P"
1(
#800000
0(
b1001100 \"
#805000
b10000 R"
b11110 N"
b10110000000000000000000000000000 W"
b1111111111111111111111111111100110 U"
b100101100000000000000000000 r
b100101100000000000000000000 ,"
b100101100000000000000000000 D"
1A
b1000 Q"
b111 M"
b10101100000000000000000000000000 V"
b111 P"
b10010110000000000000000000 q
b1001 o
b10010110000000000000000000 +"
b1001 )"
b10010110000000000000000000 C"
b1001 A"
b11 H
1(
#810000
0(
b1001101 \"
#815000
b1001011000000000000000000000 D"
b1001011000000000000000000000 ,"
b1001011000000000000000000000 r
b100000 R"
b1111010 N"
b11000000000000000000000000000000 W"
b1111111111111111111111111111011101 U"
b100101100000000000000000000 C"
b1010 A"
b100101100000000000000000000 +"
b1010 )"
b100101100000000000000000000 q
b1010 o
b10000 Q"
b11110 M"
b10110000000000000000000000000000 V"
b1000 P"
1(
#820000
0(
b1001110 \"
#825000
b1000000 R"
b111101011 N"
b0 W"
b1111111111111111111111111111111001 U"
b10010110000000000000000000000 r
b10010110000000000000000000000 ,"
b10010110000000000000000000000 D"
b100000 Q"
b1111010 M"
b11000000000000000000000000000000 V"
b1001 P"
b1001011000000000000000000000 q
b1011 o
b1001011000000000000000000000 +"
b1011 )"
b1001011000000000000000000000 C"
b1011 A"
1(
#830000
0(
b1001111 \"
#835000
b100101100000000000000000000000 D"
b100101100000000000000000000000 ,"
b100101100000000000000000000000 r
b10000001 R"
b1110101000 N"
b11101010 U"
b10010110000000000000000000000 C"
b1100 A"
b10010110000000000000000000000 +"
b1100 )"
b10010110000000000000000000000 q
b1100 o
b1000000 Q"
b111101011 M"
b0 V"
b1010 P"
1(
#840000
0(
b1010000 \"
