raymarcher.vcd
$date
	Thu Oct 19 19:37:32 2023
$end
$version
	Icarus Verilog
$end
$timescale
	1ps
$end
$scope module tb $end
$var wire 33 ! y_out [32:0] $end
$var wire 33 " x_out [32:0] $end
$var wire 8 # red_out [7:0] $end
$var wire 1 $ pixel_done $end
$var wire 8 % green_out [7:0] $end
$var wire 8 & blue_out [7:0] $end
$var reg 1 ' clk_in $end
$var reg 1 ( rst_in $end
$var reg 33 ) x_in [32:0] $end
$var reg 33 * y_in [32:0] $end
$scope module raym $end
$var wire 1 ' clk_in $end
$var wire 9 + curr_x [8:0] $end
$var wire 9 , curr_y [8:0] $end
$var wire 1 ( rst_in $end
$var wire 8 - sdf_red_out [7:0] $end
$var wire 64 . sdf_out [63:0] $end
$var wire 8 / sdf_green_out [7:0] $end
$var wire 1 0 sdf_done $end
$var wire 8 1 sdf_blue_out [7:0] $end
$var wire 64 2 ray_gen_out_z [63:0] $end
$var wire 64 3 ray_gen_out_y [63:0] $end
$var wire 64 4 ray_gen_out_x [63:0] $end
$var wire 1 5 ray_gen_done $end
$var parameter 64 6 EPSILON $end
$var parameter 32 7 HEIGHT $end
$var parameter 64 8 MAX_DIST_SQUARE $end
$var parameter 32 9 MAX_STEPS $end
$var parameter 32 : WIDTH $end
$var reg 8 ; blue_out [7:0] $end
$var reg 64 < dir_x [63:0] $end
$var reg 64 = dir_y [63:0] $end
$var reg 64 > dir_z [63:0] $end
$var reg 8 ? green_out [7:0] $end
$var reg 9 @ out_x [8:0] $end
$var reg 9 A out_y [8:0] $end
$var reg 1 $ pixel_done $end
$var reg 64 B ray_gen_in_x [63:0] $end
$var reg 64 C ray_gen_in_y [63:0] $end
$var reg 64 D ray_gen_in_z [63:0] $end
$var reg 1 E ray_gen_start $end
$var reg 8 F ray_steps [7:0] $end
$var reg 64 G ray_x [63:0] $end
$var reg 64 H ray_y [63:0] $end
$var reg 64 I ray_z [63:0] $end
$var reg 8 J red_out [7:0] $end
$var reg 1 K sdf_start $end
$var integer 32 L state [31:0] $end
$scope module ray_gen_inst $end
$var wire 1 ' clk_in $end
$var wire 64 M ray_gen_in_x [63:0] $end
$var wire 64 N ray_gen_in_y [63:0] $end
$var wire 64 O ray_gen_in_z [63:0] $end
$var wire 1 E ray_gen_start $end
$var wire 1 ( rst_in $end
$var wire 64 P sqrt_out [63:0] $end
$var wire 1 Q sqrt_done $end
$var wire 64 R div_z_out [63:0] $end
$var wire 1 S div_z_done $end
$var wire 64 T div_y_out [63:0] $end
$var wire 1 U div_y_done $end
$var wire 64 V div_x_out [63:0] $end
$var wire 1 W div_x_done $end
$var reg 1 X div_start $end
$var reg 1 Y div_x_set $end
$var reg 1 Z div_y_set $end
$var reg 1 [ div_z_set $end
$var reg 64 \ norm [63:0] $end
$var reg 1 ] processing $end
$var reg 1 5 ray_gen_done $end
$var reg 64 ^ ray_gen_out_x [63:0] $end
$var reg 64 _ ray_gen_out_y [63:0] $end
$var reg 64 ` ray_gen_out_z [63:0] $end
$var reg 64 a sqrt_in [63:0] $end
$var reg 1 b sqrt_start $end
$scope module divx $end
$var wire 64 c a [63:0] $end
$var wire 64 d b [63:0] $end
$var wire 1 ' clk $end
$var wire 1 ( rst $end
$var wire 1 X start $end
$var parameter 32 e FBITS $end
$var parameter 32 f FBITSW $end
$var parameter 34 g ITER $end
$var parameter 64 h SMALLEST $end
$var parameter 32 i WIDTH $end
$var parameter 33 j WIDTHU $end
$var reg 1 k a_sig $end
$var reg 64 l acc [63:0] $end
$var reg 64 m acc_next [63:0] $end
$var reg 63 n au [62:0] $end
$var reg 1 o b_sig $end
$var reg 63 p bu [62:0] $end
$var reg 1 q busy $end
$var reg 1 r dbz $end
$var reg 1 W done $end
$var reg 8 s i [7:0] $end
$var reg 1 t ovf $end
$var reg 63 u quo [62:0] $end
$var reg 63 v quo_next [62:0] $end
$var reg 1 w sig_diff $end
$var reg 64 x val [63:0] $end
$var reg 1 y valid $end
$var integer 32 z state [31:0] $end
$upscope $end
$scope module divy $end
$var wire 64 { a [63:0] $end
$var wire 64 | b [63:0] $end
$var wire 1 ' clk $end
$var wire 1 ( rst $end
$var wire 1 X start $end
$var parameter 32 } FBITS $end
$var parameter 32 ~ FBITSW $end
$var parameter 34 !" ITER $end
$var parameter 64 "" SMALLEST $end
$var parameter 32 #" WIDTH $end
$var parameter 33 $" WIDTHU $end
$var reg 1 %" a_sig $end
$var reg 64 &" acc [63:0] $end
$var reg 64 '" acc_next [63:0] $end
$var reg 63 (" au [62:0] $end
$var reg 1 )" b_sig $end
$var reg 63 *" bu [62:0] $end
$var reg 1 +" busy $end
$var reg 1 ," dbz $end
$var reg 1 U done $end
$var reg 8 -" i [7:0] $end
$var reg 1 ." ovf $end
$var reg 63 /" quo [62:0] $end
$var reg 63 0" quo_next [62:0] $end
$var reg 1 1" sig_diff $end
$var reg 64 2" val [63:0] $end
$var reg 1 3" valid $end
$var integer 32 4" state [31:0] $end
$upscope $end
$scope module divz $end
$var wire 64 5" a [63:0] $end
$var wire 64 6" b [63:0] $end
$var wire 1 ' clk $end
$var wire 1 ( rst $end
$var wire 1 X start $end
$var parameter 32 7" FBITS $end
$var parameter 32 8" FBITSW $end
$var parameter 34 9" ITER $end
$var parameter 64 :" SMALLEST $end
$var parameter 32 ;" WIDTH $end
$var parameter 33 <" WIDTHU $end
$var reg 1 =" a_sig $end
$var reg 64 >" acc [63:0] $end
$var reg 64 ?" acc_next [63:0] $end
$var reg 63 @" au [62:0] $end
$var reg 1 A" b_sig $end
$var reg 63 B" bu [62:0] $end
$var reg 1 C" busy $end
$var reg 1 D" dbz $end
$var reg 1 S done $end
$var reg 8 E" i [7:0] $end
$var reg 1 F" ovf $end
$var reg 63 G" quo [62:0] $end
$var reg 63 H" quo_next [62:0] $end
$var reg 1 I" sig_diff $end
$var reg 64 J" val [63:0] $end
$var reg 1 K" valid $end
$var integer 32 L" state [31:0] $end
$upscope $end
$scope module sqrt_inst $end
$var wire 1 ' clk $end
$var wire 64 M" rad [63:0] $end
$var wire 1 b start $end
$var parameter 32 N" FBITS $end
$var parameter 32 O" ITER $end
$var parameter 32 P" WIDTH $end
$var reg 66 Q" ac [65:0] $end
$var reg 66 R" ac_next [65:0] $end
$var reg 1 S" busy $end
$var reg 6 T" i [5:0] $end
$var reg 64 U" q [63:0] $end
$var reg 64 V" q_next [63:0] $end
$var reg 64 W" rem [63:0] $end
$var reg 64 X" root [63:0] $end
$var reg 66 Y" test_res [65:0] $end
$var reg 1 Q valid $end
$var reg 64 Z" x [63:0] $end
$var reg 64 [" x_next [63:0] $end
$upscope $end
$upscope $end
$scope module sdf_inst $end
$var wire 1 ' clk_in $end
$var wire 1 ( rst_in $end
$var wire 1 K sdf_start $end
$var wire 64 \" x [63:0] $end
$var wire 64 ]" y [63:0] $end
$var wire 64 ^" z [63:0] $end
$var reg 8 _" sdf_blue_out [7:0] $end
$var reg 1 0 sdf_done $end
$var reg 8 `" sdf_green_out [7:0] $end
$var reg 64 a" sdf_out [63:0] $end
$var reg 8 b" sdf_red_out [7:0] $end
$var integer 32 c" state [31:0] $end
$upscope $end
$upscope $end
$upscope $end
$enddefinitions $end
$comment Show the parameter values. $end
$dumpall
b1000000 P"
b110000 O"
b100000 N"
b111111 <"
b1000000 ;"
b1000000000000000000000000000000000000000000000000000000000000000 :"
b1011111 9"
b100000 8"
b100000 7"
b111111 $"
b1000000 #"
b1000000000000000000000000000000000000000000000000000000000000000 ""
b1011111 !"
b100000 ~
b100000 }
b111111 j
b1000000 i
b1000000000000000000000000000000000000000000000000000000000000000 h
b1011111 g
b100000 f
b100000 e
b100101100 :
b1100100 9
b1111010000100100000000000000000000000000000000000000 8
b100101100 7
b10000000000000000000000000000 6
$end
#0
$dumpvars
b0 c"
bx b"
bx a"
bx `"
bx _"
bx ^"
bx ]"
bx \"
bx00 ["
bx Z"
bx Y"
bx X"
bx W"
bx0 V"
bx U"
bx T"
xS"
bx R"
bx Q"
bx M"
b0 L"
xK"
bx J"
xI"
bx0 H"
bx G"
xF"
bx E"
xD"
xC"
bx B"
xA"
bx @"
bx ?"
bx >"
x="
bx 6"
bx 5"
b0 4"
x3"
bx 2"
x1"
bx0 0"
bx /"
x."
bx -"
x,"
x+"
bx *"
x)"
bx ("
bx '"
bx &"
x%"
bx |
bx {
b0 z
xy
bx x
xw
bx0 v
bx u
xt
bx s
xr
xq
bx p
xo
bx n
bx m
bx l
xk
bx d
bx c
xb
bx a
bx `
bx _
bx ^
x]
bx \
x[
xZ
xY
xX
xW
bx V
xU
bx T
xS
bx R
xQ
bx P
bx O
bx N
bx M
b0 L
0K
bx J
bx I
bx H
bx G
bx F
0E
bx D
bx C
bx B
bx A
bx @
bx ?
bx >
bx =
bx <
bx ;
x5
bx 4
bx 3
bx 2
bx 1
00
bx /
bx .
bx -
b100101100 ,
b100101100 +
b100101100 *
b100101100 )
0(
0'
bx &
bx %
1$
bx #
b0xxxxxxxxx "
b0xxxxxxxxx !
$end
#5000
0$
0W
0U
0S
0X
0b
b1 L
1'
#10000
0'
1(
#15000
1$
b0 L
05
0]
b0 R
b0 J"
0F"
0D"
0K"
0C"
b0 T
b0 2"
0."
0,"
03"
0+"
b0 V
b0 x
0t
0r
0y
0q
1'
#20000
0'
0(
#25000
0$
b1 L
1'
#30000
0'
#35000
1E
0="
0%"
0k
b11 L
b100101100 !
b100101100 A
b100101100 "
b100101100 @
b1001011000000000000000000000000000000000 D
b1001011000000000000000000000000000000000 O
b1001011000000000000000000000000000000000 5"
b1001011000000000000000000000000000000000 C
b1001011000000000000000000000000000000000 N
b1001011000000000000000000000000000000000 {
b1001011000000000000000000000000000000000 B
b1001011000000000000000000000000000000000 M
b1001011000000000000000000000000000000000 c
1'
#40000
0'
#45000
1b
b1000001111010110000000000000000000000000000000000 a
b1000001111010110000000000000000000000000000000000 M"
1]
1'
#50000
0'
#55000
b0 V"
b0 R"
b10000011110101100000000000000000000000000000000000000 ["
b111111111111111111111111111111111111111111111111111111111111111111 Y"
0b
b0 Q"
b100000111101011000000000000000000000000000000000000 Z"
b0 U"
b0 T"
0Q
1S"
1'
#60000
0'
#65000
b1000001111010110000000000000000000000000000000000000000 ["
b10000011110101100000000000000000000000000000000000000 Z"
b1 T"
1'
#70000
0'
#75000
b100000111101011000000000000000000000000000000000000000000 ["
b1000001111010110000000000000000000000000000000000000000 Z"
b10 T"
1'
#80000
0'
#85000
b10000011110101100000000000000000000000000000000000000000000 ["
b100000111101011000000000000000000000000000000000000000000 Z"
b11 T"
1'
#90000
0'
#95000
b1000001111010110000000000000000000000000000000000000000000000 ["
b10000011110101100000000000000000000000000000000000000000000 Z"
b100 T"
1'
#100000
0'
#105000
b100000111101011000000000000000000000000000000000000000000000000 ["
b1000001111010110000000000000000000000000000000000000000000000 Z"
b101 T"
1'
#110000
0'
#115000
b1 R"
b11110101100000000000000000000000000000000000000000000000000 ["
b100000111101011000000000000000000000000000000000000000000000000 Z"
b110 T"
1'
#120000
0'
#125000
b1 V"
b0 R"
b1111010110000000000000000000000000000000000000000000000000000 ["
b0 Y"
b1 Q"
b11110101100000000000000000000000000000000000000000000000000 Z"
b111 T"
1'
#130000
0'
#135000
b10 V"
b111101011000000000000000000000000000000000000000000000000000000 ["
b111111111111111111111111111111111111111111111111111111111111111011 Y"
b1 U"
b0 Q"
b1111010110000000000000000000000000000000000000000000000000000 Z"
b1000 T"
1'
#140000
0'
#145000
b100 V"
b1 R"
b1110101100000000000000000000000000000000000000000000000000000000 ["
b111111111111111111111111111111111111111111111111111111111111110111 Y"
b10 U"
b111101011000000000000000000000000000000000000000000000000000000 Z"
b1001 T"
1'
#150000
0'
#155000
b1000 V"
b111 R"
b1010110000000000000000000000000000000000000000000000000000000000 ["
b111111111111111111111111111111111111111111111111111111111111110000 Y"
b100 U"
b1 Q"
b1110101100000000000000000000000000000000000000000000000000000000 Z"
b1010 T"
1'
#160000
0'
#165000
b10000 V"
b11110 R"
b1011000000000000000000000000000000000000000000000000000000000000 ["
b111111111111111111111111111111111111111111111111111111111111100110 Y"
b1000 U"
b111 Q"
b1010110000000000000000000000000000000000000000000000000000000000 Z"
b1011 T"
1'
#170000
0'
#175000
b100000 V"
b1111010 R"
b1100000000000000000000000000000000000000000000000000000000000000 ["
b111111111111111111111111111111111111111111111111111111111111011101 Y"
b10000 U"
b11110 Q"
b1011000000000000000000000000000000000000000000000000000000000000 Z"
b1100 T"
1'
#180000
0'
#185000
b1000000 V"
b111101011 R"
b0 ["
b111111111111111111111111111111111111111111111111111111111111111001 Y"
b100000 U"
b1111010 Q"
b1100000000000000000000000000000000000000000000000000000000000000 Z"
b1101 T"
1'
#190000
0'
#195000
b10000001 V"
b1110101000 R"
b11101010 Y"
b1000000 U"
b111101011 Q"
b0 Z"
b1110 T"
1'
#200000
0'
#205000
b100000011 V"
b11010001100 R"
b110100011 Y"
b10000001 U"
b1110101000 Q"
b1111 T"
1'
#210000
0'
#215000
b1000000111 V"
b100111111100 R"
b1001111111 Y"
b100000011 U"
b11010001100 Q"
b10000 T"
1'
#220000
0'
#225000
b10000001111 V"
b11101111100 R"
b111011111 Y"
b1000000111 U"
b100111111100 Q"
b10001 T"
1'
#230000
0'
#235000
b100000011110 V"
b1110111110000 R"
b111111111111111111111111111111111111111111111111111111011100111111 Y"
b10000001111 U"
b11101111100 Q"
b10010 T"
1'
#240000
0'
#245000
b1000000111100 V"
b111011111000000 R"
b111111111111111111111111111111111111111111111111111111110101110111 Y"
b100000011110 U"
b1110111110000 Q"
b10011 T"
1'
#250000
0'
#255000
b10000001111001 V"
b1101101100111100 R"
b11011011001111 Y"
b1000000111100 U"
b111011111000000 Q"
b10100 T"
1'
#260000
0'
#265000
b100000011110011 V"
b10110010101011100 R"
b101100101010111 Y"
b10000001111001 U"
b1101101100111100 Q"
b10101 T"
1'
#270000
0'
#275000
b1000000111100111 V"
b11000011000111100 R"
b110000110001111 Y"
b100000011110011 U"
b10110010101011100 Q"
b10110 T"
1'
#280000
0'
#285000
b10000001111001110 V"
b1100001100011110000 R"
b111111111111111111111111111111111111111111111111110111111010011111 Y"
b1000000111100111 U"
b11000011000111100 Q"
b10111 T"
1'
#290000
0'
#295000
b100000011110011101 V"
b10000010011011011100 R"
b100000100110110111 Y"
b10000001111001110 U"
b1100001100011110000 Q"
b11000 T"
1'
#300000
0'
#305000
b1000000111100111011 V"
b10000110011100 R"
b100001100111 Y"
b100000011110011101 U"
b10000010011011011100 Q"
b11001 T"
1'
#310000
0'
#315000
b10000001111001110110 V"
b1000011001110000 R"
b111111111111111111111111111111111111111111111011111110010010101111 Y"
b1000000111100111011 U"
b10000110011100 Q"
b11010 T"
1'
#320000
0'
#325000
b100000011110011101100 V"
b100001100111000000 R"
b111111111111111111111111111111111111111111111000000000110010010111 Y"
b10000001111001110110 U"
b1000011001110000 Q"
b11011 T"
1'
#330000
0'
#335000
b1000000111100111011000 V"
b10000110011100000000 R"
b111111111111111111111111111111111111111111110000010010011000001111 Y"
b100000011110011101100 U"
b100001100111000000 Q"
b11100 T"
1'
#340000
0'
#345000
b10000001111001110110000 V"
b1000011001110000000000 R"
b111111111111111111111111111111111111111111100001100111111110011111 Y"
b1000000111100111011000 U"
b10000110011100000000 Q"
b11101 T"
1'
#350000
0'
#355000
b100000011110011101100000 V"
b100001100111000000000000 R"
b111111111111111111111111111111111111111111000111011100110100111111 Y"
b10000001111001110110000 U"
b1000011001110000000000 Q"
b11110 T"
1'
#360000
0'
#365000
b1000000111100111011000000 V"
b10000110011100000000000000 R"
b111111111111111111111111111111111111111110011111101101001001111111 Y"
b100000011110011101100000 U"
b100001100111000000000000 Q"
b11111 T"
1'
#370000
0'
#375000
b10000001111001110110000000 V"
b1000011001110000000000000000 R"
b111111111111111111111111111111111111111110000010101000010011111111 Y"
b1000000111100111011000000 U"
b10000110011100000000000000 Q"
b100000 T"
1'
#380000
0'
#385000
b100000011110011101100000001 V"
b1001000100010011111111100 R"
b10010001000100111111111 Y"
b10000001111001110110000000 U"
b1000011001110000000000000000 Q"
b100001 T"
1'
#390000
0'
#395000
b1000000111100111011000000010 V"
b100100010001001111111110000 R"
b111111111111111111111111111111111111110000111001010011101111110111 Y"
b100000011110011101100000001 U"
b1001000100010011111111100 Q"
b100010 T"
1'
#400000
0'
#405000
b10000001111001110110000000100 V"
b10010001000100111111111000000 R"
b111111111111111111111111111111111111100100000011101100011111100111 Y"
b1000000111100111011000000010 U"
b100100010001001111111110000 Q"
b100011 T"
1'
#410000
0'
#415000
b100000011110011101100000001000 V"
b1001000100010011111111100000000 R"
b111111111111111111111111111111111111010001001011101100111110101111 Y"
b10000001111001110110000000100 U"
b10010001000100111111111000000 Q"
b100100 T"
1'
#420000
0'
#425000
b1000000111100111011000000010000 V"
b100100010001001111111110000000000 R"
b111111111111111111111111111111111111000110101000101001111011011111 Y"
b100000011110011101100000001000 U"
b1001000100010011111111100000000 Q"
b100101 T"
1'
#430000
0'
#435000
b10000001111001110110000000100001 V"
b1111001011001001110111011111100 R"
b11110010110010011101110111111 Y"
b1000000111100111011000000010000 U"
b100100010001001111111110000000000 Q"
b100110 T"
1'
#440000
0'
#445000
b100000011110011101100000001000010 V"
b111100101100100111011101111110000 R"
b111111111111111111111111111111111001110001110001110110111001110111 Y"
b10000001111001110110000000100001 U"
b1111001011001001110111011111100 Q"
b100111 T"
1'
#450000
0'
#455000
b1000000111100111011000000010000100 V"
b11110010110010011101110111111000000 R"
b111111111111111111111111111111110111010110010110001011101011100111 Y"
b100000011110011101100000001000010 U"
b111100101100100111011101111110000 Q"
b101000 T"
1'
#460000
0'
#465000
b10000001111001110110000000100001000 V"
b1111001011001001110111011111100000000 R"
b111111111111111111111111111111111101110111110110001110110110101111 Y"
b1000000111100111011000000010000100 U"
b11110010110010011101110111111000000 Q"
b101001 T"
1'
#470000
0'
#475000
b100000011110011101100000001000010001 V"
b11100001110001001111101110101101111100 R"
b111000011100010011111011101011011111 Y"
b10000001111001110110000000100001000 U"
b1111001011001001110111011111100000000 Q"
b101010 T"
1'
#480000
0'
#485000
b1000000111100111011000000010000100011 V"
b101111111011101100110111000110011011100 R"
b1011111110111011001101110001100110111 Y"
b100000011110011101100000001000010001 U"
b11100001110001001111101110101101111100 Q"
b101011 T"
1'
#490000
0'
#495000
b10000001111001110110000000100001000111 V"
b111101110100111101011011111000100111100 R"
b1111011101001111010110111110001001111 Y"
b1000000111100111011000000010000100011 U"
b101111111011101100110111000110011011100 Q"
b101100 T"
1'
#500000
0'
#505000
b100000011110011101100000001000010001110 V"
b11110111010011110101101111100010011110000 R"
b111111111111111111111111111111100111000000010011011101000000011111 Y"
b10000001111001110110000000100001000111 U"
b111101110100111101011011111000100111100 Q"
b101101 T"
1'
#510000
0'
#515000
b1000000111100111011000000010000100011101 V"
b111010101100111111110111100000101011011100 R"
b1110101011001111111101111000001010110111 Y"
b100000011110011101100000001000010001110 U"
b11110111010011110101101111100010011110000 Q"
b101110 T"
1'
#520000
0'
#525000
b10000001111001110110000000100001000111011 V"
b1101000111010001001011101100001100110011100 R"
b11010001110100010010111011000011001100111 Y"
b1000000111100111011000000010000100011101 U"
b111010101100111111110111100000101011011100 Q"
b101111 T"
1'
#530000
0'
#535000
b11010001110100010010111011000011001100111 W"
b10000001111001110110000000100001000111011 P
b10000001111001110110000000100001000111011 X"
1Q
0S"
1'
#540000
0'
#545000
0o
0)"
0A"
0[
0Z
0Y
1X
b10000001111001110110000000100001000111011 \
b10000001111001110110000000100001000111011 d
b10000001111001110110000000100001000111011 |
b10000001111001110110000000100001000111011 6"
1'
#550000
0'
#555000
1C"
0I"
b10000001111001110110000000100001000111011 B"
b1001011000000000000000000000000000000000 @"
b1 L"
1+"
01"
b10000001111001110110000000100001000111011 *"
b1001011000000000000000000000000000000000 ("
b1 4"
1q
0w
b10000001111001110110000000100001000111011 p
b1001011000000000000000000000000000000000 n
b1 z
1'
#560000
0'
#565000
b0 m
b100101100000000000000000000000000000000000 v
b0 '"
b100101100000000000000000000000000000000000 0"
b0 ?"
b100101100000000000000000000000000000000000 H"
b0 l
b10010110000000000000000000000000000000000 u
b0 s
b10 z
b0 &"
b10010110000000000000000000000000000000000 /"
b0 -"
b10 4"
b0 >"
b10010110000000000000000000000000000000000 G"
b0 E"
b10 L"
1'
#570000
0'
#575000
b1001011000000000000000000000000000000000000 H"
b1001011000000000000000000000000000000000000 0"
b1001011000000000000000000000000000000000000 v
b100101100000000000000000000000000000000000 G"
b1 E"
b100101100000000000000000000000000000000000 /"
b1 -"
b100101100000000000000000000000000000000000 u
b1 s
1'
#580000
0'
#585000
b10010110000000000000000000000000000000000000 v
b10010110000000000000000000000000000000000000 0"
b10010110000000000000000000000000000000000000 H"
b1001011000000000000000000000000000000000000 u
b10 s
b1001011000000000000000000000000000000000000 /"
b10 -"
b1001011000000000000000000000000000000000000 G"
b10 E"
1'
#590000
0'
#595000
b100101100000000000000000000000000000000000000 H"
b100101100000000000000000000000000000000000000 0"
b100101100000000000000000000000000000000000000 v
b10010110000000000000000000000000000000000000 G"
b11 E"
b10010110000000000000000000000000000000000000 /"
b11 -"
b10010110000000000000000000000000000000000000 u
b11 s
1'
#600000
0'
#605000
b1001011000000000000000000000000000000000000000 v
b1001011000000000000000000000000000000000000000 0"
b1001011000000000000000000000000000000000000000 H"
b100101100000000000000000000000000000000000000 u
b100 s
b100101100000000000000000000000000000000000000 /"
b100 -"
b100101100000000000000000000000000000000000000 G"
b100 E"
1'
#610000
0'
#615000
b10010110000000000000000000000000000000000000000 H"
b10010110000000000000000000000000000000000000000 0"
b10010110000000000000000000000000000000000000000 v
b1001011000000000000000000000000000000000000000 G"
b101 E"
b1001011000000000000000000000000000000000000000 /"
b101 -"
b1001011000000000000000000000000000000000000000 u
b101 s
1'
#620000
0'
#625000
b100101100000000000000000000000000000000000000000 v
b100101100000000000000000000000000000000000000000 0"
b100101100000000000000000000000000000000000000000 H"
b10010110000000000000000000000000000000000000000 u
b110 s
b10010110000000000000000000000000000000000000000 /"
b110 -"
b10010110000000000000000000000000000000000000000 G"
b110 E"
1'
#630000
0'
#635000
b1001011000000000000000000000000000000000000000000 H"
b1001011000000000000000000000000000000000000000000 0"
b1001011000000000000000000000000000000000000000000 v
b100101100000000000000000000000000000000000000000 G"
b111 E"
b100101100000000000000000000000000000000000000000 /"
b111 -"
b100101100000000000000000000000000000000000000000 u
b111 s
1'
#640000
0'
#645000
b10010110000000000000000000000000000000000000000000 v
b10010110000000000000000000000000000000000000000000 0"
b10010110000000000000000000000000000000000000000000 H"
b1001011000000000000000000000000000000000000000000 u
b1000 s
b1001011000000000000000000000000000000000000000000 /"
b1000 -"
b1001011000000000000000000000000000000000000000000 G"
b1000 E"
1'
#650000
0'
#655000
b100101100000000000000000000000000000000000000000000 H"
b100101100000000000000000000000000000000000000000000 0"
b100101100000000000000000000000000000000000000000000 v
b10010110000000000000000000000000000000000000000000 G"
b1001 E"
b10010110000000000000000000000000000000000000000000 /"
b1001 -"
b10010110000000000000000000000000000000000000000000 u
b1001 s
1'
#660000
0'
#665000
b1001011000000000000000000000000000000000000000000000 v
b1001011000000000000000000000000000000000000000000000 0"
b1001011000000000000000000000000000000000000000000000 H"
b100101100000000000000000000000000000000000000000000 u
b1010 s
b100101100000000000000000000000000000000000000000000 /"
b1010 -"
b100101100000000000000000000000000000000000000000000 G"
b1010 E"
1'
#670000
0'
#675000
b10010110000000000000000000000000000000000000000000000 H"
b10010110000000000000000000000000000000000000000000000 0"
b10010110000000000000000000000000000000000000000000000 v
b1001011000000000000000000000000000000000000000000000 G"
b1011 E"
b1001011000000000000000000000000000000000000000000000 /"
b1011 -"
b1001011000000000000000000000000000000000000000000000 u
b1011 s
1'
#680000
0'
#685000
b100101100000000000000000000000000000000000000000000000 v
b100101100000000000000000000000000000000000000000000000 0"
b100101100000000000000000000000000000000000000000000000 H"
b10010110000000000000000000000000000000000000000000000 u
b1100 s
b10010110000000000000000000000000000000000000000000000 /"
b1100 -"
b10010110000000000000000000000000000000000000000000000 G"
b1100 E"
1'
#690000
0'
#695000
b1001011000000000000000000000000000000000000000000000000 H"
b1001011000000000000000000000000000000000000000000000000 0"
b1001011000000000000000000000000000000000000000000000000 v
b100101100000000000000000000000000000000000000000000000 G"
b1101 E"
b100101100000000000000000000000000000000000000000000000 /"
b1101 -"
b100101100000000000000000000000000000000000000000000000 u
b1101 s
1'
#700000
0'
#705000
b10010110000000000000000000000000000000000000000000000000 v
b10010110000000000000000000000000000000000000000000000000 0"
b10010110000000000000000000000000000000000000000000000000 H"
b1001011000000000000000000000000000000000000000000000000 u
b1110 s
b1001011000000000000000000000000000000000000000000000000 /"
b1110 -"
b1001011000000000000000000000000000000000000000000000000 G"
b1110 E"
1'
#710000
0'
#715000
b100101100000000000000000000000000000000000000000000000000 H"
b100101100000000000000000000000000000000000000000000000000 0"
b100101100000000000000000000000000000000000000000000000000 v
b10010110000000000000000000000000000000000000000000000000 G"
b1111 E"
b10010110000000000000000000000000000000000000000000000000 /"
b1111 -"
b10010110000000000000000000000000000000000000000000000000 u
b1111 s
1'
#720000
0'
#725000
b1001011000000000000000000000000000000000000000000000000000 v
b1001011000000000000000000000000000000000000000000000000000 0"
b1001011000000000000000000000000000000000000000000000000000 H"
b100101100000000000000000000000000000000000000000000000000 u
b10000 s
b100101100000000000000000000000000000000000000000000000000 /"
b10000 -"
b100101100000000000000000000000000000000000000000000000000 G"
b10000 E"
1'
#730000
0'
#735000
b10010110000000000000000000000000000000000000000000000000000 H"
b10010110000000000000000000000000000000000000000000000000000 0"
b10010110000000000000000000000000000000000000000000000000000 v
b1001011000000000000000000000000000000000000000000000000000 G"
b10001 E"
b1001011000000000000000000000000000000000000000000000000000 /"
b10001 -"
b1001011000000000000000000000000000000000000000000000000000 u
b10001 s
1'
#740000
0'
#745000
b100101100000000000000000000000000000000000000000000000000000 v
b100101100000000000000000000000000000000000000000000000000000 0"
b100101100000000000000000000000000000000000000000000000000000 H"
b10010110000000000000000000000000000000000000000000000000000 u
b10010 s
b10010110000000000000000000000000000000000000000000000000000 /"
b10010 -"
b10010110000000000000000000000000000000000000000000000000000 G"
b10010 E"
1'
#750000
0'
#755000
b1001011000000000000000000000000000000000000000000000000000000 H"
b1001011000000000000000000000000000000000000000000000000000000 0"
b1001011000000000000000000000000000000000000000000000000000000 v
b100101100000000000000000000000000000000000000000000000000000 G"
b10011 E"
b100101100000000000000000000000000000000000000000000000000000 /"
b10011 -"
b100101100000000000000000000000000000000000000000000000000000 u
b10011 s
1'
#760000
0'
#765000
b10010110000000000000000000000000000000000000000000000000000000 v
b10010110000000000000000000000000000000000000000000000000000000 0"
b10010110000000000000000000000000000000000000000000000000000000 H"
b1001011000000000000000000000000000000000000000000000000000000 u
b10100 s
b1001011000000000000000000000000000000000000000000000000000000 /"
b10100 -"
b1001011000000000000000000000000000000000000000000000000000000 G"
b10100 E"
1'
#770000
0'
#775000
b100101100000000000000000000000000000000000000000000000000000000 H"
b100101100000000000000000000000000000000000000000000000000000000 0"
b100101100000000000000000000000000000000000000000000000000000000 v
b10010110000000000000000000000000000000000000000000000000000000 G"
b10101 E"
b10010110000000000000000000000000000000000000000000000000000000 /"
b10101 -"
b10010110000000000000000000000000000000000000000000000000000000 u
b10101 s
1'
#780000
0'
#785000
b1 m
b1011000000000000000000000000000000000000000000000000000000000 v
b1 '"
b1011000000000000000000000000000000000000000000000000000000000 0"
b1 ?"
b1011000000000000000000000000000000000000000000000000000000000 H"
b100101100000000000000000000000000000000000000000000000000000000 u
b10110 s
b100101100000000000000000000000000000000000000000000000000000000 /"
b10110 -"
b100101100000000000000000000000000000000000000000000000000000000 G"
b10110 E"
1'
#790000
0'
#795000
b10 ?"
b10110000000000000000000000000000000000000000000000000000000000 H"
b10 '"
b10110000000000000000000000000000000000000000000000000000000000 0"
b10 m
b10110000000000000000000000000000000000000000000000000000000000 v
b1011000000000000000000000000000000000000000000000000000000000 G"
b1 >"
b10111 E"
b1011000000000000000000000000000000000000000000000000000000000 /"
b1 &"
b10111 -"
b1011000000000000000000000000000000000000000000000000000000000 u
b1 l
b10111 s
1'
#800000
0'
#805000
b100 m
b101100000000000000000000000000000000000000000000000000000000000 v
b100 '"
b101100000000000000000000000000000000000000000000000000000000000 0"
b100 ?"
b101100000000000000000000000000000000000000000000000000000000000 H"
b10110000000000000000000000000000000000000000000000000000000000 u
b10 l
b11000 s
b10110000000000000000000000000000000000000000000000000000000000 /"
b10 &"
b11000 -"
b10110000000000000000000000000000000000000000000000000000000000 G"
b10 >"
b11000 E"
1'
#810000
0'
#815000
b1001 ?"
b11000000000000000000000000000000000000000000000000000000000000 H"
b1001 '"
b11000000000000000000000000000000000000000000000000000000000000 0"
b1001 m
b11000000000000000000000000000000000000000000000000000000000000 v
b101100000000000000000000000000000000000000000000000000000000000 G"
b100 >"
b11001 E"
b101100000000000000000000000000000000000000000000000000000000000 /"
b100 &"
b11001 -"
b101100000000000000000000000000000000000000000000000000000000000 u
b100 l
b11001 s
1'
#820000
0'
#825000
b10010 m
b110000000000000000000000000000000000000000000000000000000000000 v
b10010 '"
b110000000000000000000000000000000000000000000000000000000000000 0"
b10010 ?"
b110000000000000000000000000000000000000000000000000000000000000 H"
b11000000000000000000000000000000000000000000000000000000000000 u
b1001 l
b11010 s
b11000000000000000000000000000000000000000000000000000000000000 /"
b1001 &"
b11010 -"
b11000000000000000000000000000000000000000000000000000000000000 G"
b1001 >"
b11010 E"
1'
#830000
0'
